(module 1_pin_smd_3x3 (layer F.Cu) (tedit 5718A349)
  (fp_text reference REF** (at -3 -3) (layer F.SilkS)
    (effects (font (size 1 1) (thickness 0.15)))
  )
  (fp_text value 1_pin_smd_3x3 (at 1 -5) (layer F.Fab)
    (effects (font (size 1 1) (thickness 0.15)))
  )
  (pad 1 smd rect (at 0 0) (size 3 3) (layers F.Cu F.Paste F.Mask))
)
