(module 2512_Current_sense (layer F.Cu) (tedit 58075674)
  (fp_text reference REF** (at -5.57 -3.75) (layer F.SilkS)
    (effects (font (size 1 1) (thickness 0.15)))
  )
  (fp_text value 2512_Current_sense (at 0 -5.15) (layer F.Fab)
    (effects (font (size 1 1) (thickness 0.15)))
  )
  (pad 1 smd rect (at -2.25 0) (size 3.1 4) (layers F.Cu F.Paste F.Mask))
  (pad 2 smd rect (at 2.25 0) (size 3.1 4) (layers F.Cu F.Paste F.Mask))
)
