(module 4x220ohm (layer F.Cu) (tedit 585010BA)
  (fp_text reference REF** (at 2.375 -3.3) (layer F.SilkS)
    (effects (font (size 1 1) (thickness 0.15)))
  )
  (fp_text value 4x220ohm (at 0 -1.9) (layer F.Fab)
    (effects (font (size 1 1) (thickness 0.15)))
  )
  (fp_line (start 0.95 0.8) (end 1.6 0.8) (layer F.SilkS) (width 0.15))
  (fp_line (start 0.15 0.8) (end 0.65 0.8) (layer F.SilkS) (width 0.15))
  (fp_line (start -0.65 0.8) (end -0.15 0.8) (layer F.SilkS) (width 0.15))
  (fp_line (start -1.6 0.8) (end -0.95 0.8) (layer F.SilkS) (width 0.15))
  (fp_line (start 0.95 -0.8) (end 1.6 -0.8) (layer F.SilkS) (width 0.15))
  (fp_line (start 0.15 -0.8) (end 0.65 -0.8) (layer F.SilkS) (width 0.15))
  (fp_line (start -0.65 -0.8) (end -0.15 -0.8) (layer F.SilkS) (width 0.15))
  (fp_line (start -1.6 -0.8) (end -0.95 -0.8) (layer F.SilkS) (width 0.15))
  (fp_line (start 0.15 0.8) (end 0.15 -0.8) (layer F.SilkS) (width 0.15))
  (fp_line (start -0.15 0.8) (end -0.15 -0.8) (layer F.SilkS) (width 0.15))
  (fp_line (start 0.65 0.8) (end 0.65 -0.8) (layer F.SilkS) (width 0.15))
  (fp_line (start -0.65 0.8) (end -0.65 -0.8) (layer F.SilkS) (width 0.15))
  (fp_line (start -0.95 -0.8) (end -0.95 0.8) (layer F.SilkS) (width 0.15))
  (fp_line (start 0.95 0.8) (end 0.95 -0.8) (layer F.SilkS) (width 0.15))
  (fp_line (start -1.6 0.5) (end 1.6 0.5) (layer F.SilkS) (width 0.15))
  (fp_line (start -1.6 -0.5) (end 1.6 -0.5) (layer F.SilkS) (width 0.15))
  (fp_line (start 1.6 -0.8) (end 1.6 0.8) (layer F.SilkS) (width 0.15))
  (fp_line (start -1.6 0.8) (end -1.6 -0.8) (layer F.SilkS) (width 0.15))
  (pad 1 smd rect (at -1.275 1) (size 0.65 0.6) (layers F.Cu F.Paste F.Mask))
  (pad 8 smd rect (at -1.275 -1) (size 0.65 0.6) (layers F.Cu F.Paste F.Mask))
  (pad 4 smd rect (at 1.275 1) (size 0.65 0.6) (layers F.Cu F.Paste F.Mask))
  (pad 5 smd rect (at 1.275 -1) (size 0.65 0.6) (layers F.Cu F.Paste F.Mask))
  (pad 2 smd rect (at -0.4 1) (size 0.5 0.6) (layers F.Cu F.Paste F.Mask))
  (pad 3 smd rect (at 0.4 1) (size 0.5 0.6) (layers F.Cu F.Paste F.Mask))
  (pad 6 smd rect (at 0.4 -1) (size 0.5 0.6) (layers F.Cu F.Paste F.Mask))
  (pad 7 smd rect (at -0.4 -1) (size 0.5 0.6) (layers F.Cu F.Paste F.Mask))
)
