(module DEAN_zenski (layer F.Cu) (tedit 58503291)
  (fp_text reference P2 (at 0 -8.5) (layer F.SilkS)
    (effects (font (size 1 1) (thickness 0.15)))
  )
  (fp_text value Gniazdo_zenskie (at 0 -10.25) (layer F.Fab)
    (effects (font (size 1 1) (thickness 0.15)))
  )
  (fp_line (start -6.5 2.75) (end -3.5 2.75) (layer F.CrtYd) (width 0.15))
  (fp_line (start -5 -1.75) (end -5 -4.75) (layer F.CrtYd) (width 0.15))
  (fp_line (start -6.5 -3.25) (end -3.5 -3.25) (layer F.CrtYd) (width 0.15))
  (fp_line (start 0 -4) (end 5.25 -4) (layer B.SilkS) (width 0.15))
  (fp_line (start 5.25 -4) (end 5.25 -5.25) (layer B.SilkS) (width 0.15))
  (fp_line (start 5.25 -5.25) (end 0 -5.25) (layer B.SilkS) (width 0.15))
  (fp_line (start 0 4.5) (end 5.25 4.5) (layer B.SilkS) (width 0.15))
  (fp_line (start 5.25 4.5) (end 5.25 0.5) (layer B.SilkS) (width 0.15))
  (fp_line (start 5.25 0.5) (end 0 0.5) (layer B.SilkS) (width 0.15))
  (fp_line (start 0 6.5) (end 0 -6.75) (layer B.SilkS) (width 0.15))
  (fp_line (start 0 -6.75) (end -10 -6.75) (layer B.SilkS) (width 0.15))
  (fp_line (start -10 -6.75) (end -10 6.5) (layer B.SilkS) (width 0.15))
  (fp_line (start -10 6.5) (end 0 6.5) (layer B.SilkS) (width 0.15))
  (fp_line (start 5.25 4.5) (end 0 4.5) (layer F.SilkS) (width 0.15))
  (fp_line (start 5.25 0.5) (end 0 0.5) (layer F.SilkS) (width 0.15))
  (fp_line (start 5.25 0.5) (end 5.25 4.5) (layer F.SilkS) (width 0.15))
  (fp_line (start 5.25 -5.25) (end 0 -5.25) (layer F.SilkS) (width 0.15))
  (fp_line (start 5.25 -4) (end 0 -4) (layer F.SilkS) (width 0.15))
  (fp_line (start 5.25 -5.25) (end 5.25 -4) (layer F.SilkS) (width 0.15))
  (fp_line (start -10 6.5) (end -10 -6.75) (layer F.SilkS) (width 0.15))
  (fp_line (start 0 6.5) (end 0 0) (layer F.SilkS) (width 0.15))
  (fp_line (start 0 6.5) (end -10 6.5) (layer F.SilkS) (width 0.15))
  (fp_line (start 0 0) (end 0 -6.75) (layer F.SilkS) (width 0.15))
  (fp_line (start 0 -6.75) (end -10 -6.75) (layer F.SilkS) (width 0.15))
  (pad 1 smd rect (at 3.1 2.5) (size 6.25 6) (layers F.Cu F.Paste F.Mask))
  (pad 2 smd rect (at 3.1 -4.65) (size 6.25 3.25) (layers F.Cu F.Paste F.Mask))
)
