(module Gniazdo_bezpiecznika_5x20mm (layer F.Cu) (tedit 5730C9BE)
  (fp_text reference REF** (at -4.65 -7.6) (layer F.SilkS)
    (effects (font (size 1 1) (thickness 0.15)))
  )
  (fp_text value Gniazdo_bezpiecznika_5x20mm (at 4.9 -9.55) (layer F.Fab)
    (effects (font (size 1 1) (thickness 0.15)))
  )
  (fp_line (start 0 5.15) (end 11 5.15) (layer F.SilkS) (width 0.15))
  (fp_line (start 11 5.15) (end 11 -5.15) (layer F.SilkS) (width 0.15))
  (fp_line (start 11 -5.15) (end -11 -5.15) (layer F.SilkS) (width 0.15))
  (fp_line (start -11 -5.15) (end -11 5.15) (layer F.SilkS) (width 0.15))
  (fp_line (start -11 5.15) (end 0 5.15) (layer F.SilkS) (width 0.15))
  (pad 2 thru_hole circle (at 18.4 0) (size 3 3) (drill 1) (layers *.Cu *.Mask F.SilkS))
  (pad 1 thru_hole circle (at -18.4 0) (size 3 3) (drill 1) (layers *.Cu *.Mask F.SilkS))
)
