(module GoldPin_1x3 (layer F.Cu) (tedit 5878C7A3)
  (descr "Through hole pin header")
  (tags "pin header")
  (fp_text reference REF** (at 0 -5.1) (layer F.SilkS)
    (effects (font (size 1 1) (thickness 0.15)))
  )
  (fp_text value Pin_Header_Straight_1x03 (at 0 -3.1) (layer F.Fab)
    (effects (font (size 1 1) (thickness 0.15)))
  )
  (fp_line (start -1.75 -1.75) (end -1.75 6.85) (layer F.CrtYd) (width 0.05))
  (fp_line (start 1.75 -1.75) (end 1.75 6.85) (layer F.CrtYd) (width 0.05))
  (fp_line (start -1.75 -1.75) (end 1.75 -1.75) (layer F.CrtYd) (width 0.05))
  (fp_line (start -1.75 6.85) (end 1.75 6.85) (layer F.CrtYd) (width 0.05))
  (fp_line (start -1.27 1.27) (end -1.27 6.35) (layer F.SilkS) (width 0.15))
  (fp_line (start -1.27 6.35) (end 1.27 6.35) (layer F.SilkS) (width 0.15))
  (fp_line (start 1.27 6.35) (end 1.27 1.27) (layer F.SilkS) (width 0.15))
  (fp_line (start 1.55 -1.55) (end 1.55 0) (layer F.SilkS) (width 0.15))
  (fp_line (start 1.27 1.27) (end -1.27 1.27) (layer F.SilkS) (width 0.15))
  (fp_line (start -1.55 0) (end -1.55 -1.55) (layer F.SilkS) (width 0.15))
  (fp_line (start -1.55 -1.55) (end 1.55 -1.55) (layer F.SilkS) (width 0.15))
  (pad 1 thru_hole rect (at 0 0) (size 2.032 1.7272) (drill 0.6) (layers *.Cu *.Mask F.SilkS))
  (pad 2 thru_hole oval (at 0 2.54) (size 2.032 1.7272) (drill 0.6) (layers *.Cu *.Mask F.SilkS))
  (pad 3 thru_hole oval (at 0 5.08) (size 2.032 1.7272) (drill 0.6) (layers *.Cu *.Mask F.SilkS))
  (model Pin_Headers.3dshapes/Pin_Header_Straight_1x03.wrl
    (at (xyz 0 -0.1 0))
    (scale (xyz 1 1 1))
    (rotate (xyz 0 0 90))
  )
)
