(module MC32882 (layer F.Cu) (tedit 58075C7D)
  (fp_text reference REF** (at -1.37 -4.39) (layer F.SilkS)
    (effects (font (size 1 1) (thickness 0.15)))
  )
  (fp_text value MC32882 (at -0.06 -5.93) (layer F.Fab)
    (effects (font (size 1 1) (thickness 0.15)))
  )
  (fp_line (start 3.2 3) (end 3.2 -3) (layer B.SilkS) (width 0.15))
  (fp_line (start 3.2 -3) (end -3.2 -3) (layer B.SilkS) (width 0.15))
  (fp_line (start -3.2 -3) (end -3.2 3) (layer B.SilkS) (width 0.15))
  (fp_line (start -3.2 3) (end 3.2 3) (layer B.SilkS) (width 0.15))
  (fp_line (start -3.2 -3) (end -3.2 3) (layer F.SilkS) (width 0.15))
  (fp_line (start -3.2 3) (end 3.2 3) (layer F.SilkS) (width 0.15))
  (fp_line (start 3.2 3) (end 3.2 -3) (layer F.SilkS) (width 0.15))
  (fp_line (start 3.2 -3) (end -3.2 -3) (layer F.SilkS) (width 0.15))
  (pad 1 smd rect (at -4.2 -2.25) (size 1.6 1.4) (layers F.Cu F.Paste F.Mask))
  (pad 2 smd rect (at -4.2 2.25) (size 1.6 1.4) (layers F.Cu F.Paste F.Mask))
  (pad 1 smd rect (at 4.2 -2.25) (size 1.6 1.4) (layers F.Cu F.Paste F.Mask))
  (pad 2 smd rect (at 4.2 2.25) (size 1.6 1.4) (layers F.Cu F.Paste F.Mask))
)
