(module SOD-128 (layer F.Cu) (tedit 584C24D3)
  (fp_text reference REF** (at -0.85 -2.5) (layer F.SilkS)
    (effects (font (size 1 1) (thickness 0.15)))
  )
  (fp_text value SOD-128 (at 0.5 -3.7) (layer F.Fab)
    (effects (font (size 1 1) (thickness 0.15)))
  )
  (fp_line (start -2.1 1.7) (end 2.1 1.7) (layer B.SilkS) (width 0.15))
  (fp_line (start 2.1 1.7) (end 2.1 -1.7) (layer B.SilkS) (width 0.15))
  (fp_line (start 2.1 -1.7) (end -2.1 -1.7) (layer B.SilkS) (width 0.15))
  (fp_line (start -2.1 -1.7) (end -2.1 1.7) (layer B.SilkS) (width 0.15))
  (fp_line (start 2.1 1.7) (end -2.1 1.7) (layer F.SilkS) (width 0.15))
  (fp_line (start 2.1 -1.7) (end 2.1 1.7) (layer F.SilkS) (width 0.15))
  (fp_line (start -2.1 -1.7) (end -2.1 1.7) (layer F.SilkS) (width 0.15))
  (fp_line (start -2.1 -1.7) (end 2.1 -1.7) (layer F.SilkS) (width 0.15))
  (pad 2 smd rect (at 2.5 0) (size 1.4 2.1) (layers F.Cu F.Paste F.Mask))
  (pad 1 smd rect (at -2.5 0) (size 1.4 2.1) (layers F.Cu F.Paste F.Mask))
)
