(module SOT-223 (layer F.Cu) (tedit 5877DB99)
  (solder_paste_margin -0.0762)
  (attr smd)
  (fp_text reference U4 (at 0 5.08) (layer F.SilkS)
    (effects (font (size 0.762 0.762) (thickness 0.1524)))
  )
  (fp_text value NCP1117 (at 0 0) (layer F.SilkS) hide
    (effects (font (size 0.762 0.762) (thickness 0.1524)))
  )
  (fp_circle (center -5 -2.3) (end -4.6 -2.3) (layer F.SilkS) (width 0.2032))
  (fp_line (start -1.8 -3.3) (end 1.8 -3.3) (layer F.SilkS) (width 0.2032))
  (fp_line (start 1.8 -3.3) (end 1.8 3.3) (layer F.SilkS) (width 0.2032))
  (fp_line (start 1.8 3.3) (end -1.8 3.3) (layer F.SilkS) (width 0.2032))
  (fp_line (start -1.8 3.3) (end -1.8 -3.3) (layer F.SilkS) (width 0.2032))
  (pad 1 smd rect (at -3.1 -2.3) (size 2.2 1.2) (layers F.Cu F.Paste F.Mask))
  (pad 2 smd rect (at -3.1 0) (size 2.2 1.2) (layers F.Cu F.Paste F.Mask))
  (pad 3 smd rect (at -3.1 2.3) (size 2.2 1.2) (layers F.Cu F.Paste F.Mask))
  (pad 2 smd rect (at 3.1 0) (size 2.2 3.5) (layers F.Cu F.Paste F.Mask))
)
