(module SPVS320200 (layer F.Cu) (tedit 57AB08F6)
  (fp_text reference REF** (at 1.31 -5.06) (layer F.SilkS)
    (effects (font (size 1 1) (thickness 0.15)))
  )
  (fp_text value SPVS320200 (at 3.91 -6.43) (layer F.Fab)
    (effects (font (size 1 1) (thickness 0.15)))
  )
  (fp_line (start 0.3 -3.97) (end 0.3 -2.41) (layer F.SilkS) (width 0.15))
  (fp_line (start 0.3 -3.96) (end 1.36 -2.41) (layer F.SilkS) (width 0.15))
  (fp_line (start 1.75 -2.41) (end 1.75 0.89) (layer F.SilkS) (width 0.15))
  (fp_line (start 1.75 0.89) (end -1.75 0.89) (layer F.SilkS) (width 0.15))
  (fp_line (start -1.75 -2.41) (end -1.75 0.89) (layer F.SilkS) (width 0.15))
  (fp_line (start 1.75 -2.41) (end -1.75 -2.41) (layer F.SilkS) (width 0.15))
  (pad 1 smd rect (at -1.825 0) (size 0.85 1.1) (layers F.Cu F.Paste F.Mask))
  (pad 2 smd rect (at 1.825 0) (size 0.85 1.1) (layers F.Cu F.Paste F.Mask))
  (pad "" smd rect (at -1.98 -1.98) (size 0.55 0.6) (layers F.Cu F.Paste F.Mask))
  (pad "" smd rect (at 1.98 -1.98) (size 0.55 0.6) (layers F.Cu F.Paste F.Mask))
)
