(export (version D)
  (design
    (source C:/Users/Piotrek/Desktop/Skarabot/Elektronika/Moduł_z_czujnikami/Moduł_z_czujnikami.sch)
    (date "2017-03-27 13:30:53")
    (tool "Eeschema 4.0.0-rc2-stable")
    (sheet (number 1) (name /) (tstamps /)
      (title_block
        (title)
        (company)
        (rev)
        (date)
        (source Moduł_z_czujnikami.sch)
        (comment (number 1) (value ""))
        (comment (number 2) (value ""))
        (comment (number 3) (value ""))
        (comment (number 4) (value "")))))
  (components
    (comp (ref U1)
      (value KTIR0711S)
      (footprint 111:KTIR0711S)
      (libsource (lib opto) (part LTV-817))
      (sheetpath (names /) (tstamps /))
      (tstamp 58D8EAF8))
    (comp (ref R1)
      (value 220R)
      (footprint 111:0805)
      (libsource (lib device) (part R))
      (sheetpath (names /) (tstamps /))
      (tstamp 58D8EC49))
    (comp (ref R2)
      (value 10K)
      (footprint 111:0805)
      (libsource (lib device) (part R))
      (sheetpath (names /) (tstamps /))
      (tstamp 58D8ECEB))
    (comp (ref U2)
      (value KTIR0711S)
      (footprint 111:KTIR0711S)
      (libsource (lib opto) (part LTV-817))
      (sheetpath (names /) (tstamps /))
      (tstamp 58D8F1B3))
    (comp (ref R3)
      (value 220R)
      (footprint 111:0805)
      (libsource (lib device) (part R))
      (sheetpath (names /) (tstamps /))
      (tstamp 58D8F1CF))
    (comp (ref R4)
      (value 10K)
      (footprint 111:0805)
      (libsource (lib device) (part R))
      (sheetpath (names /) (tstamps /))
      (tstamp 58D8F1DA))
    (comp (ref U3)
      (value KTIR0711S)
      (footprint 111:KTIR0711S)
      (libsource (lib opto) (part LTV-817))
      (sheetpath (names /) (tstamps /))
      (tstamp 58D8F486))
    (comp (ref R5)
      (value 220R)
      (footprint 111:0805)
      (libsource (lib device) (part R))
      (sheetpath (names /) (tstamps /))
      (tstamp 58D8F4A2))
    (comp (ref R6)
      (value 10K)
      (footprint 111:0805)
      (libsource (lib device) (part R))
      (sheetpath (names /) (tstamps /))
      (tstamp 58D8F4AD))
    (comp (ref U4)
      (value KTIR0711S)
      (footprint 111:KTIR0711S)
      (libsource (lib opto) (part LTV-817))
      (sheetpath (names /) (tstamps /))
      (tstamp 58D8F4BC))
    (comp (ref R7)
      (value 220R)
      (footprint 111:0805)
      (libsource (lib device) (part R))
      (sheetpath (names /) (tstamps /))
      (tstamp 58D8F4D8))
    (comp (ref R8)
      (value 10K)
      (footprint 111:0805)
      (libsource (lib device) (part R))
      (sheetpath (names /) (tstamps /))
      (tstamp 58D8F4E3))
    (comp (ref U5)
      (value KTIR0711S)
      (footprint 111:KTIR0711S)
      (libsource (lib opto) (part LTV-817))
      (sheetpath (names /) (tstamps /))
      (tstamp 58D8F624))
    (comp (ref R9)
      (value 220R)
      (footprint 111:0805)
      (libsource (lib device) (part R))
      (sheetpath (names /) (tstamps /))
      (tstamp 58D8F640))
    (comp (ref R10)
      (value 10K)
      (footprint 111:0805)
      (libsource (lib device) (part R))
      (sheetpath (names /) (tstamps /))
      (tstamp 58D8F64B))
    (comp (ref U6)
      (value KTIR0711S)
      (footprint 111:KTIR0711S)
      (libsource (lib opto) (part LTV-817))
      (sheetpath (names /) (tstamps /))
      (tstamp 58D8F65A))
    (comp (ref R11)
      (value 220R)
      (footprint 111:0805)
      (libsource (lib device) (part R))
      (sheetpath (names /) (tstamps /))
      (tstamp 58D8F676))
    (comp (ref R12)
      (value 10K)
      (footprint 111:0805)
      (libsource (lib device) (part R))
      (sheetpath (names /) (tstamps /))
      (tstamp 58D8F681))
    (comp (ref P1)
      (value Złącze)
      (footprint 111:GoldPin_1x8)
      (libsource (lib conn) (part CONN_01X08))
      (sheetpath (names /) (tstamps /))
      (tstamp 58D8FDD7)))
  (libparts
    (libpart (lib conn) (part CONN_01X08)
      (footprints
        (fp Pin_Header_Straight_1X08)
        (fp Pin_Header_Angled_1X08)
        (fp Socket_Strip_Straight_1X08)
        (fp Socket_Strip_Angled_1X08))
      (fields
        (field (name Reference) P)
        (field (name Value) CONN_01X08))
      (pins
        (pin (num 1) (name P1) (type passive))
        (pin (num 2) (name P2) (type passive))
        (pin (num 3) (name P3) (type passive))
        (pin (num 4) (name P4) (type passive))
        (pin (num 5) (name P5) (type passive))
        (pin (num 6) (name P6) (type passive))
        (pin (num 7) (name P7) (type passive))
        (pin (num 8) (name P8) (type passive))))
    (libpart (lib opto) (part LTV-817)
      (description "DIP-4, DC Optocoupler, Vce 35V, CTR 50%")
      (docs http://www.us.liteon.com/downloads/LTV-817-827-847.PDF)
      (footprints
        (fp DIP-4*))
      (fields
        (field (name Reference) U)
        (field (name Value) LTV-817)
        (field (name Footprint) DIP-4))
      (pins
        (pin (num 1) (name ~) (type passive))
        (pin (num 2) (name ~) (type passive))
        (pin (num 3) (name ~) (type passive))
        (pin (num 4) (name ~) (type passive))))
    (libpart (lib device) (part R)
      (description Resistor)
      (footprints
        (fp R_*)
        (fp Resistor_*))
      (fields
        (field (name Reference) R)
        (field (name Value) R))
      (pins
        (pin (num 1) (name ~) (type passive))
        (pin (num 2) (name ~) (type passive)))))
  (libraries
    (library (logical device)
      (uri "C:\\Program Files\\KiCad\\share\\kicad\\library\\device.lib"))
    (library (logical conn)
      (uri "C:\\Program Files\\KiCad\\share\\kicad\\library\\conn.lib"))
    (library (logical opto)
      (uri "C:\\Program Files\\KiCad\\share\\kicad\\library\\opto.lib")))
  (nets
    (net (code 1) (name KTIR_5)
      (node (ref U5) (pin 4))
      (node (ref P1) (pin 7))
      (node (ref R10) (pin 2)))
    (net (code 2) (name +5V)
      (node (ref R1) (pin 1))
      (node (ref R2) (pin 1))
      (node (ref R6) (pin 1))
      (node (ref R3) (pin 1))
      (node (ref P1) (pin 1))
      (node (ref R12) (pin 1))
      (node (ref R4) (pin 1))
      (node (ref R11) (pin 1))
      (node (ref R8) (pin 1))
      (node (ref R7) (pin 1))
      (node (ref R10) (pin 1))
      (node (ref R9) (pin 1))
      (node (ref R5) (pin 1)))
    (net (code 3) (name "Net-(R9-Pad2)")
      (node (ref R9) (pin 2))
      (node (ref U5) (pin 1)))
    (net (code 4) (name "Net-(R7-Pad2)")
      (node (ref U4) (pin 1))
      (node (ref R7) (pin 2)))
    (net (code 5) (name KTIR_4)
      (node (ref R8) (pin 2))
      (node (ref U4) (pin 4))
      (node (ref P1) (pin 6)))
    (net (code 6) (name GND)
      (node (ref U1) (pin 3))
      (node (ref U1) (pin 2))
      (node (ref U3) (pin 2))
      (node (ref U4) (pin 3))
      (node (ref U4) (pin 2))
      (node (ref U3) (pin 3))
      (node (ref U5) (pin 3))
      (node (ref U5) (pin 2))
      (node (ref U6) (pin 3))
      (node (ref U6) (pin 2))
      (node (ref U2) (pin 3))
      (node (ref U2) (pin 2))
      (node (ref P1) (pin 2)))
    (net (code 7) (name KTIR_2)
      (node (ref U2) (pin 4))
      (node (ref R4) (pin 2))
      (node (ref P1) (pin 4)))
    (net (code 8) (name KTIR_3)
      (node (ref U3) (pin 4))
      (node (ref R6) (pin 2))
      (node (ref P1) (pin 5)))
    (net (code 9) (name KTIR_6)
      (node (ref U6) (pin 4))
      (node (ref P1) (pin 8))
      (node (ref R12) (pin 2)))
    (net (code 10) (name KTIR_1)
      (node (ref U1) (pin 4))
      (node (ref R2) (pin 2))
      (node (ref P1) (pin 3)))
    (net (code 11) (name "Net-(R11-Pad2)")
      (node (ref R11) (pin 2))
      (node (ref U6) (pin 1)))
    (net (code 12) (name "Net-(R3-Pad2)")
      (node (ref R3) (pin 2))
      (node (ref U2) (pin 1)))
    (net (code 13) (name "Net-(R1-Pad2)")
      (node (ref U1) (pin 1))
      (node (ref R1) (pin 2)))
    (net (code 14) (name "Net-(R5-Pad2)")
      (node (ref U3) (pin 1))
      (node (ref R5) (pin 2)))))