EESchema Schematic File Version 2
LIBS:power
LIBS:device
LIBS:transistors
LIBS:conn
LIBS:linear
LIBS:regul
LIBS:74xx
LIBS:cmos4000
LIBS:adc-dac
LIBS:memory
LIBS:xilinx
LIBS:microcontrollers
LIBS:dsp
LIBS:microchip
LIBS:analog_switches
LIBS:motorola
LIBS:texas
LIBS:intel
LIBS:audio
LIBS:interface
LIBS:digital-audio
LIBS:philips
LIBS:display
LIBS:cypress
LIBS:siliconi
LIBS:opto
LIBS:atmel
LIBS:contrib
LIBS:valves
LIBS:Moduł_z_czujnikami-cache
EELAYER 25 0
EELAYER END
$Descr A4 11693 8268
encoding utf-8
Sheet 1 1
Title ""
Date ""
Rev ""
Comp ""
Comment1 ""
Comment2 ""
Comment3 ""
Comment4 ""
$EndDescr
$Comp
L LTV-817 U1
U 1 1 58D8EAF8
P 2250 1800
F 0 "U1" H 2350 2000 50  0000 L CNN
F 1 "KTIR0711S" H 2050 1600 50  0000 L CNN
F 2 "111:KTIR0711S" H 1950 1500 50  0000 L CIN
F 3 "" H 2250 1700 50  0000 L CNN
	1    2250 1800
	1    0    0    -1  
$EndComp
Wire Wire Line
	1950 1900 1850 1900
Wire Wire Line
	1850 1900 1850 2000
Wire Wire Line
	2550 1900 2650 1900
Wire Wire Line
	2650 1900 2650 2000
$Comp
L GND #PWR01
U 1 1 58D8EC00
P 1850 2000
F 0 "#PWR01" H 1850 1750 50  0001 C CNN
F 1 "GND" H 1850 1850 50  0000 C CNN
F 2 "" H 1850 2000 60  0000 C CNN
F 3 "" H 1850 2000 60  0000 C CNN
	1    1850 2000
	1    0    0    -1  
$EndComp
$Comp
L GND #PWR02
U 1 1 58D8EC22
P 2650 2000
F 0 "#PWR02" H 2650 1750 50  0001 C CNN
F 1 "GND" H 2650 1850 50  0000 C CNN
F 2 "" H 2650 2000 60  0000 C CNN
F 3 "" H 2650 2000 60  0000 C CNN
	1    2650 2000
	1    0    0    -1  
$EndComp
$Comp
L +5V #PWR03
U 1 1 58D8EC32
P 1850 1200
F 0 "#PWR03" H 1850 1050 50  0001 C CNN
F 1 "+5V" H 1850 1340 50  0000 C CNN
F 2 "" H 1850 1200 60  0000 C CNN
F 3 "" H 1850 1200 60  0000 C CNN
	1    1850 1200
	1    0    0    -1  
$EndComp
$Comp
L R R1
U 1 1 58D8EC49
P 1850 1450
F 0 "R1" H 1900 1600 50  0000 C CNN
F 1 "220R" V 1850 1450 50  0000 C CNN
F 2 "111:0805" V 1780 1450 30  0001 C CNN
F 3 "" H 1850 1450 30  0000 C CNN
	1    1850 1450
	1    0    0    -1  
$EndComp
Wire Wire Line
	1850 1300 1850 1200
Wire Wire Line
	1950 1700 1850 1700
Wire Wire Line
	1850 1700 1850 1600
Wire Wire Line
	2550 1700 2750 1700
Wire Wire Line
	2650 1700 2650 1600
$Comp
L R R2
U 1 1 58D8ECEB
P 2650 1450
F 0 "R2" H 2700 1600 50  0000 C CNN
F 1 "10K" V 2650 1450 50  0000 C CNN
F 2 "111:0805" V 2580 1450 30  0001 C CNN
F 3 "" H 2650 1450 30  0000 C CNN
	1    2650 1450
	1    0    0    -1  
$EndComp
Wire Wire Line
	2650 1300 2650 1200
$Comp
L +5V #PWR04
U 1 1 58D8ED46
P 2650 1200
F 0 "#PWR04" H 2650 1050 50  0001 C CNN
F 1 "+5V" H 2650 1340 50  0000 C CNN
F 2 "" H 2650 1200 60  0000 C CNN
F 3 "" H 2650 1200 60  0000 C CNN
	1    2650 1200
	1    0    0    -1  
$EndComp
Connection ~ 2650 1700
Text GLabel 2750 1700 2    47   Output ~ 0
KTIR_1
$Comp
L LTV-817 U2
U 1 1 58D8F1B3
P 3700 1800
F 0 "U2" H 3800 2000 50  0000 L CNN
F 1 "KTIR0711S" H 3500 1600 50  0000 L CNN
F 2 "111:KTIR0711S" H 3400 1500 50  0000 L CIN
F 3 "" H 3700 1700 50  0000 L CNN
	1    3700 1800
	1    0    0    -1  
$EndComp
Wire Wire Line
	3400 1900 3300 1900
Wire Wire Line
	3300 1900 3300 2000
Wire Wire Line
	4000 1900 4100 1900
Wire Wire Line
	4100 1900 4100 2000
$Comp
L GND #PWR05
U 1 1 58D8F1BD
P 3300 2000
F 0 "#PWR05" H 3300 1750 50  0001 C CNN
F 1 "GND" H 3300 1850 50  0000 C CNN
F 2 "" H 3300 2000 60  0000 C CNN
F 3 "" H 3300 2000 60  0000 C CNN
	1    3300 2000
	1    0    0    -1  
$EndComp
$Comp
L GND #PWR06
U 1 1 58D8F1C3
P 4100 2000
F 0 "#PWR06" H 4100 1750 50  0001 C CNN
F 1 "GND" H 4100 1850 50  0000 C CNN
F 2 "" H 4100 2000 60  0000 C CNN
F 3 "" H 4100 2000 60  0000 C CNN
	1    4100 2000
	1    0    0    -1  
$EndComp
$Comp
L +5V #PWR07
U 1 1 58D8F1C9
P 3300 1200
F 0 "#PWR07" H 3300 1050 50  0001 C CNN
F 1 "+5V" H 3300 1340 50  0000 C CNN
F 2 "" H 3300 1200 60  0000 C CNN
F 3 "" H 3300 1200 60  0000 C CNN
	1    3300 1200
	1    0    0    -1  
$EndComp
$Comp
L R R3
U 1 1 58D8F1CF
P 3300 1450
F 0 "R3" H 3350 1600 50  0000 C CNN
F 1 "220R" V 3300 1450 50  0000 C CNN
F 2 "111:0805" V 3230 1450 30  0001 C CNN
F 3 "" H 3300 1450 30  0000 C CNN
	1    3300 1450
	1    0    0    -1  
$EndComp
Wire Wire Line
	3300 1300 3300 1200
Wire Wire Line
	3400 1700 3300 1700
Wire Wire Line
	3300 1700 3300 1600
Wire Wire Line
	4000 1700 4200 1700
Wire Wire Line
	4100 1700 4100 1600
$Comp
L R R4
U 1 1 58D8F1DA
P 4100 1450
F 0 "R4" H 4150 1600 50  0000 C CNN
F 1 "10K" V 4100 1450 50  0000 C CNN
F 2 "111:0805" V 4030 1450 30  0001 C CNN
F 3 "" H 4100 1450 30  0000 C CNN
	1    4100 1450
	1    0    0    -1  
$EndComp
Wire Wire Line
	4100 1300 4100 1200
$Comp
L +5V #PWR08
U 1 1 58D8F1E1
P 4100 1200
F 0 "#PWR08" H 4100 1050 50  0001 C CNN
F 1 "+5V" H 4100 1340 50  0000 C CNN
F 2 "" H 4100 1200 60  0000 C CNN
F 3 "" H 4100 1200 60  0000 C CNN
	1    4100 1200
	1    0    0    -1  
$EndComp
Connection ~ 4100 1700
Text GLabel 4200 1700 2    47   Output ~ 0
KTIR_2
$Comp
L LTV-817 U3
U 1 1 58D8F486
P 5100 1800
F 0 "U3" H 5200 2000 50  0000 L CNN
F 1 "KTIR0711S" H 4900 1600 50  0000 L CNN
F 2 "111:KTIR0711S" H 4800 1500 50  0000 L CIN
F 3 "" H 5100 1700 50  0000 L CNN
	1    5100 1800
	1    0    0    -1  
$EndComp
Wire Wire Line
	4800 1900 4700 1900
Wire Wire Line
	4700 1900 4700 2000
Wire Wire Line
	5400 1900 5500 1900
Wire Wire Line
	5500 1900 5500 2000
$Comp
L GND #PWR09
U 1 1 58D8F490
P 4700 2000
F 0 "#PWR09" H 4700 1750 50  0001 C CNN
F 1 "GND" H 4700 1850 50  0000 C CNN
F 2 "" H 4700 2000 60  0000 C CNN
F 3 "" H 4700 2000 60  0000 C CNN
	1    4700 2000
	1    0    0    -1  
$EndComp
$Comp
L GND #PWR010
U 1 1 58D8F496
P 5500 2000
F 0 "#PWR010" H 5500 1750 50  0001 C CNN
F 1 "GND" H 5500 1850 50  0000 C CNN
F 2 "" H 5500 2000 60  0000 C CNN
F 3 "" H 5500 2000 60  0000 C CNN
	1    5500 2000
	1    0    0    -1  
$EndComp
$Comp
L +5V #PWR011
U 1 1 58D8F49C
P 4700 1200
F 0 "#PWR011" H 4700 1050 50  0001 C CNN
F 1 "+5V" H 4700 1340 50  0000 C CNN
F 2 "" H 4700 1200 60  0000 C CNN
F 3 "" H 4700 1200 60  0000 C CNN
	1    4700 1200
	1    0    0    -1  
$EndComp
$Comp
L R R5
U 1 1 58D8F4A2
P 4700 1450
F 0 "R5" H 4750 1600 50  0000 C CNN
F 1 "220R" V 4700 1450 50  0000 C CNN
F 2 "111:0805" V 4630 1450 30  0001 C CNN
F 3 "" H 4700 1450 30  0000 C CNN
	1    4700 1450
	1    0    0    -1  
$EndComp
Wire Wire Line
	4700 1300 4700 1200
Wire Wire Line
	4800 1700 4700 1700
Wire Wire Line
	4700 1700 4700 1600
Wire Wire Line
	5400 1700 5600 1700
Wire Wire Line
	5500 1700 5500 1600
$Comp
L R R6
U 1 1 58D8F4AD
P 5500 1450
F 0 "R6" H 5550 1600 50  0000 C CNN
F 1 "10K" V 5500 1450 50  0000 C CNN
F 2 "111:0805" V 5430 1450 30  0001 C CNN
F 3 "" H 5500 1450 30  0000 C CNN
	1    5500 1450
	1    0    0    -1  
$EndComp
Wire Wire Line
	5500 1300 5500 1200
$Comp
L +5V #PWR012
U 1 1 58D8F4B4
P 5500 1200
F 0 "#PWR012" H 5500 1050 50  0001 C CNN
F 1 "+5V" H 5500 1340 50  0000 C CNN
F 2 "" H 5500 1200 60  0000 C CNN
F 3 "" H 5500 1200 60  0000 C CNN
	1    5500 1200
	1    0    0    -1  
$EndComp
Connection ~ 5500 1700
Text GLabel 5600 1700 2    47   Output ~ 0
KTIR_3
$Comp
L LTV-817 U4
U 1 1 58D8F4BC
P 6550 1800
F 0 "U4" H 6650 2000 50  0000 L CNN
F 1 "KTIR0711S" H 6350 1600 50  0000 L CNN
F 2 "111:KTIR0711S" H 6250 1500 50  0000 L CIN
F 3 "" H 6550 1700 50  0000 L CNN
	1    6550 1800
	1    0    0    -1  
$EndComp
Wire Wire Line
	6250 1900 6150 1900
Wire Wire Line
	6150 1900 6150 2000
Wire Wire Line
	6850 1900 6950 1900
Wire Wire Line
	6950 1900 6950 2000
$Comp
L GND #PWR013
U 1 1 58D8F4C6
P 6150 2000
F 0 "#PWR013" H 6150 1750 50  0001 C CNN
F 1 "GND" H 6150 1850 50  0000 C CNN
F 2 "" H 6150 2000 60  0000 C CNN
F 3 "" H 6150 2000 60  0000 C CNN
	1    6150 2000
	1    0    0    -1  
$EndComp
$Comp
L GND #PWR014
U 1 1 58D8F4CC
P 6950 2000
F 0 "#PWR014" H 6950 1750 50  0001 C CNN
F 1 "GND" H 6950 1850 50  0000 C CNN
F 2 "" H 6950 2000 60  0000 C CNN
F 3 "" H 6950 2000 60  0000 C CNN
	1    6950 2000
	1    0    0    -1  
$EndComp
$Comp
L +5V #PWR015
U 1 1 58D8F4D2
P 6150 1200
F 0 "#PWR015" H 6150 1050 50  0001 C CNN
F 1 "+5V" H 6150 1340 50  0000 C CNN
F 2 "" H 6150 1200 60  0000 C CNN
F 3 "" H 6150 1200 60  0000 C CNN
	1    6150 1200
	1    0    0    -1  
$EndComp
$Comp
L R R7
U 1 1 58D8F4D8
P 6150 1450
F 0 "R7" H 6200 1600 50  0000 C CNN
F 1 "220R" V 6150 1450 50  0000 C CNN
F 2 "111:0805" V 6080 1450 30  0001 C CNN
F 3 "" H 6150 1450 30  0000 C CNN
	1    6150 1450
	1    0    0    -1  
$EndComp
Wire Wire Line
	6150 1300 6150 1200
Wire Wire Line
	6250 1700 6150 1700
Wire Wire Line
	6150 1700 6150 1600
Wire Wire Line
	6850 1700 7050 1700
Wire Wire Line
	6950 1700 6950 1600
$Comp
L R R8
U 1 1 58D8F4E3
P 6950 1450
F 0 "R8" H 7000 1600 50  0000 C CNN
F 1 "10K" V 6950 1450 50  0000 C CNN
F 2 "111:0805" V 6880 1450 30  0001 C CNN
F 3 "" H 6950 1450 30  0000 C CNN
	1    6950 1450
	1    0    0    -1  
$EndComp
Wire Wire Line
	6950 1300 6950 1200
$Comp
L +5V #PWR016
U 1 1 58D8F4EA
P 6950 1200
F 0 "#PWR016" H 6950 1050 50  0001 C CNN
F 1 "+5V" H 6950 1340 50  0000 C CNN
F 2 "" H 6950 1200 60  0000 C CNN
F 3 "" H 6950 1200 60  0000 C CNN
	1    6950 1200
	1    0    0    -1  
$EndComp
Connection ~ 6950 1700
Text GLabel 7050 1700 2    47   Output ~ 0
KTIR_4
$Comp
L LTV-817 U5
U 1 1 58D8F624
P 7950 1800
F 0 "U5" H 8050 2000 50  0000 L CNN
F 1 "KTIR0711S" H 7750 1600 50  0000 L CNN
F 2 "111:KTIR0711S" H 7650 1500 50  0000 L CIN
F 3 "" H 7950 1700 50  0000 L CNN
	1    7950 1800
	1    0    0    -1  
$EndComp
Wire Wire Line
	7650 1900 7550 1900
Wire Wire Line
	7550 1900 7550 2000
Wire Wire Line
	8250 1900 8350 1900
Wire Wire Line
	8350 1900 8350 2000
$Comp
L GND #PWR017
U 1 1 58D8F62E
P 7550 2000
F 0 "#PWR017" H 7550 1750 50  0001 C CNN
F 1 "GND" H 7550 1850 50  0000 C CNN
F 2 "" H 7550 2000 60  0000 C CNN
F 3 "" H 7550 2000 60  0000 C CNN
	1    7550 2000
	1    0    0    -1  
$EndComp
$Comp
L GND #PWR018
U 1 1 58D8F634
P 8350 2000
F 0 "#PWR018" H 8350 1750 50  0001 C CNN
F 1 "GND" H 8350 1850 50  0000 C CNN
F 2 "" H 8350 2000 60  0000 C CNN
F 3 "" H 8350 2000 60  0000 C CNN
	1    8350 2000
	1    0    0    -1  
$EndComp
$Comp
L +5V #PWR019
U 1 1 58D8F63A
P 7550 1200
F 0 "#PWR019" H 7550 1050 50  0001 C CNN
F 1 "+5V" H 7550 1340 50  0000 C CNN
F 2 "" H 7550 1200 60  0000 C CNN
F 3 "" H 7550 1200 60  0000 C CNN
	1    7550 1200
	1    0    0    -1  
$EndComp
$Comp
L R R9
U 1 1 58D8F640
P 7550 1450
F 0 "R9" H 7600 1600 50  0000 C CNN
F 1 "220R" V 7550 1450 50  0000 C CNN
F 2 "111:0805" V 7480 1450 30  0001 C CNN
F 3 "" H 7550 1450 30  0000 C CNN
	1    7550 1450
	1    0    0    -1  
$EndComp
Wire Wire Line
	7550 1300 7550 1200
Wire Wire Line
	7650 1700 7550 1700
Wire Wire Line
	7550 1700 7550 1600
Wire Wire Line
	8250 1700 8450 1700
Wire Wire Line
	8350 1700 8350 1600
$Comp
L R R10
U 1 1 58D8F64B
P 8350 1450
F 0 "R10" H 8450 1600 50  0000 C CNN
F 1 "10K" V 8350 1450 50  0000 C CNN
F 2 "111:0805" V 8280 1450 30  0001 C CNN
F 3 "" H 8350 1450 30  0000 C CNN
	1    8350 1450
	1    0    0    -1  
$EndComp
Wire Wire Line
	8350 1300 8350 1200
$Comp
L +5V #PWR020
U 1 1 58D8F652
P 8350 1200
F 0 "#PWR020" H 8350 1050 50  0001 C CNN
F 1 "+5V" H 8350 1340 50  0000 C CNN
F 2 "" H 8350 1200 60  0000 C CNN
F 3 "" H 8350 1200 60  0000 C CNN
	1    8350 1200
	1    0    0    -1  
$EndComp
Connection ~ 8350 1700
Text GLabel 8450 1700 2    47   Output ~ 0
KTIR_5
$Comp
L LTV-817 U6
U 1 1 58D8F65A
P 9400 1800
F 0 "U6" H 9500 2000 50  0000 L CNN
F 1 "KTIR0711S" H 9200 1600 50  0000 L CNN
F 2 "111:KTIR0711S" H 9100 1500 50  0000 L CIN
F 3 "" H 9400 1700 50  0000 L CNN
	1    9400 1800
	1    0    0    -1  
$EndComp
Wire Wire Line
	9100 1900 9000 1900
Wire Wire Line
	9000 1900 9000 2000
Wire Wire Line
	9700 1900 9800 1900
Wire Wire Line
	9800 1900 9800 2000
$Comp
L GND #PWR021
U 1 1 58D8F664
P 9000 2000
F 0 "#PWR021" H 9000 1750 50  0001 C CNN
F 1 "GND" H 9000 1850 50  0000 C CNN
F 2 "" H 9000 2000 60  0000 C CNN
F 3 "" H 9000 2000 60  0000 C CNN
	1    9000 2000
	1    0    0    -1  
$EndComp
$Comp
L GND #PWR022
U 1 1 58D8F66A
P 9800 2000
F 0 "#PWR022" H 9800 1750 50  0001 C CNN
F 1 "GND" H 9800 1850 50  0000 C CNN
F 2 "" H 9800 2000 60  0000 C CNN
F 3 "" H 9800 2000 60  0000 C CNN
	1    9800 2000
	1    0    0    -1  
$EndComp
$Comp
L +5V #PWR023
U 1 1 58D8F670
P 9000 1200
F 0 "#PWR023" H 9000 1050 50  0001 C CNN
F 1 "+5V" H 9000 1340 50  0000 C CNN
F 2 "" H 9000 1200 60  0000 C CNN
F 3 "" H 9000 1200 60  0000 C CNN
	1    9000 1200
	1    0    0    -1  
$EndComp
$Comp
L R R11
U 1 1 58D8F676
P 9000 1450
F 0 "R11" H 9100 1600 50  0000 C CNN
F 1 "220R" V 9000 1450 50  0000 C CNN
F 2 "111:0805" V 8930 1450 30  0001 C CNN
F 3 "" H 9000 1450 30  0000 C CNN
	1    9000 1450
	1    0    0    -1  
$EndComp
Wire Wire Line
	9000 1300 9000 1200
Wire Wire Line
	9100 1700 9000 1700
Wire Wire Line
	9000 1700 9000 1600
Wire Wire Line
	9700 1700 9900 1700
Wire Wire Line
	9800 1700 9800 1600
$Comp
L R R12
U 1 1 58D8F681
P 9800 1450
F 0 "R12" H 9900 1600 50  0000 C CNN
F 1 "10K" V 9800 1450 50  0000 C CNN
F 2 "111:0805" V 9730 1450 30  0001 C CNN
F 3 "" H 9800 1450 30  0000 C CNN
	1    9800 1450
	1    0    0    -1  
$EndComp
Wire Wire Line
	9800 1300 9800 1200
$Comp
L +5V #PWR024
U 1 1 58D8F688
P 9800 1200
F 0 "#PWR024" H 9800 1050 50  0001 C CNN
F 1 "+5V" H 9800 1340 50  0000 C CNN
F 2 "" H 9800 1200 60  0000 C CNN
F 3 "" H 9800 1200 60  0000 C CNN
	1    9800 1200
	1    0    0    -1  
$EndComp
Connection ~ 9800 1700
Text GLabel 9900 1700 2    47   Output ~ 0
KTIR_6
$Comp
L CONN_01X08 P1
U 1 1 58D8FDD7
P 5950 2700
F 0 "P1" H 5950 3150 50  0000 C CNN
F 1 "Złącze" V 6050 2700 50  0000 C CNN
F 2 "111:GoldPin_1x8" H 5950 2700 60  0001 C CNN
F 3 "" H 5950 2700 60  0000 C CNN
	1    5950 2700
	0    -1   -1   0   
$EndComp
Wire Wire Line
	5800 2900 5800 3000
Wire Wire Line
	5900 2900 5900 3000
Wire Wire Line
	6000 2900 6000 3000
Wire Wire Line
	6100 2900 6100 3000
Wire Wire Line
	6200 2900 6200 3000
Wire Wire Line
	6300 2900 6300 3000
$Comp
L GND #PWR025
U 1 1 58D904F0
P 5650 3000
F 0 "#PWR025" H 5650 2750 50  0001 C CNN
F 1 "GND" H 5650 2850 50  0000 C CNN
F 2 "" H 5650 3000 60  0000 C CNN
F 3 "" H 5650 3000 60  0000 C CNN
	1    5650 3000
	1    0    0    -1  
$EndComp
$Comp
L +5V #PWR026
U 1 1 58D90664
P 5500 3000
F 0 "#PWR026" H 5500 2850 50  0001 C CNN
F 1 "+5V" H 5500 3140 50  0000 C CNN
F 2 "" H 5500 3000 60  0000 C CNN
F 3 "" H 5500 3000 60  0000 C CNN
	1    5500 3000
	-1   0    0    1   
$EndComp
Text GLabel 5800 3000 3    47   Output ~ 0
KTIR_1
Text GLabel 5900 3000 3    47   Output ~ 0
KTIR_2
Text GLabel 6000 3000 3    47   Output ~ 0
KTIR_3
Text GLabel 6100 3000 3    47   Output ~ 0
KTIR_4
Text GLabel 6200 3000 3    47   Output ~ 0
KTIR_5
Text GLabel 6300 3000 3    47   Output ~ 0
KTIR_6
Wire Wire Line
	5650 3000 5650 2950
Wire Wire Line
	5650 2950 5700 2950
Wire Wire Line
	5700 2950 5700 2900
Wire Wire Line
	5500 3000 5500 2950
Wire Wire Line
	5500 2950 5600 2950
Wire Wire Line
	5600 2950 5600 2900
$EndSCHEMATC
