EESchema Schematic File Version 2
LIBS:power
LIBS:device
LIBS:transistors
LIBS:conn
LIBS:linear
LIBS:regul
LIBS:74xx
LIBS:cmos4000
LIBS:adc-dac
LIBS:memory
LIBS:xilinx
LIBS:microcontrollers
LIBS:dsp
LIBS:microchip
LIBS:analog_switches
LIBS:motorola
LIBS:texas
LIBS:intel
LIBS:audio
LIBS:interface
LIBS:digital-audio
LIBS:philips
LIBS:display
LIBS:cypress
LIBS:siliconi
LIBS:opto
LIBS:valves
LIBS:atmel
LIBS:contrib
LIBS:STM32
LIBS:Skarabot-cache
EELAYER 25 0
EELAYER END
$Descr A4 11693 8268
encoding utf-8
Sheet 1 1
Title ""
Date ""
Rev ""
Comp ""
Comment1 ""
Comment2 ""
Comment3 ""
Comment4 ""
$EndDescr
$Comp
L CONN_01X02 P1
U 1 1 58D6C7D8
P 8400 3750
F 0 "P1" H 8400 3900 50  0000 C CNN
F 1 "AKU" V 8500 3750 50  0000 C CNN
F 2 "misc:zl_zasilania" H 8400 3750 50  0001 C CNN
F 3 "" H 8400 3750 50  0000 C CNN
	1    8400 3750
	1    0    0    -1  
$EndComp
$Comp
L GND #PWR01
U 1 1 58D6C961
P 8150 4000
F 0 "#PWR01" H 8150 3750 50  0001 C CNN
F 1 "GND" H 8150 3850 50  0000 C CNN
F 2 "" H 8150 4000 50  0000 C CNN
F 3 "" H 8150 4000 50  0000 C CNN
	1    8150 4000
	1    0    0    -1  
$EndComp
$Comp
L +7.4V #PWR02
U 1 1 58D6C984
P 8150 3500
F 0 "#PWR02" H 8150 3350 50  0001 C CNN
F 1 "+7.4V" H 8150 3640 50  0000 C CNN
F 2 "" H 8150 3500 50  0000 C CNN
F 3 "" H 8150 3500 50  0000 C CNN
	1    8150 3500
	1    0    0    -1  
$EndComp
$Comp
L LM1117-3.3 U2
U 1 1 58D6CDA1
P 10100 900
F 0 "U2" H 10200 650 50  0000 C CNN
F 1 "LM1117-3.3" H 10100 1150 50  0000 C CNN
F 2 "TO_SOT_Packages_SMD:SOT-223" H 10100 900 50  0001 C CNN
F 3 "" H 10100 900 50  0000 C CNN
	1    10100 900 
	1    0    0    -1  
$EndComp
$Comp
L GND #PWR03
U 1 1 58D6D409
P 10100 1650
F 0 "#PWR03" H 10100 1400 50  0001 C CNN
F 1 "GND" H 10100 1500 50  0000 C CNN
F 2 "" H 10100 1650 50  0000 C CNN
F 3 "" H 10100 1650 50  0000 C CNN
	1    10100 1650
	1    0    0    -1  
$EndComp
$Comp
L +7.4V #PWR04
U 1 1 58D6D53F
P 9200 900
F 0 "#PWR04" H 9200 750 50  0001 C CNN
F 1 "+7.4V" H 9200 1040 50  0000 C CNN
F 2 "" H 9200 900 50  0000 C CNN
F 3 "" H 9200 900 50  0000 C CNN
	1    9200 900 
	1    0    0    -1  
$EndComp
$Comp
L GND #PWR05
U 1 1 58D6DA72
P 10100 2950
F 0 "#PWR05" H 10100 2700 50  0001 C CNN
F 1 "GND" H 10100 2800 50  0000 C CNN
F 2 "" H 10100 2950 50  0000 C CNN
F 3 "" H 10100 2950 50  0000 C CNN
	1    10100 2950
	1    0    0    -1  
$EndComp
$Comp
L LM1117-5.0 U3
U 1 1 58D6DC70
P 10100 2200
F 0 "U3" H 10200 1950 50  0000 C CNN
F 1 "LM1117-5.0" H 10100 2450 50  0000 C CNN
F 2 "TO_SOT_Packages_SMD:SOT-223" H 10100 2200 50  0001 C CNN
F 3 "" H 10100 2200 50  0000 C CNN
	1    10100 2200
	1    0    0    -1  
$EndComp
$Comp
L +3.3V #PWR06
U 1 1 58D6DDCA
P 11000 900
F 0 "#PWR06" H 11000 750 50  0001 C CNN
F 1 "+3.3V" H 11000 1040 50  0000 C CNN
F 2 "" H 11000 900 50  0000 C CNN
F 3 "" H 11000 900 50  0000 C CNN
	1    11000 900 
	1    0    0    -1  
$EndComp
$Comp
L STM32F050C4 U1
U 1 1 58D715E6
P 3600 5300
F 0 "U1" H 2100 7200 60  0000 C CNN
F 1 "STM32F050C4" H 4850 3400 60  0000 C CNN
F 2 "Housings_QFP:LQFP-48_7x7mm_Pitch0.5mm" H 3600 5300 40  0001 C CIN
F 3 "" H 3600 5300 60  0000 C CNN
	1    3600 5300
	1    0    0    -1  
$EndComp
$Comp
L C C5
U 1 1 58D72977
P 2800 3200
F 0 "C5" H 2825 3300 50  0000 L CNN
F 1 "100nF" H 2825 3100 50  0000 L CNN
F 2 "Capacitors_SMD:C_0805" H 2838 3050 50  0001 C CNN
F 3 "" H 2800 3200 50  0000 C CNN
	1    2800 3200
	0    1    1    0   
$EndComp
$Comp
L +3.3V #PWR07
U 1 1 58D72A7C
P 2500 3100
F 0 "#PWR07" H 2500 2950 50  0001 C CNN
F 1 "+3.3V" H 2500 3240 50  0000 C CNN
F 2 "" H 2500 3100 50  0000 C CNN
F 3 "" H 2500 3100 50  0000 C CNN
	1    2500 3100
	1    0    0    -1  
$EndComp
$Comp
L GND #PWR08
U 1 1 58D73111
P 3100 3100
F 0 "#PWR08" H 3100 2850 50  0001 C CNN
F 1 "GND" H 3100 2950 50  0000 C CNN
F 2 "" H 3100 3100 50  0000 C CNN
F 3 "" H 3100 3100 50  0000 C CNN
	1    3100 3100
	-1   0    0    1   
$EndComp
$Comp
L C C6
U 1 1 58D73438
P 3650 3200
F 0 "C6" H 3675 3300 50  0000 L CNN
F 1 "100nF" H 3675 3100 50  0000 L CNN
F 2 "Capacitors_SMD:C_0805" H 3688 3050 50  0001 C CNN
F 3 "" H 3650 3200 50  0000 C CNN
	1    3650 3200
	0    1    1    0   
$EndComp
$Comp
L GND #PWR09
U 1 1 58D736FB
P 3950 3100
F 0 "#PWR09" H 3950 2850 50  0001 C CNN
F 1 "GND" H 3950 2950 50  0000 C CNN
F 2 "" H 3950 3100 50  0000 C CNN
F 3 "" H 3950 3100 50  0000 C CNN
	1    3950 3100
	-1   0    0    1   
$EndComp
$Comp
L +3.3V #PWR010
U 1 1 58D73723
P 3350 3100
F 0 "#PWR010" H 3350 2950 50  0001 C CNN
F 1 "+3.3V" H 3350 3240 50  0000 C CNN
F 2 "" H 3350 3100 50  0000 C CNN
F 3 "" H 3350 3100 50  0000 C CNN
	1    3350 3100
	1    0    0    -1  
$EndComp
$Comp
L C C7
U 1 1 58D74146
P 4450 3200
F 0 "C7" H 4475 3300 50  0000 L CNN
F 1 "10nF" H 4475 3100 50  0000 L CNN
F 2 "Capacitors_SMD:C_0805" H 4488 3050 50  0001 C CNN
F 3 "" H 4450 3200 50  0000 C CNN
	1    4450 3200
	0    1    1    0   
$EndComp
$Comp
L +3.3V #PWR011
U 1 1 58D74360
P 4150 3100
F 0 "#PWR011" H 4150 2950 50  0001 C CNN
F 1 "+3.3V" H 4150 3240 50  0000 C CNN
F 2 "" H 4150 3100 50  0000 C CNN
F 3 "" H 4150 3100 50  0000 C CNN
	1    4150 3100
	1    0    0    -1  
$EndComp
$Comp
L GND #PWR012
U 1 1 58D7438A
P 4750 3100
F 0 "#PWR012" H 4750 2850 50  0001 C CNN
F 1 "GND" H 4750 2950 50  0000 C CNN
F 2 "" H 4750 3100 50  0000 C CNN
F 3 "" H 4750 3100 50  0000 C CNN
	1    4750 3100
	-1   0    0    1   
$EndComp
$Comp
L TB6612 U4
U 1 1 58D7ABE1
P 1900 1450
F 0 "U4" H 1900 2150 60  0000 C CNN
F 1 "TB6612" V 1900 1500 60  0000 C CNN
F 2 "warsztaty:TB6612" H 1900 1450 60  0001 C CNN
F 3 "" H 1900 1450 60  0001 C CNN
	1    1900 1450
	1    0    0    -1  
$EndComp
Text GLabel 950  1950 0    60   Output ~ 0
Left1
$Comp
L GND #PWR013
U 1 1 58D7C85D
P 950 1050
F 0 "#PWR013" H 950 800 50  0001 C CNN
F 1 "GND" H 950 900 50  0000 C CNN
F 2 "" H 950 1050 50  0000 C CNN
F 3 "" H 950 1050 50  0000 C CNN
	1    950  1050
	0    1    1    0   
$EndComp
Text GLabel 950  1550 0    60   Output ~ 0
Left2
Text GLabel 950  1250 0    60   Output ~ 0
Right2
$Comp
L GND #PWR014
U 1 1 58D7D0DF
P 950 1750
F 0 "#PWR014" H 950 1500 50  0001 C CNN
F 1 "GND" H 950 1600 50  0000 C CNN
F 2 "" H 950 1750 50  0000 C CNN
F 3 "" H 950 1750 50  0000 C CNN
	1    950  1750
	0    1    1    0   
$EndComp
Text GLabel 950  850  0    60   Output ~ 0
Right1
Text GLabel 2800 950  2    60   Input ~ 0
Left_PWM
Text GLabel 2800 1150 2    60   Input ~ 0
Left_IN1
Text GLabel 2800 1050 2    60   Input ~ 0
Left_IN2
Text GLabel 2800 1550 2    60   Input ~ 0
Right_IN1
Text GLabel 2800 1650 2    60   Input ~ 0
Right_IN2
Text GLabel 2800 1750 2    60   Input ~ 0
Right_PWM
$Comp
L GND #PWR015
U 1 1 58D83805
P 3400 1500
F 0 "#PWR015" H 3400 1250 50  0001 C CNN
F 1 "GND" H 3400 1350 50  0000 C CNN
F 2 "" H 3400 1500 50  0000 C CNN
F 3 "" H 3400 1500 50  0000 C CNN
	1    3400 1500
	1    0    0    -1  
$EndComp
$Comp
L C C11
U 1 1 58D83EB9
P 3900 1500
F 0 "C11" H 3925 1600 50  0000 L CNN
F 1 "100nF" H 3925 1400 50  0000 L CNN
F 2 "Capacitors_SMD:C_0805" H 3938 1350 50  0001 C CNN
F 3 "" H 3900 1500 50  0000 C CNN
	1    3900 1500
	1    0    0    -1  
$EndComp
$Comp
L GND #PWR016
U 1 1 58D83FFA
P 3750 1750
F 0 "#PWR016" H 3750 1500 50  0001 C CNN
F 1 "GND" H 3750 1600 50  0000 C CNN
F 2 "" H 3750 1750 50  0000 C CNN
F 3 "" H 3750 1750 50  0000 C CNN
	1    3750 1750
	1    0    0    -1  
$EndComp
$Comp
L +3.3V #PWR017
U 1 1 58D84533
P 4050 1200
F 0 "#PWR017" H 4050 1050 50  0001 C CNN
F 1 "+3.3V" H 4050 1340 50  0000 C CNN
F 2 "" H 4050 1200 50  0000 C CNN
F 3 "" H 4050 1200 50  0000 C CNN
	1    4050 1200
	1    0    0    -1  
$EndComp
$Comp
L +7.4V #PWR018
U 1 1 58D84739
P 4300 650
F 0 "#PWR018" H 4300 500 50  0001 C CNN
F 1 "+7.4V" H 4300 790 50  0000 C CNN
F 2 "" H 4300 650 50  0000 C CNN
F 3 "" H 4300 650 50  0000 C CNN
	1    4300 650 
	1    0    0    -1  
$EndComp
$Comp
L C C8
U 1 1 58D84A4F
P 3000 2250
F 0 "C8" H 3025 2350 50  0000 L CNN
F 1 "100nF" H 3025 2150 50  0000 L CNN
F 2 "Capacitors_SMD:C_0805" H 3038 2100 50  0001 C CNN
F 3 "" H 3000 2250 50  0000 C CNN
	1    3000 2250
	1    0    0    -1  
$EndComp
$Comp
L GND #PWR019
U 1 1 58D84EB0
P 3150 2500
F 0 "#PWR019" H 3150 2250 50  0001 C CNN
F 1 "GND" H 3150 2350 50  0000 C CNN
F 2 "" H 3150 2500 50  0000 C CNN
F 3 "" H 3150 2500 50  0000 C CNN
	1    3150 2500
	1    0    0    -1  
$EndComp
$Comp
L CONN_01X02 P2
U 1 1 58D8615E
P 4750 850
F 0 "P2" H 4750 1000 50  0000 C CNN
F 1 "Right" V 4850 850 50  0000 C CNN
F 2 "111:GoldPin_1x2" H 4750 850 50  0001 C CNN
F 3 "" H 4750 850 50  0000 C CNN
	1    4750 850 
	0    -1   -1   0   
$EndComp
$Comp
L CONN_01X02 P3
U 1 1 58D86696
P 5250 850
F 0 "P3" H 5250 1000 50  0000 C CNN
F 1 "Left" V 5350 850 50  0000 C CNN
F 2 "111:GoldPin_1x2" H 5250 850 50  0001 C CNN
F 3 "" H 5250 850 50  0000 C CNN
	1    5250 850 
	0    -1   -1   0   
$EndComp
Text GLabel 5150 1150 3    60   Input ~ 0
Left1
Text GLabel 5350 1150 3    60   Input ~ 0
Left2
Text GLabel 4650 1150 3    60   Input ~ 0
Right1
Text GLabel 4850 1150 3    60   Input ~ 0
Right2
Text GLabel 5300 6700 2    60   Input ~ 0
Left_PWM
Text GLabel 5300 6800 2    60   Input ~ 0
Right_PWM
Text GLabel 5300 6900 2    60   Input ~ 0
Left_IN2
Text GLabel 5300 6600 2    60   Input ~ 0
Left_IN1
Text GLabel 1900 5600 0    60   Input ~ 0
Right_IN1
Text GLabel 1900 5700 0    60   Input ~ 0
Right_IN2
$Comp
L CONN_01X04 P4
U 1 1 58D9EE60
P 7150 850
F 0 "P4" H 7150 1100 50  0000 C CNN
F 1 "HC-SR04" V 7250 850 50  0000 C CNN
F 2 "111:GoldPin_1x4" H 7150 850 50  0001 C CNN
F 3 "" H 7150 850 50  0000 C CNN
	1    7150 850 
	0    -1   -1   0   
$EndComp
$Comp
L +5V #PWR020
U 1 1 58DA0181
P 6800 900
F 0 "#PWR020" H 6800 750 50  0001 C CNN
F 1 "+5V" H 6800 1040 50  0000 C CNN
F 2 "" H 6800 900 50  0000 C CNN
F 3 "" H 6800 900 50  0000 C CNN
	1    6800 900 
	1    0    0    -1  
$EndComp
$Comp
L GND #PWR021
U 1 1 58DA0463
P 7400 1300
F 0 "#PWR021" H 7400 1050 50  0001 C CNN
F 1 "GND" H 7400 1150 50  0000 C CNN
F 2 "" H 7400 1300 50  0000 C CNN
F 3 "" H 7400 1300 50  0000 C CNN
	1    7400 1300
	1    0    0    -1  
$EndComp
Text GLabel 7050 1150 3    60   Input ~ 0
Trig
Text GLabel 7250 1150 3    60   Input ~ 0
Echo
Text GLabel 1900 5400 0    60   Input ~ 0
Trig
Text GLabel 1900 5500 0    60   Input ~ 0
Echo
$Comp
L CONN_01X03 P6
U 1 1 58DA47D3
P 5400 1900
F 0 "P6" H 5400 2100 50  0000 C CNN
F 1 "Serwo_1" V 5500 1900 50  0000 C CNN
F 2 "111:GoldPin_1x3" H 5400 1900 50  0001 C CNN
F 3 "" H 5400 1900 50  0000 C CNN
	1    5400 1900
	0    -1   -1   0   
$EndComp
$Comp
L CONN_01X03 P7
U 1 1 58DA49BB
P 6200 1900
F 0 "P7" H 6200 2100 50  0000 C CNN
F 1 "Serwo_2" V 6300 1900 50  0000 C CNN
F 2 "111:GoldPin_1x3" H 6200 1900 50  0001 C CNN
F 3 "" H 6200 1900 50  0000 C CNN
	1    6200 1900
	0    -1   -1   0   
$EndComp
$Comp
L GND #PWR022
U 1 1 58DA5D6E
P 5250 2200
F 0 "#PWR022" H 5250 1950 50  0001 C CNN
F 1 "GND" H 5250 2050 50  0000 C CNN
F 2 "" H 5250 2200 50  0000 C CNN
F 3 "" H 5250 2200 50  0000 C CNN
	1    5250 2200
	1    0    0    -1  
$EndComp
$Comp
L GND #PWR023
U 1 1 58DA5DAE
P 6050 2200
F 0 "#PWR023" H 6050 1950 50  0001 C CNN
F 1 "GND" H 6050 2050 50  0000 C CNN
F 2 "" H 6050 2200 50  0000 C CNN
F 3 "" H 6050 2200 50  0000 C CNN
	1    6050 2200
	1    0    0    -1  
$EndComp
$Comp
L +5V #PWR024
U 1 1 58DA5DEE
P 6200 2200
F 0 "#PWR024" H 6200 2050 50  0001 C CNN
F 1 "+5V" H 6200 2340 50  0000 C CNN
F 2 "" H 6200 2200 50  0000 C CNN
F 3 "" H 6200 2200 50  0000 C CNN
	1    6200 2200
	-1   0    0    1   
$EndComp
$Comp
L +5V #PWR025
U 1 1 58DA5E2E
P 5400 2200
F 0 "#PWR025" H 5400 2050 50  0001 C CNN
F 1 "+5V" H 5400 2340 50  0000 C CNN
F 2 "" H 5400 2200 50  0000 C CNN
F 3 "" H 5400 2200 50  0000 C CNN
	1    5400 2200
	-1   0    0    1   
$EndComp
Text GLabel 5550 2200 3    60   Input ~ 0
Serwo_1
Text GLabel 6350 2200 3    60   Input ~ 0
Serwo_2
Text GLabel 5300 6400 2    60   Input ~ 0
Serwo_1
Text GLabel 5300 6500 2    60   Input ~ 0
Serwo_2
$Comp
L GND #PWR026
U 1 1 58DA8B12
P 7900 1300
F 0 "#PWR026" H 7900 1050 50  0001 C CNN
F 1 "GND" H 7900 1150 50  0000 C CNN
F 2 "" H 7900 1300 50  0000 C CNN
F 3 "" H 7900 1300 50  0000 C CNN
	1    7900 1300
	1    0    0    -1  
$EndComp
$Comp
L +5V #PWR027
U 1 1 58DA9152
P 7600 900
F 0 "#PWR027" H 7600 750 50  0001 C CNN
F 1 "+5V" H 7600 1040 50  0000 C CNN
F 2 "" H 7600 900 50  0000 C CNN
F 3 "" H 7600 900 50  0000 C CNN
	1    7600 900 
	1    0    0    -1  
$EndComp
Text GLabel 8050 1400 3    60   Output ~ 0
KTIR_1
Text GLabel 8150 1400 3    60   Output ~ 0
KTIR_2
Text GLabel 8250 1400 3    60   Output ~ 0
KTIR_3
Text GLabel 8350 1400 3    60   Output ~ 0
KTIR_4
Text GLabel 8450 1400 3    60   Output ~ 0
KTIR_5
Text GLabel 8550 1400 3    60   Output ~ 0
KTIR_6
Text GLabel 5300 3700 2    60   Input ~ 0
KTIR_1
Text GLabel 5300 3800 2    60   Input ~ 0
KTIR_2
Text GLabel 5300 3900 2    60   Input ~ 0
KTIR_3
Text GLabel 5300 4000 2    60   Input ~ 0
KTIR_4
Text GLabel 5300 4100 2    60   Input ~ 0
KTIR_5
Wire Wire Line
	8200 3800 8150 3800
Wire Wire Line
	8150 3800 8150 4000
Wire Wire Line
	8150 3700 8200 3700
Wire Wire Line
	10100 1200 10100 1650
Wire Wire Line
	9200 900  9800 900 
Wire Wire Line
	10400 900  11000 900 
Wire Wire Line
	9400 1600 10800 1600
Connection ~ 10100 1600
Connection ~ 9400 900 
Wire Wire Line
	10100 2500 10100 2950
Wire Wire Line
	10400 2200 11000 2200
Connection ~ 10100 2900
Connection ~ 10800 2200
Wire Wire Line
	2650 3200 2500 3200
Wire Wire Line
	2500 3100 2500 3300
Connection ~ 2500 3200
Wire Wire Line
	3100 3100 3100 3300
Wire Wire Line
	2950 3200 3100 3200
Connection ~ 3100 3200
Wire Wire Line
	3350 3200 3500 3200
Connection ~ 3350 3200
Wire Wire Line
	3800 3200 3950 3200
Connection ~ 3950 3200
Wire Wire Line
	3950 3100 3950 3300
Wire Wire Line
	3350 3100 3350 3300
Wire Wire Line
	4150 3100 4150 3300
Wire Wire Line
	4150 3200 4300 3200
Connection ~ 4150 3200
Wire Wire Line
	4750 3100 4750 3300
Wire Wire Line
	4600 3200 4750 3200
Connection ~ 4750 3200
Wire Wire Line
	1100 950  1100 850 
Wire Wire Line
	1100 850  950  850 
Wire Wire Line
	1100 1150 1100 1050
Wire Wire Line
	1100 1050 950  1050
Wire Wire Line
	1100 1350 1100 1250
Wire Wire Line
	1100 1250 950  1250
Wire Wire Line
	1100 1450 1100 1550
Wire Wire Line
	1100 1550 950  1550
Wire Wire Line
	1100 1650 1100 1750
Wire Wire Line
	1100 1750 950  1750
Wire Wire Line
	1100 1850 1100 1950
Wire Wire Line
	1100 1950 950  1950
Wire Wire Line
	2650 950  2800 950 
Wire Wire Line
	2650 1150 2800 1150
Wire Wire Line
	2650 1050 2800 1050
Wire Wire Line
	2650 1550 2800 1550
Wire Wire Line
	2650 1650 2800 1650
Wire Wire Line
	2650 1750 2800 1750
Wire Wire Line
	2650 1850 2650 1950
Wire Wire Line
	2650 1450 3400 1450
Wire Wire Line
	3400 1450 3400 1500
Wire Wire Line
	2650 1350 2650 1250
Wire Wire Line
	2650 1250 4050 1250
Connection ~ 3600 1250
Wire Wire Line
	3600 1250 3600 1350
Wire Wire Line
	3900 1350 3900 1250
Connection ~ 3900 1250
Wire Wire Line
	3600 1650 3600 1700
Wire Wire Line
	3600 1700 3900 1700
Wire Wire Line
	3900 1700 3900 1650
Wire Wire Line
	3750 1700 3750 1750
Connection ~ 3750 1700
Wire Wire Line
	4050 1250 4050 1200
Wire Wire Line
	2650 1950 4300 1950
Wire Wire Line
	4300 1950 4300 650 
Wire Wire Line
	2650 850  4300 850 
Connection ~ 4300 850 
Wire Wire Line
	3000 2100 3000 1950
Connection ~ 3000 1950
Wire Wire Line
	3300 2100 3300 1950
Connection ~ 3300 1950
Wire Wire Line
	3000 2400 3000 2450
Wire Wire Line
	3000 2450 3300 2450
Wire Wire Line
	3300 2450 3300 2400
Wire Wire Line
	3150 2450 3150 2500
Connection ~ 3150 2450
Wire Wire Line
	4650 1150 4700 1150
Wire Wire Line
	4700 1150 4700 1050
Wire Wire Line
	4800 1050 4800 1150
Wire Wire Line
	4800 1150 4850 1150
Wire Wire Line
	5200 1050 5200 1150
Wire Wire Line
	5200 1150 5150 1150
Wire Wire Line
	5300 1050 5300 1150
Wire Wire Line
	5300 1150 5350 1150
Wire Wire Line
	7000 1100 7000 1050
Wire Wire Line
	7300 1050 7400 1050
Wire Wire Line
	7400 1050 7400 1300
Wire Wire Line
	7100 1050 7100 1100
Wire Wire Line
	7100 1100 7050 1100
Wire Wire Line
	7050 1100 7050 1150
Wire Wire Line
	7200 1050 7200 1100
Wire Wire Line
	7200 1100 7250 1100
Wire Wire Line
	7250 1100 7250 1150
Wire Wire Line
	5300 2100 5250 2100
Wire Wire Line
	5250 2100 5250 2200
Wire Wire Line
	5500 2100 5550 2100
Wire Wire Line
	5550 2100 5550 2200
Wire Wire Line
	5400 2100 5400 2200
Wire Wire Line
	6100 2100 6050 2100
Wire Wire Line
	6050 2100 6050 2200
Wire Wire Line
	6200 2100 6200 2200
Wire Wire Line
	6300 2100 6350 2100
Wire Wire Line
	6350 2100 6350 2200
Wire Wire Line
	7800 1050 7800 1100
Wire Wire Line
	7900 1050 7900 1300
Wire Wire Line
	8000 1050 8000 1350
Wire Wire Line
	8000 1350 8050 1350
Wire Wire Line
	8050 1350 8050 1400
Wire Wire Line
	8100 1050 8100 1350
Wire Wire Line
	8100 1350 8150 1350
Wire Wire Line
	8150 1350 8150 1400
Wire Wire Line
	8200 1050 8200 1350
Wire Wire Line
	8200 1350 8250 1350
Wire Wire Line
	8250 1350 8250 1400
Wire Wire Line
	8300 1050 8300 1350
Wire Wire Line
	8300 1350 8350 1350
Wire Wire Line
	8350 1350 8350 1400
Wire Wire Line
	8400 1050 8400 1350
Wire Wire Line
	8400 1350 8450 1350
Wire Wire Line
	8450 1350 8450 1400
Wire Wire Line
	8500 1050 8500 1350
Wire Wire Line
	8500 1350 8550 1350
Wire Wire Line
	8550 1350 8550 1400
Wire Wire Line
	9400 900  9400 1100
Wire Wire Line
	9400 1400 9400 1600
Wire Wire Line
	10800 1600 10800 1400
Wire Wire Line
	10800 2400 10800 2200
Wire Wire Line
	10800 2900 10800 2700
Wire Wire Line
	1050 3700 1900 3700
Wire Wire Line
	1350 3700 1350 3800
Connection ~ 1350 3700
$Comp
L C C12
U 1 1 58DB381F
P 1350 3950
F 0 "C12" H 1375 4050 50  0000 L CNN
F 1 "100nF" H 1375 3850 50  0000 L CNN
F 2 "Capacitors_SMD:C_0805" H 1388 3800 50  0001 C CNN
F 3 "" H 1350 3950 50  0000 C CNN
	1    1350 3950
	1    0    0    -1  
$EndComp
Wire Wire Line
	1350 4100 1350 4150
$Comp
L GND #PWR028
U 1 1 58DB3935
P 1350 4150
F 0 "#PWR028" H 1350 3900 50  0001 C CNN
F 1 "GND" H 1350 4000 50  0000 C CNN
F 2 "" H 1350 4150 50  0000 C CNN
F 3 "" H 1350 4150 50  0000 C CNN
	1    1350 4150
	1    0    0    -1  
$EndComp
$Comp
L GND #PWR029
U 1 1 58DB398C
P 1050 4150
F 0 "#PWR029" H 1050 3900 50  0001 C CNN
F 1 "GND" H 1050 4000 50  0000 C CNN
F 2 "" H 1050 4150 50  0000 C CNN
F 3 "" H 1050 4150 50  0000 C CNN
	1    1050 4150
	1    0    0    -1  
$EndComp
Wire Wire Line
	1050 4150 1050 4100
$Comp
L SW_PUSH_SMALL_H SW1
U 1 1 58DB3B7E
P 1050 3950
F 0 "SW1" H 1130 4060 50  0000 C CNN
F 1 "SW_PUSH_SMALL_H" H 950 3800 50  0000 C CNN
F 2 "Buttons_Switches_SMD:SW_DIP_x1_W7.62mm_Slide_Copal_CHS-B" H 1050 4150 50  0001 C CNN
F 3 "" H 1050 4150 50  0000 C CNN
	1    1050 3950
	0    -1   -1   0   
$EndComp
Wire Wire Line
	1050 3800 1050 3700
$Comp
L CONN_01X04 P8
U 1 1 58DB78D5
P 7200 5300
F 0 "P8" H 7200 5550 50  0000 C CNN
F 1 "SWD" V 7300 5300 50  0000 C CNN
F 2 "111:GoldPin_1x4" H 7200 5300 50  0001 C CNN
F 3 "" H 7200 5300 50  0000 C CNN
	1    7200 5300
	0    -1   -1   0   
$EndComp
Wire Wire Line
	7050 5550 7050 5500
Wire Wire Line
	7150 5500 7150 5550
Wire Wire Line
	7250 5500 7250 5550
Wire Wire Line
	7350 5500 7350 5550
Text GLabel 7400 5600 3    60   Output ~ 0
SWDIO
Wire Wire Line
	7350 5550 7400 5550
$Comp
L GND #PWR030
U 1 1 58DB944F
P 7250 5550
F 0 "#PWR030" H 7250 5300 50  0001 C CNN
F 1 "GND" H 7250 5400 50  0000 C CNN
F 2 "" H 7250 5550 50  0000 C CNN
F 3 "" H 7250 5550 50  0000 C CNN
	1    7250 5550
	1    0    0    -1  
$EndComp
Text GLabel 7100 5600 3    60   Output ~ 0
SWCLK
Wire Wire Line
	7100 5600 7100 5550
Wire Wire Line
	7100 5550 7150 5550
Wire Wire Line
	6800 5550 7050 5550
Text GLabel 5300 5000 2    60   Input ~ 0
SWDIO
Text GLabel 5300 5100 2    60   Input ~ 0
SWCLK
Wire Wire Line
	7400 5550 7400 5600
Text GLabel 2800 1750 2    60   Input ~ 0
Right_PWM
Text GLabel 5300 4200 2    60   Input ~ 0
KTIR_6
$Comp
L CONN_01X04 P9
U 1 1 58DD32A9
P 6200 850
F 0 "P9" H 6200 1100 50  0000 C CNN
F 1 "HC-06" V 6300 850 50  0000 C CNN
F 2 "111:GoldPin_1x4" H 6200 850 50  0001 C CNN
F 3 "" H 6200 850 50  0000 C CNN
	1    6200 850 
	0    1    -1   0   
$EndComp
Text GLabel 6150 1050 3    60   Input ~ 0
RX
Text GLabel 6050 1050 3    60   Output ~ 0
TX
Text GLabel 5300 4700 2    60   Output ~ 0
RX
Text GLabel 5300 4600 2    60   Input ~ 0
TX
Wire Wire Line
	6250 1050 6250 1300
$Comp
L GND #PWR031
U 1 1 58DDA5FF
P 6250 1300
F 0 "#PWR031" H 6250 1050 50  0001 C CNN
F 1 "GND" H 6250 1150 50  0000 C CNN
F 2 "" H 6250 1300 50  0000 C CNN
F 3 "" H 6250 1300 50  0000 C CNN
	1    6250 1300
	1    0    0    -1  
$EndComp
Wire Wire Line
	6550 900  6550 1100
$Comp
L CONN_01X08 P10
U 1 1 58DE81FA
P 8000 2350
F 0 "P10" H 8000 2800 50  0000 C CNN
F 1 "Czujnik koloru TCS3200D" V 8100 2350 50  0000 C CNN
F 2 "111:GoldPin_1x8" H 8000 2350 50  0001 C CNN
F 3 "" H 8000 2350 50  0000 C CNN
	1    8000 2350
	0    -1   -1   0   
$EndComp
Wire Wire Line
	7950 2550 7950 2600
$Comp
L GND #PWR033
U 1 1 58DE8796
P 7950 2600
F 0 "#PWR033" H 7950 2350 50  0001 C CNN
F 1 "GND" H 7950 2450 50  0000 C CNN
F 2 "" H 7950 2600 50  0000 C CNN
F 3 "" H 7950 2600 50  0000 C CNN
	1    7950 2600
	1    0    0    -1  
$EndComp
Wire Wire Line
	8050 2550 8050 2750
$Comp
L +5V #PWR034
U 1 1 58DE88BA
P 8050 2750
F 0 "#PWR034" H 8050 2600 50  0001 C CNN
F 1 "+5V" H 8050 2890 50  0000 C CNN
F 2 "" H 8050 2750 50  0000 C CNN
F 3 "" H 8050 2750 50  0000 C CNN
	1    8050 2750
	-1   0    0    1   
$EndComp
Text GLabel 7650 2600 3    60   Input ~ 0
S0
Wire Wire Line
	7650 2600 7650 2550
Text GLabel 5300 5700 2    60   Output ~ 0
S0
Text GLabel 7750 2600 3    60   Input ~ 0
S1
Wire Wire Line
	7750 2550 7750 2600
Text GLabel 5300 5800 2    60   Output ~ 0
S1
Wire Wire Line
	8150 2550 8150 2600
Text GLabel 8150 2600 3    60   Output ~ 0
OUT
Text GLabel 5300 5900 2    60   Input ~ 0
OUT
Text GLabel 8250 2600 3    60   Input ~ 0
S2
Text GLabel 8350 2600 3    60   Input ~ 0
S3
Wire Wire Line
	8250 2550 8250 2600
Wire Wire Line
	8350 2550 8350 2600
Text GLabel 5300 6200 2    60   Output ~ 0
S2
Text GLabel 5300 6300 2    60   Output ~ 0
S3
Wire Wire Line
	1700 3850 1900 3850
NoConn ~ 1900 5900
NoConn ~ 1900 6000
NoConn ~ 1900 6100
NoConn ~ 5300 4900
NoConn ~ 5300 4800
NoConn ~ 5300 4500
NoConn ~ 5300 6000
NoConn ~ 5300 6100
NoConn ~ 7850 2550
$Comp
L +5V #PWR035
U 1 1 58D6DA80
P 11000 2200
F 0 "#PWR035" H 11000 2050 50  0001 C CNN
F 1 "+5V" H 11000 2340 50  0000 C CNN
F 2 "" H 11000 2200 50  0000 C CNN
F 3 "" H 11000 2200 50  0000 C CNN
	1    11000 2200
	1    0    0    -1  
$EndComp
$Comp
L PWR_FLAG #FLG036
U 1 1 58D949A3
P 8050 3600
F 0 "#FLG036" H 8050 3695 50  0001 C CNN
F 1 "PWR_FLAG" V 8150 3750 50  0000 C CNN
F 2 "" H 8050 3600 50  0000 C CNN
F 3 "" H 8050 3600 50  0000 C CNN
	1    8050 3600
	0    -1   -1   0   
$EndComp
$Comp
L PWR_FLAG #FLG037
U 1 1 58D94A06
P 8050 3900
F 0 "#FLG037" H 8050 3995 50  0001 C CNN
F 1 "PWR_FLAG" V 8150 4050 50  0000 C CNN
F 2 "" H 8050 3900 50  0000 C CNN
F 3 "" H 8050 3900 50  0000 C CNN
	1    8050 3900
	0    -1   -1   0   
$EndComp
Wire Wire Line
	8050 3900 8150 3900
Connection ~ 8150 3900
Wire Wire Line
	1900 4150 1850 4150
$Comp
L +3.3V #PWR038
U 1 1 58D9D7C0
P 1850 4050
F 0 "#PWR038" H 1850 3900 50  0001 C CNN
F 1 "+3.3V" H 1850 4190 50  0000 C CNN
F 2 "" H 1850 4050 50  0000 C CNN
F 3 "" H 1850 4050 50  0000 C CNN
	1    1850 4050
	1    0    0    -1  
$EndComp
$Comp
L CONN_01X08 P5
U 1 1 58DA76B7
P 8150 850
F 0 "P5" H 8150 1300 50  0000 C CNN
F 1 "KTIR" V 8250 850 50  0000 C CNN
F 2 "111:GoldPin_1x8" H 8150 850 50  0001 C CNN
F 3 "" H 8150 850 50  0000 C CNN
	1    8150 850 
	0    -1   -1   0   
$EndComp
NoConn ~ 5300 5500
Wire Wire Line
	5300 5600 5500 5600
$Comp
L R R1
U 1 1 58DAA018
P 5650 5600
F 0 "R1" V 5550 5700 50  0000 C CNN
F 1 "220R" V 5650 5600 50  0000 C CNN
F 2 "Resistors_SMD:R_0805" V 5580 5600 50  0001 C CNN
F 3 "" H 5650 5600 50  0000 C CNN
	1    5650 5600
	0    1    1    0   
$EndComp
Wire Wire Line
	5800 5600 5900 5600
Text GLabel 5900 5600 2    60   Output ~ 0
LED1
$Comp
L CONN_01X02 P11
U 1 1 58DAA6AD
P 6950 3250
F 0 "P11" H 6950 3400 50  0000 C CNN
F 1 "LED" V 7050 3250 50  0000 C CNN
F 2 "111:GoldPin_1x2" H 6950 3250 50  0001 C CNN
F 3 "" H 6950 3250 50  0000 C CNN
	1    6950 3250
	0    -1   -1   0   
$EndComp
Wire Wire Line
	6900 3450 6900 3500
Text GLabel 6900 3500 3    60   Input ~ 0
LED1
Wire Wire Line
	7000 3450 7000 3500
Wire Wire Line
	7000 3500 7050 3500
Wire Wire Line
	7050 3500 7050 3550
$Comp
L GND #PWR039
U 1 1 58DAABED
P 7050 3550
F 0 "#PWR039" H 7050 3300 50  0001 C CNN
F 1 "GND" H 7050 3400 50  0000 C CNN
F 2 "" H 7050 3550 50  0000 C CNN
F 3 "" H 7050 3550 50  0000 C CNN
	1    7050 3550
	1    0    0    -1  
$EndComp
$Comp
L +3.3V #PWR040
U 1 1 58DB048A
P 6800 5500
F 0 "#PWR040" H 6800 5350 50  0001 C CNN
F 1 "+3.3V" H 6800 5640 50  0000 C CNN
F 2 "" H 6800 5500 50  0000 C CNN
F 3 "" H 6800 5500 50  0000 C CNN
	1    6800 5500
	1    0    0    -1  
$EndComp
Wire Wire Line
	6800 5500 6800 5550
Wire Wire Line
	1700 3850 1700 4750
$Comp
L GND #PWR041
U 1 1 58E30EE4
P 10100 4350
F 0 "#PWR041" H 10100 4100 50  0001 C CNN
F 1 "GND" H 10100 4200 50  0000 C CNN
F 2 "" H 10100 4350 50  0000 C CNN
F 3 "" H 10100 4350 50  0000 C CNN
	1    10100 4350
	1    0    0    -1  
$EndComp
$Comp
L +7.4V #PWR042
U 1 1 58E30EEA
P 9200 3600
F 0 "#PWR042" H 9200 3450 50  0001 C CNN
F 1 "+7.4V" H 9200 3740 50  0000 C CNN
F 2 "" H 9200 3600 50  0000 C CNN
F 3 "" H 9200 3600 50  0000 C CNN
	1    9200 3600
	1    0    0    -1  
$EndComp
$Comp
L LM1117-5.0 U5
U 1 1 58E30EF0
P 10100 3600
F 0 "U5" H 10200 3350 50  0000 C CNN
F 1 "LM1117-5.0" H 10100 3850 50  0000 C CNN
F 2 "TO_SOT_Packages_SMD:SOT-223" H 10100 3600 50  0001 C CNN
F 3 "" H 10100 3600 50  0000 C CNN
	1    10100 3600
	1    0    0    -1  
$EndComp
Wire Wire Line
	10100 3900 10100 4350
Wire Wire Line
	9200 3600 9800 3600
Connection ~ 10100 4300
Connection ~ 9400 3600
Wire Wire Line
	9400 3600 9400 3800
Wire Wire Line
	9400 4100 9400 4300
$Comp
L +5V #PWR043
U 1 1 58E30F01
P 10500 3500
F 0 "#PWR043" H 10500 3350 50  0001 C CNN
F 1 "+5V" H 10500 3640 50  0000 C CNN
F 2 "" H 10500 3500 50  0000 C CNN
F 3 "" H 10500 3500 50  0000 C CNN
	1    10500 3500
	1    0    0    -1  
$EndComp
$Comp
L CONN_01X02 P13
U 1 1 58E3D691
P 6300 3250
F 0 "P13" H 6300 3400 50  0000 C CNN
F 1 "LED" V 6400 3250 50  0000 C CNN
F 2 "111:GoldPin_1x2" H 6300 3250 50  0001 C CNN
F 3 "" H 6300 3250 50  0000 C CNN
	1    6300 3250
	0    -1   -1   0   
$EndComp
Wire Wire Line
	6250 3450 6250 3500
Text GLabel 6250 3500 3    60   Input ~ 0
LED2
Wire Wire Line
	6350 3450 6350 3500
Wire Wire Line
	6350 3500 6400 3500
Wire Wire Line
	6400 3500 6400 3550
$Comp
L GND #PWR044
U 1 1 58E3D69C
P 6400 3550
F 0 "#PWR044" H 6400 3300 50  0001 C CNN
F 1 "GND" H 6400 3400 50  0000 C CNN
F 2 "" H 6400 3550 50  0000 C CNN
F 3 "" H 6400 3550 50  0000 C CNN
	1    6400 3550
	1    0    0    -1  
$EndComp
Text GLabel 5900 5200 2    60   Output ~ 0
LED2
Wire Wire Line
	5300 5200 5500 5200
$Comp
L R R2
U 1 1 58E3F05E
P 5650 5200
F 0 "R2" V 5550 5300 50  0000 C CNN
F 1 "220R" V 5650 5200 50  0000 C CNN
F 2 "Resistors_SMD:R_0805" V 5580 5200 50  0001 C CNN
F 3 "" H 5650 5200 50  0000 C CNN
	1    5650 5200
	0    1    1    0   
$EndComp
Wire Wire Line
	5800 5200 5900 5200
$Comp
L CONN_01X04 P14
U 1 1 58E3FAD3
P 6900 4400
F 0 "P14" H 6900 4650 50  0000 C CNN
F 1 "RGB" V 7000 4400 50  0000 C CNN
F 2 "111:GoldPin_1x4" H 6900 4400 50  0001 C CNN
F 3 "" H 6900 4400 50  0000 C CNN
	1    6900 4400
	1    0    0    -1  
$EndComp
Text GLabel 6700 4250 0    60   Input ~ 0
R
Text GLabel 6700 4350 0    60   Input ~ 0
G
Text GLabel 6700 4450 0    60   Input ~ 0
B
Text GLabel 5900 4300 2    60   Input ~ 0
R
Text GLabel 5900 4400 2    60   Input ~ 0
G
Wire Wire Line
	6700 4550 6650 4550
Wire Wire Line
	6650 4550 6650 4650
Text GLabel 5900 5400 2    60   Input ~ 0
B
Wire Wire Line
	5300 4300 5500 4300
$Comp
L R R3
U 1 1 58E41F96
P 5650 4300
F 0 "R3" V 5550 4450 50  0000 C CNN
F 1 "220R" V 5650 4300 50  0000 C CNN
F 2 "Resistors_SMD:R_0805" V 5580 4300 50  0001 C CNN
F 3 "" H 5650 4300 50  0000 C CNN
	1    5650 4300
	0    1    1    0   
$EndComp
Wire Wire Line
	5800 4300 5900 4300
Wire Wire Line
	5300 4400 5500 4400
$Comp
L R R4
U 1 1 58E4239B
P 5650 4400
F 0 "R4" V 5600 4550 50  0000 C CNN
F 1 "100R" V 5650 4400 50  0000 C CNN
F 2 "Resistors_SMD:R_0805" V 5580 4400 50  0001 C CNN
F 3 "" H 5650 4400 50  0000 C CNN
	1    5650 4400
	0    1    1    0   
$EndComp
Wire Wire Line
	5800 4400 5900 4400
Wire Wire Line
	5300 5400 5500 5400
$Comp
L R R5
U 1 1 58E4298E
P 5650 5400
F 0 "R5" V 5550 5500 50  0000 C CNN
F 1 "10R" V 5650 5400 50  0000 C CNN
F 2 "Resistors_SMD:R_0805" V 5580 5400 50  0001 C CNN
F 3 "" H 5650 5400 50  0000 C CNN
	1    5650 5400
	0    1    1    0   
$EndComp
Wire Wire Line
	5800 5400 5900 5400
$Comp
L GND #PWR045
U 1 1 58E4CD35
P 6650 4650
F 0 "#PWR045" H 6650 4400 50  0001 C CNN
F 1 "GND" H 6650 4500 50  0000 C CNN
F 2 "" H 6650 4650 50  0000 C CNN
F 3 "" H 6650 4650 50  0000 C CNN
	1    6650 4650
	1    0    0    -1  
$EndComp
$Comp
L CONN_01X03 P15
U 1 1 58E50540
P 1250 4750
F 0 "P15" H 1250 4950 50  0000 C CNN
F 1 "Boot" V 1350 4750 50  0000 C CNN
F 2 "111:GoldPin_1x3" H 1250 4750 50  0001 C CNN
F 3 "" H 1250 4750 50  0000 C CNN
	1    1250 4750
	-1   0    0    1   
$EndComp
Wire Wire Line
	1700 4750 1450 4750
Wire Wire Line
	1450 4650 1550 4650
Wire Wire Line
	1550 4650 1550 4550
Wire Wire Line
	1450 4850 1550 4850
Wire Wire Line
	1550 4850 1550 4950
$Comp
L +3.3V #PWR046
U 1 1 58E5107E
P 1550 4550
F 0 "#PWR046" H 1550 4400 50  0001 C CNN
F 1 "+3.3V" H 1550 4690 50  0000 C CNN
F 2 "" H 1550 4550 50  0000 C CNN
F 3 "" H 1550 4550 50  0000 C CNN
	1    1550 4550
	1    0    0    -1  
$EndComp
$Comp
L GND #PWR047
U 1 1 58E5113E
P 1550 4950
F 0 "#PWR047" H 1550 4700 50  0001 C CNN
F 1 "GND" H 1550 4800 50  0000 C CNN
F 2 "" H 1550 4950 50  0000 C CNN
F 3 "" H 1550 4950 50  0000 C CNN
	1    1550 4950
	1    0    0    -1  
$EndComp
Wire Wire Line
	8150 3500 8150 3700
Wire Wire Line
	8050 3600 8150 3600
Connection ~ 8150 3600
$Comp
L CP C2
U 1 1 58E5622B
P 3600 1500
F 0 "C2" H 3625 1600 50  0000 L CNN
F 1 "10uF" H 3625 1400 50  0000 L CNN
F 2 "Capacitors_Tantalum_SMD:TantalC_SizeA_EIA-3216_Reflow" H 3638 1350 30  0001 C CNN
F 3 "" H 3600 1500 60  0000 C CNN
	1    3600 1500
	1    0    0    -1  
$EndComp
$Comp
L CP C1
U 1 1 58E56696
P 3300 2250
F 0 "C1" H 3325 2350 50  0000 L CNN
F 1 "10uF" H 3325 2150 50  0000 L CNN
F 2 "Capacitors_Tantalum_SMD:TantalC_SizeA_EIA-3216_Reflow" H 3338 2100 30  0001 C CNN
F 3 "" H 3300 2250 60  0000 C CNN
	1    3300 2250
	1    0    0    -1  
$EndComp
$Comp
L CP C3
U 1 1 58E570B0
P 9400 1250
F 0 "C3" H 9425 1350 50  0000 L CNN
F 1 "10uF" H 9425 1150 50  0000 L CNN
F 2 "Capacitors_Tantalum_SMD:TantalC_SizeA_EIA-3216_Reflow" H 9438 1100 30  0001 C CNN
F 3 "" H 9400 1250 60  0000 C CNN
	1    9400 1250
	1    0    0    -1  
$EndComp
Connection ~ 10800 900 
Wire Wire Line
	10800 900  10800 1100
$Comp
L CP C10
U 1 1 58E57C0F
P 10800 1250
F 0 "C10" H 10825 1350 50  0000 L CNN
F 1 "10uF" H 10825 1150 50  0000 L CNN
F 2 "Capacitors_Tantalum_SMD:TantalC_SizeA_EIA-3216_Reflow" H 10838 1100 30  0001 C CNN
F 3 "" H 10800 1250 60  0000 C CNN
	1    10800 1250
	1    0    0    -1  
$EndComp
$Comp
L CP C13
U 1 1 58E57D78
P 10800 2550
F 0 "C13" H 10825 2650 50  0000 L CNN
F 1 "10uF" H 10825 2450 50  0000 L CNN
F 2 "Capacitors_Tantalum_SMD:TantalC_SizeA_EIA-3216_Reflow" H 10838 2400 30  0001 C CNN
F 3 "" H 10800 2550 60  0000 C CNN
	1    10800 2550
	1    0    0    -1  
$EndComp
$Comp
L CP C9
U 1 1 58E57FCF
P 9400 3950
F 0 "C9" H 9425 4050 50  0000 L CNN
F 1 "10uF" H 9425 3850 50  0000 L CNN
F 2 "Capacitors_Tantalum_SMD:TantalC_SizeA_EIA-3216_Reflow" H 9438 3800 30  0001 C CNN
F 3 "" H 9400 3950 60  0000 C CNN
	1    9400 3950
	1    0    0    -1  
$EndComp
Wire Wire Line
	10800 2900 10100 2900
Wire Wire Line
	9800 2200 9700 2200
Wire Wire Line
	9700 2200 9700 2100
$Comp
L +7.4V #PWR048
U 1 1 58E59EDB
P 9700 2100
F 0 "#PWR048" H 9700 1950 50  0001 C CNN
F 1 "+7.4V" H 9700 2240 50  0000 C CNN
F 2 "" H 9700 2100 50  0000 C CNN
F 3 "" H 9700 2100 50  0000 C CNN
	1    9700 2100
	1    0    0    -1  
$EndComp
Wire Wire Line
	10400 3600 10500 3600
Wire Wire Line
	10500 3600 10500 3500
Wire Wire Line
	9400 4300 10100 4300
Wire Wire Line
	7000 1100 6800 1100
Wire Wire Line
	6800 1100 6800 900 
Wire Wire Line
	6350 1050 6350 1100
Wire Wire Line
	6350 1100 6550 1100
Wire Wire Line
	7800 1100 7600 1100
Wire Wire Line
	7600 1100 7600 900 
Wire Wire Line
	1850 4150 1850 4050
$Comp
L +3.3V #PWR?
U 1 1 58E688D7
P 6550 900
F 0 "#PWR?" H 6550 750 50  0001 C CNN
F 1 "+3.3V" H 6550 1040 50  0000 C CNN
F 2 "" H 6550 900 50  0000 C CNN
F 3 "" H 6550 900 50  0000 C CNN
	1    6550 900 
	1    0    0    -1  
$EndComp
$EndSCHEMATC
