(module LOGO (layer F.Cu)
  (at 0 0)
 (fp_text reference "G***" (at 0 0) (layer F.Cu) hide
  (effects (font (thickness 0.3)))
  )
  (fp_text value "LOGO" (at 0.75 0) (layer F.Cu) hide
  (effects (font (thickness 0.3)))
  )
  (fp_poly (pts (xy 1.539116 -5.101097) (xy 1.578210 -5.067404) (xy 1.624142 -5.019711) (xy 1.670696 -4.964940) (xy 1.711652 -4.910017) (xy 1.740793 -4.861864) (xy 1.742456 -4.858453) (xy 1.789226 -4.768636)
     (xy 1.847018 -4.674511) (xy 1.911864 -4.580031) (xy 1.968189 -4.490347) (xy 2.004798 -4.403001) (xy 2.024948 -4.306919) (xy 2.031896 -4.191027) (xy 2.032001 -4.171571) (xy 2.027288 -4.015164)
     (xy 2.012557 -3.850113) (xy 1.986915 -3.668625) (xy 1.952794 -3.479801) (xy 1.919173 -3.320587) (xy 1.884500 -3.188084) (xy 1.845340 -3.075218) (xy 1.798258 -2.974917) (xy 1.739818 -2.880107)
     (xy 1.666586 -2.783715) (xy 1.575126 -2.678670) (xy 1.550808 -2.652172) (xy 1.516807 -2.614298) (xy 1.494790 -2.587670) (xy 1.490134 -2.580205) (xy 1.504880 -2.575751) (xy 1.540399 -2.573868)
     (xy 1.540934 -2.573867) (xy 1.576598 -2.579060) (xy 1.591730 -2.591572) (xy 1.591734 -2.591800) (xy 1.601900 -2.602345) (xy 1.607246 -2.600145) (xy 1.633075 -2.598527) (xy 1.666605 -2.607229)
     (xy 1.703106 -2.616923) (xy 1.743318 -2.624667) (xy 1.905001 -2.624667) (xy 1.912382 -2.613403) (xy 1.947581 -2.608160) (xy 1.959034 -2.607993) (xy 1.998047 -2.610260) (xy 2.006436 -2.617480)
     (xy 1.998134 -2.624667) (xy 1.957428 -2.639740) (xy 1.920223 -2.636605) (xy 1.905001 -2.624667) (xy 1.743318 -2.624667) (xy 1.762568 -2.628374) (xy 1.834296 -2.639605) (xy 1.861975 -2.643331)
     (xy 1.935937 -2.652111) (xy 1.987866 -2.655003) (xy 2.029242 -2.651000) (xy 2.071544 -2.639098) (xy 2.120116 -2.620713) (xy 2.184440 -2.597037) (xy 2.244577 -2.577723) (xy 2.281767 -2.568221)
     (xy 2.319238 -2.563603) (xy 2.334145 -2.574421) (xy 2.336800 -2.607197) (xy 2.348516 -2.654884) (xy 2.368987 -2.679158) (xy 2.392882 -2.708840) (xy 2.414887 -2.756804) (xy 2.421301 -2.777485)
     (xy 2.440460 -2.831798) (xy 2.464261 -2.876762) (xy 2.472267 -2.887134) (xy 2.496112 -2.924983) (xy 2.517674 -2.977727) (xy 2.522429 -2.993797) (xy 2.540456 -3.046403) (xy 2.561866 -3.088862)
     (xy 2.568109 -3.097375) (xy 2.595021 -3.139257) (xy 2.627591 -3.205905) (xy 2.662572 -3.289408) (xy 2.696716 -3.381856) (xy 2.726775 -3.475339) (xy 2.734760 -3.503304) (xy 2.773933 -3.645341)
     (xy 2.733936 -3.685337) (xy 2.691860 -3.717064) (xy 2.657457 -3.723689) (xy 2.636863 -3.704167) (xy 2.622430 -3.692238) (xy 2.615800 -3.695597) (xy 2.614253 -3.715745) (xy 2.633576 -3.741916)
     (xy 2.664317 -3.765039) (xy 2.697027 -3.776047) (xy 2.699724 -3.776134) (xy 2.746710 -3.764723) (xy 2.787293 -3.736594) (xy 2.809587 -3.700898) (xy 2.810934 -3.690507) (xy 2.821182 -3.663574)
     (xy 2.834923 -3.657600) (xy 2.862148 -3.644792) (xy 2.867500 -3.636434) (xy 2.879134 -3.624315) (xy 2.890423 -3.635374) (xy 2.915717 -3.655510) (xy 2.953911 -3.674170) (xy 3.003933 -3.681514)
     (xy 3.035364 -3.662017) (xy 3.044058 -3.619470) (xy 3.039905 -3.595534) (xy 3.030416 -3.563518) (xy 3.022979 -3.562065) (xy 3.013082 -3.585022) (xy 2.999311 -3.609677) (xy 2.977314 -3.613400)
     (xy 2.947172 -3.604532) (xy 2.911603 -3.586654) (xy 2.895663 -3.567814) (xy 2.895601 -3.566818) (xy 2.886694 -3.543308) (xy 2.863491 -3.501714) (xy 2.835222 -3.457425) (xy 2.789218 -3.386219)
     (xy 2.747498 -3.316413) (xy 2.713333 -3.254100) (xy 2.689993 -3.205370) (xy 2.680746 -3.176314) (xy 2.681765 -3.171525) (xy 2.680409 -3.152409) (xy 2.666403 -3.126675) (xy 2.646830 -3.085095)
     (xy 2.641601 -3.056086) (xy 2.634761 -3.019666) (xy 2.626263 -3.004821) (xy 2.600101 -2.968767) (xy 2.572679 -2.918589) (xy 2.550519 -2.867760) (xy 2.540144 -2.829753) (xy 2.540001 -2.826613)
     (xy 2.528935 -2.791267) (xy 2.502064 -2.751667) (xy 2.499732 -2.749095) (xy 2.473674 -2.710284) (xy 2.467124 -2.676489) (xy 2.467388 -2.675362) (xy 2.464254 -2.640340) (xy 2.446096 -2.600467)
     (xy 2.425820 -2.564999) (xy 2.428779 -2.547670) (xy 2.457460 -2.539852) (xy 2.463801 -2.539009) (xy 2.521233 -2.546089) (xy 2.580780 -2.576075) (xy 2.614592 -2.605791) (xy 2.644652 -2.632067)
     (xy 2.666673 -2.641600) (xy 2.690865 -2.652989) (xy 2.723200 -2.680729) (xy 2.726267 -2.683934) (xy 2.759081 -2.712787) (xy 2.785535 -2.726155) (xy 2.787186 -2.726267) (xy 2.813001 -2.736446)
     (xy 2.850058 -2.761618) (xy 2.858646 -2.768600) (xy 2.894861 -2.795906) (xy 2.921273 -2.810283) (xy 2.924817 -2.810934) (xy 2.943498 -2.824286) (xy 2.963334 -2.853267) (xy 2.977333 -2.891407)
     (xy 2.968990 -2.926759) (xy 2.963228 -2.938131) (xy 2.949706 -2.971234) (xy 2.958076 -2.992650) (xy 2.973067 -3.005387) (xy 3.005851 -3.022050) (xy 3.025432 -3.023193) (xy 3.048001 -3.029752)
     (xy 3.054030 -3.039289) (xy 3.075822 -3.054749) (xy 3.098016 -3.053112) (xy 3.123150 -3.051266) (xy 3.123543 -3.068921) (xy 3.122640 -3.071360) (xy 3.124937 -3.092897) (xy 3.149153 -3.098949)
     (xy 3.187370 -3.090045) (xy 3.231667 -3.066716) (xy 3.235886 -3.063781) (xy 3.275580 -3.021512) (xy 3.285067 -2.986626) (xy 3.270710 -2.943777) (xy 3.234012 -2.898728) (xy 3.184533 -2.860651)
     (xy 3.131834 -2.838714) (xy 3.130598 -2.838460) (xy 3.087805 -2.822637) (xy 3.034983 -2.793634) (xy 3.009696 -2.776652) (xy 2.926901 -2.717465) (xy 2.860915 -2.672565) (xy 2.801749 -2.635532)
     (xy 2.739414 -2.599944) (xy 2.709334 -2.583587) (xy 2.632691 -2.538017) (xy 2.572403 -2.493653) (xy 2.532072 -2.453982) (xy 2.515302 -2.422488) (xy 2.523558 -2.403872) (xy 2.537116 -2.390719)
     (xy 2.527301 -2.387860) (xy 2.506045 -2.379517) (xy 2.509288 -2.359964) (xy 2.532935 -2.336136) (xy 2.569634 -2.316219) (xy 2.633134 -2.291043) (xy 2.574649 -2.274948) (xy 2.534290 -2.257535)
     (xy 2.503102 -2.225481) (xy 2.474826 -2.175962) (xy 2.448817 -2.113057) (xy 2.430014 -2.048099) (xy 2.425456 -2.021803) (xy 2.422759 -1.975001) (xy 2.432141 -1.948109) (xy 2.459122 -1.927814)
     (xy 2.466012 -1.923977) (xy 2.497522 -1.905438) (xy 2.501232 -1.895568) (xy 2.479347 -1.887324) (xy 2.477633 -1.886831) (xy 2.445089 -1.863260) (xy 2.413210 -1.817770) (xy 2.388482 -1.761807)
     (xy 2.377578 -1.710267) (xy 2.371539 -1.659126) (xy 2.360042 -1.588426) (xy 2.345585 -1.511526) (xy 2.330666 -1.441787) (xy 2.318789 -1.395798) (xy 2.307336 -1.347836) (xy 2.302934 -1.310285)
     (xy 2.295012 -1.273984) (xy 2.286073 -1.259913) (xy 2.269891 -1.227206) (xy 2.262870 -1.180658) (xy 2.265985 -1.136312) (xy 2.277113 -1.112535) (xy 2.285489 -1.094091) (xy 2.271461 -1.068307)
     (xy 2.249640 -1.044768) (xy 2.211555 -0.991788) (xy 2.201334 -0.938498) (xy 2.198049 -0.899831) (xy 2.189996 -0.880912) (xy 2.188534 -0.880534) (xy 2.174225 -0.866524) (xy 2.155791 -0.832137)
     (xy 2.152950 -0.825501) (xy 2.113680 -0.735371) (xy 2.076908 -0.659743) (xy 2.045649 -0.604424) (xy 2.023145 -0.575411) (xy 2.006420 -0.545465) (xy 1.998289 -0.499237) (xy 1.998134 -0.492112)
     (xy 1.994352 -0.450521) (xy 1.977395 -0.422775) (xy 1.938846 -0.396299) (xy 1.931006 -0.391842) (xy 1.869682 -0.366716) (xy 1.779449 -0.342850) (xy 1.665267 -0.321269) (xy 1.532092 -0.302999)
     (xy 1.468967 -0.296293) (xy 1.399914 -0.286287) (xy 1.362536 -0.271914) (xy 1.354763 -0.251660) (xy 1.372618 -0.225890) (xy 1.377430 -0.203297) (xy 1.364837 -0.159520) (xy 1.338751 -0.100969)
     (xy 1.312646 -0.042929) (xy 1.294029 0.006382) (xy 1.286934 0.036271) (xy 1.274519 0.067599) (xy 1.235120 0.091397) (xy 1.165500 0.109553) (xy 1.159622 0.110624) (xy 1.100091 0.127142)
     (xy 1.044594 0.151436) (xy 1.039765 0.154236) (xy 1.002578 0.172184) (xy 0.978258 0.175868) (xy 0.976089 0.174576) (xy 0.971317 0.181291) (xy 0.973796 0.212156) (xy 0.975341 0.221368)
     (xy 0.997258 0.285268) (xy 1.036201 0.323936) (xy 1.093481 0.337481) (xy 1.170411 0.326011) (xy 1.268300 0.289634) (xy 1.345336 0.251870) (xy 1.391904 0.228342) (xy 1.649408 0.228342)
     (xy 1.651001 0.237066) (xy 1.672649 0.253354) (xy 1.677400 0.254000) (xy 1.692878 0.241084) (xy 1.693334 0.237066) (xy 1.679551 0.222205) (xy 1.666934 0.220133) (xy 1.649408 0.228342)
     (xy 1.391904 0.228342) (xy 1.421851 0.213212) (xy 1.496205 0.178444) (xy 1.558098 0.152247) (xy 1.587403 0.141841) (xy 1.670231 0.128310) (xy 1.741156 0.138947) (xy 1.794189 0.172239)
     (xy 1.813138 0.198829) (xy 1.832944 0.234375) (xy 1.846602 0.254000) (xy 1.871384 0.283567) (xy 1.906099 0.334290) (xy 1.946758 0.399213) (xy 1.989373 0.471378) (xy 2.029953 0.543831)
     (xy 2.064510 0.609613) (xy 2.089055 0.661769) (xy 2.099599 0.693343) (xy 2.099734 0.695440) (xy 2.106349 0.716994) (xy 2.123709 0.759953) (xy 2.148086 0.815107) (xy 2.148621 0.816273)
     (xy 2.179000 0.883018) (xy 2.208428 0.948498) (xy 2.227051 0.990600) (xy 2.249826 1.038430) (xy 2.270644 1.075210) (xy 2.275531 1.082092) (xy 2.288679 1.114436) (xy 2.295468 1.161601)
     (xy 2.295631 1.166759) (xy 2.305179 1.218949) (xy 2.328939 1.287827) (xy 2.361886 1.362209) (xy 2.398994 1.430911) (xy 2.435238 1.482749) (xy 2.440022 1.488093) (xy 2.464702 1.521999)
     (xy 2.464089 1.549062) (xy 2.459847 1.556932) (xy 2.451835 1.597777) (xy 2.457985 1.614005) (xy 2.464127 1.637728) (xy 2.449882 1.640363) (xy 2.424854 1.622213) (xy 2.407612 1.610128)
     (xy 2.406938 1.622030) (xy 2.422063 1.652811) (xy 2.431786 1.668383) (xy 2.455409 1.695181) (xy 2.473623 1.700962) (xy 2.486974 1.708566) (xy 2.498399 1.739207) (xy 2.511784 1.785898)
     (xy 2.532042 1.841772) (xy 2.536995 1.853855) (xy 2.553565 1.898080) (xy 2.561313 1.928802) (xy 2.561167 1.934288) (xy 2.569506 1.946859) (xy 2.573867 1.947333) (xy 2.587513 1.961551)
     (xy 2.590801 1.982040) (xy 2.598457 2.020720) (xy 2.617040 2.067438) (xy 2.618561 2.070431) (xy 2.633175 2.103020) (xy 2.647964 2.146351) (xy 2.664488 2.206063) (xy 2.684312 2.287799)
     (xy 2.708747 2.396066) (xy 2.724215 2.460401) (xy 2.741812 2.526229) (xy 2.743335 2.531533) (xy 2.758741 2.593215) (xy 2.772571 2.662070) (xy 2.775267 2.678328) (xy 2.787653 2.732259)
     (xy 2.804387 2.775214) (xy 2.811306 2.785982) (xy 2.830965 2.818878) (xy 2.853199 2.868942) (xy 2.862178 2.893187) (xy 2.890973 2.952040) (xy 2.926935 2.990561) (xy 2.964409 3.004387)
     (xy 2.992688 2.993918) (xy 3.006785 2.963913) (xy 3.005173 2.939775) (xy 2.999437 2.915134) (xy 3.006591 2.918484) (xy 3.021724 2.936936) (xy 3.044353 2.972809) (xy 3.043138 3.004863)
     (xy 3.030471 3.032179) (xy 3.003638 3.054571) (xy 2.963001 3.065090) (xy 2.923907 3.061816) (xy 2.904067 3.047999) (xy 2.876249 3.029913) (xy 2.838329 3.034396) (xy 2.802166 3.058239)
     (xy 2.786595 3.079814) (xy 2.750364 3.123891) (xy 2.704564 3.145923) (xy 2.657637 3.146719) (xy 2.618027 3.127086) (xy 2.594177 3.087830) (xy 2.590801 3.061099) (xy 2.593087 3.037049)
     (xy 2.605702 3.040000) (xy 2.621767 3.053842) (xy 2.658924 3.078571) (xy 2.690155 3.073461) (xy 2.715176 3.050899) (xy 2.732703 3.012269) (xy 2.741938 2.950673) (xy 2.742565 2.876059)
     (xy 2.734267 2.798374) (xy 2.724659 2.753631) (xy 2.699796 2.663462) (xy 2.675393 2.580780) (xy 2.653416 2.511733) (xy 2.635831 2.462467) (xy 2.624605 2.439132) (xy 2.623826 2.438399)
     (xy 2.615722 2.418145) (xy 2.607243 2.374981) (xy 2.602345 2.337209) (xy 2.591470 2.276912) (xy 2.575056 2.235435) (xy 2.566271 2.225276) (xy 2.547465 2.194567) (xy 2.540001 2.146079)
     (xy 2.540001 2.145818) (xy 2.534222 2.077483) (xy 2.516663 2.040160) (xy 2.495855 2.031999) (xy 2.477384 2.017375) (xy 2.472267 1.990769) (xy 2.463937 1.933809) (xy 2.443001 1.878106)
     (xy 2.415541 1.839634) (xy 2.414351 1.838646) (xy 2.397397 1.813305) (xy 2.376903 1.766562) (xy 2.361730 1.722428) (xy 2.339848 1.657270) (xy 2.323107 1.624015) (xy 2.310131 1.621334)
     (xy 2.299545 1.647896) (xy 2.296952 1.659741) (xy 2.284245 1.695238) (xy 2.267731 1.710263) (xy 2.267516 1.710266) (xy 2.255421 1.696876) (xy 2.257040 1.676399) (xy 2.258248 1.648134)
     (xy 2.243638 1.646065) (xy 2.218404 1.669829) (xy 2.211150 1.679611) (xy 2.187507 1.706378) (xy 2.176277 1.705948) (xy 2.178822 1.683138) (xy 2.196502 1.642763) (xy 2.199304 1.637681)
     (xy 2.217891 1.597847) (xy 2.223489 1.571048) (xy 2.221912 1.567155) (xy 2.215784 1.545507) (xy 2.211299 1.500927) (xy 2.209755 1.459142) (xy 2.205007 1.392941) (xy 2.194268 1.330631)
     (xy 2.186268 1.303308) (xy 2.167774 1.254063) (xy 2.152675 1.213252) (xy 2.151759 1.210733) (xy 2.137317 1.175372) (xy 2.114939 1.124927) (xy 2.103723 1.100666) (xy 2.080433 1.050785)
     (xy 2.048390 0.981856) (xy 2.013032 0.905581) (xy 1.997528 0.872066) (xy 1.960132 0.791419) (xy 1.921338 0.708167) (xy 1.887718 0.636397) (xy 1.877939 0.615645) (xy 1.852929 0.559340)
     (xy 1.835232 0.513085) (xy 1.828801 0.487648) (xy 1.819187 0.454786) (xy 1.807634 0.435494) (xy 1.793924 0.421595) (xy 1.775165 0.417502) (xy 1.743072 0.423914) (xy 1.689358 0.441531)
     (xy 1.674537 0.446727) (xy 1.605439 0.471376) (xy 1.562718 0.489728) (xy 1.540977 0.507208) (xy 1.534820 0.529242) (xy 1.538851 0.561259) (xy 1.542403 0.579602) (xy 1.548731 0.629270)
     (xy 1.553749 0.700529) (xy 1.556692 0.781108) (xy 1.557130 0.815665) (xy 1.560627 0.905963) (xy 1.569315 0.996145) (xy 1.581637 1.071107) (xy 1.584848 1.084713) (xy 1.599403 1.154348)
     (xy 1.612819 1.240544) (xy 1.622455 1.326029) (xy 1.623266 1.335848) (xy 1.631270 1.413735) (xy 1.640830 1.460120) (xy 1.652479 1.477354) (xy 1.655552 1.477433) (xy 1.674427 1.482141)
     (xy 1.670756 1.504344) (xy 1.645876 1.537522) (xy 1.642534 1.540933) (xy 1.617117 1.578438) (xy 1.608667 1.610255) (xy 1.611223 1.630397) (xy 1.624396 1.638884) (xy 1.656447 1.637713)
     (xy 1.697567 1.631741) (xy 1.793353 1.620184) (xy 1.865684 1.620780) (xy 1.923039 1.634410) (xy 1.971370 1.660229) (xy 2.032827 1.701799) (xy 2.039107 1.879562) (xy 2.039467 1.980042)
     (xy 2.034955 2.092820) (xy 2.026486 2.198228) (xy 2.022849 2.229029) (xy 2.014181 2.305257) (xy 2.009031 2.371926) (xy 2.007977 2.419948) (xy 2.009688 2.436591) (xy 2.009476 2.475297)
     (xy 2.000486 2.494832) (xy 1.987618 2.525190) (xy 1.974783 2.580065) (xy 1.963310 2.650133) (xy 1.954526 2.726070) (xy 1.949760 2.798552) (xy 1.949848 2.850226) (xy 1.948157 2.907659)
     (xy 1.937192 2.940967) (xy 1.933018 2.944782) (xy 1.917375 2.970406) (xy 1.903458 3.022104) (xy 1.892277 3.092089) (xy 1.884843 3.172576) (xy 1.882167 3.255778) (xy 1.884232 3.320594)
     (xy 1.887971 3.386819) (xy 1.886613 3.429447) (xy 1.877902 3.458630) (xy 1.859581 3.484519) (xy 1.843956 3.501709) (xy 1.805792 3.552538) (xy 1.795971 3.591856) (xy 1.811867 3.615266)
     (xy 1.824107 3.638177) (xy 1.828801 3.675123) (xy 1.837789 3.723318) (xy 1.859719 3.775046) (xy 1.862604 3.779957) (xy 1.885229 3.827181) (xy 1.896262 3.870057) (xy 1.896471 3.874682)
     (xy 1.905867 3.910699) (xy 1.929822 3.959705) (xy 1.948550 3.989567) (xy 1.976352 4.035334) (xy 1.992008 4.071854) (xy 1.993257 4.085751) (xy 1.996864 4.110912) (xy 2.013835 4.154243)
     (xy 2.032290 4.191000) (xy 2.061161 4.250201) (xy 2.083825 4.308091) (xy 2.091336 4.334377) (xy 2.103538 4.381854) (xy 2.115928 4.417466) (xy 2.116670 4.419044) (xy 2.129740 4.446399)
     (xy 2.152583 4.494649) (xy 2.180582 4.554036) (xy 2.184555 4.562481) (xy 2.215728 4.624457) (xy 2.246199 4.677906) (xy 2.269806 4.712088) (xy 2.271445 4.713919) (xy 2.298278 4.750140)
     (xy 2.328252 4.800962) (xy 2.338607 4.821265) (xy 2.370739 4.873627) (xy 2.417577 4.923215) (xy 2.486456 4.977499) (xy 2.504723 4.990415) (xy 2.502743 5.004194) (xy 2.501018 5.006093)
     (xy 2.480162 5.005382) (xy 2.444222 4.986140) (xy 2.401961 4.953884) (xy 2.371333 4.924414) (xy 2.338039 4.901718) (xy 2.313141 4.909613) (xy 2.300207 4.945166) (xy 2.300011 4.983021)
     (xy 2.295197 5.033128) (xy 2.278242 5.071533) (xy 2.263378 5.088380) (xy 2.257103 5.085277) (xy 2.258016 5.057294) (xy 2.262623 5.016612) (xy 2.265956 4.958719) (xy 2.261249 4.917261)
     (xy 2.256348 4.906545) (xy 2.243862 4.882057) (xy 2.224119 4.833458) (xy 2.200300 4.768855) (xy 2.185168 4.725167) (xy 2.157988 4.647745) (xy 2.130537 4.574518) (xy 2.107112 4.516758)
     (xy 2.098454 4.497619) (xy 2.078492 4.452738) (xy 2.066981 4.419955) (xy 2.065867 4.413277) (xy 2.055418 4.389373) (xy 2.033918 4.361424) (xy 2.011632 4.325885) (xy 1.988113 4.271435)
     (xy 1.974379 4.229788) (xy 1.954698 4.174737) (xy 1.932472 4.132817) (xy 1.917428 4.116728) (xy 1.895566 4.089024) (xy 1.876648 4.036496) (xy 1.870724 4.010206) (xy 1.857887 3.956222)
     (xy 1.843408 3.928651) (xy 1.823145 3.920135) (xy 1.819948 3.920043) (xy 1.792341 3.909296) (xy 1.785692 3.894643) (xy 1.782447 3.863459) (xy 1.775186 3.813848) (xy 1.771046 3.788833)
     (xy 1.759333 3.738211) (xy 1.744079 3.713935) (xy 1.724394 3.708400) (xy 1.708674 3.706125) (xy 1.699859 3.694891) (xy 1.696980 3.668085) (xy 1.699064 3.619093) (xy 1.703246 3.564466)
     (xy 1.707959 3.486791) (xy 1.704706 3.439908) (xy 1.690277 3.421075) (xy 1.661464 3.427553) (xy 1.615055 3.456601) (xy 1.594274 3.471439) (xy 1.548854 3.501057) (xy 1.527586 3.508117)
     (xy 1.531097 3.494425) (xy 1.560016 3.461788) (xy 1.583267 3.439776) (xy 1.618366 3.404425) (xy 1.639623 3.376433) (xy 1.642534 3.368393) (xy 1.649109 3.343734) (xy 1.665817 3.300777)
     (xy 1.676973 3.275342) (xy 1.702598 3.208954) (xy 1.723778 3.137237) (xy 1.727755 3.119638) (xy 1.741720 3.050896) (xy 1.756803 2.976243) (xy 1.761104 2.954866) (xy 1.770583 2.898803)
     (xy 1.781167 2.822453) (xy 1.791044 2.739269) (xy 1.794168 2.709333) (xy 1.812961 2.530082) (xy 1.831091 2.374955) (xy 1.848270 2.245973) (xy 1.864214 2.145158) (xy 1.878635 2.074533)
     (xy 1.888741 2.041466) (xy 1.909607 1.984681) (xy 1.911847 1.952405) (xy 1.893527 1.939681) (xy 1.852717 1.941553) (xy 1.849967 1.941954) (xy 1.794734 1.956719) (xy 1.733602 1.982212)
     (xy 1.715719 1.991689) (xy 1.660204 2.020962) (xy 1.628056 2.029972) (xy 1.614889 2.017866) (xy 1.616316 1.983790) (xy 1.618251 1.972733) (xy 1.621762 1.928544) (xy 1.610568 1.913466)
     (xy 1.610552 1.913466) (xy 1.599630 1.929740) (xy 1.592266 1.976180) (xy 1.589274 2.036233) (xy 1.586501 2.157462) (xy 1.583318 2.253832) (xy 1.579219 2.334351) (xy 1.573699 2.408026)
     (xy 1.566250 2.483864) (xy 1.561911 2.523066) (xy 1.549135 2.621877) (xy 1.533399 2.722758) (xy 1.516149 2.818118) (xy 1.498830 2.900365) (xy 1.482887 2.961907) (xy 1.473259 2.988733)
     (xy 1.459596 3.023586) (xy 1.441285 3.076874) (xy 1.428909 3.115733) (xy 1.388221 3.238014) (xy 1.342113 3.360070) (xy 1.293780 3.474505) (xy 1.246415 3.573922) (xy 1.203216 3.650924)
     (xy 1.187928 3.673639) (xy 1.097917 3.783407) (xy 0.990341 3.891617) (xy 0.875348 3.989009) (xy 0.763085 4.066324) (xy 0.747648 4.075312) (xy 0.700388 4.103503) (xy 0.634789 4.144463)
     (xy 0.560600 4.192040) (xy 0.506554 4.227458) (xy 0.434733 4.274259) (xy 0.382774 4.305084) (xy 0.342701 4.323240) (xy 0.306537 4.332038) (xy 0.266306 4.334786) (xy 0.247480 4.334933)
     (xy 0.147632 4.323905) (xy 0.064972 4.288066) (xy -0.008466 4.225074) (xy -0.050315 4.190000) (xy -0.110411 4.151212) (xy -0.173090 4.118406) (xy -0.231892 4.090313) (xy -0.279937 4.065297)
     (xy -0.307506 4.048441) (xy -0.308557 4.047579) (xy -0.335650 4.026272) (xy -0.376573 3.996087) (xy -0.389466 3.986861) (xy -0.504764 3.891489) (xy -0.613331 3.776625) (xy -0.705458 3.653324)
     (xy -0.751731 3.574272) (xy -0.808297 3.451586) (xy -0.866085 3.302892) (xy -0.922786 3.135862) (xy -0.976088 2.958168) (xy -1.023683 2.777484) (xy -1.063261 2.601483) (xy -1.091136 2.446866)
     (xy -1.106731 2.345001) (xy -1.118609 2.271294) (xy -1.128813 2.220532) (xy -1.139382 2.187499) (xy -1.152359 2.166980) (xy -1.169784 2.153760) (xy -1.193699 2.142626) (xy -1.213560 2.134093)
     (xy -1.270419 2.114390) (xy -1.329021 2.102754) (xy -1.382812 2.098999) (xy -1.425238 2.102937) (xy -1.449746 2.114383) (xy -1.449781 2.133148) (xy -1.443566 2.140655) (xy -1.430517 2.162248)
     (xy -1.430144 2.164644) (xy -1.424930 2.186875) (xy -1.413031 2.227016) (xy -1.410436 2.235199) (xy -1.394982 2.298989) (xy -1.378976 2.394940) (xy -1.362651 2.521357) (xy -1.346238 2.676544)
     (xy -1.337696 2.768599) (xy -1.322755 2.927302) (xy -1.308639 3.056352) (xy -1.294730 3.159936) (xy -1.280408 3.242237) (xy -1.265054 3.307440) (xy -1.251622 3.350073) (xy -1.233584 3.405432)
     (xy -1.221812 3.451267) (xy -1.219200 3.470215) (xy -1.207359 3.503367) (xy -1.184933 3.530962) (xy -1.162579 3.561192) (xy -1.167775 3.579082) (xy -1.192080 3.582164) (xy -1.224300 3.559162)
     (xy -1.254771 3.533434) (xy -1.274241 3.522155) (xy -1.274639 3.522133) (xy -1.280193 3.537748) (xy -1.285455 3.579334) (xy -1.289531 3.638999) (xy -1.290481 3.661833) (xy -1.294258 3.733134)
     (xy -1.300272 3.776322) (xy -1.309769 3.797136) (xy -1.320800 3.801533) (xy -1.335789 3.810126) (xy -1.345180 3.839810) (xy -1.350633 3.896447) (xy -1.351288 3.909175) (xy -1.355788 3.969700)
     (xy -1.363831 4.004331) (xy -1.378024 4.021029) (xy -1.389388 4.025450) (xy -1.411769 4.038620) (xy -1.423292 4.067752) (xy -1.425612 4.119535) (xy -1.423390 4.162657) (xy -1.430047 4.216228)
     (xy -1.448021 4.239868) (xy -1.465313 4.262742) (xy -1.474244 4.304262) (xy -1.476586 4.365624) (xy -1.478719 4.421945) (xy -1.484270 4.463347) (xy -1.490848 4.479308) (xy -1.501482 4.499972)
     (xy -1.512269 4.542398) (xy -1.516655 4.568161) (xy -1.527260 4.625899) (xy -1.545482 4.708304) (xy -1.569443 4.807533) (xy -1.597270 4.915742) (xy -1.618791 4.995333) (xy -1.634598 5.036904)
     (xy -1.648123 5.060123) (xy -1.655403 5.084430) (xy -1.643508 5.096330) (xy -1.630633 5.117687) (xy -1.642426 5.139161) (xy -1.668932 5.147733) (xy -1.688714 5.133634) (xy -1.693333 5.113866)
     (xy -1.706370 5.088194) (xy -1.734990 5.078903) (xy -1.763458 5.089493) (xy -1.769533 5.096933) (xy -1.791778 5.107841) (xy -1.833754 5.113599) (xy -1.845503 5.113866) (xy -1.898666 5.106854)
     (xy -1.936055 5.081081) (xy -1.946104 5.069249) (xy -1.970469 5.031113) (xy -1.981177 5.000176) (xy -1.981199 4.999232) (xy -1.973420 4.991262) (xy -1.950967 5.012415) (xy -1.946104 5.018449)
     (xy -1.898869 5.056010) (xy -1.862293 5.063066) (xy -1.833260 5.058384) (xy -1.805683 5.040525) (xy -1.772881 5.003772) (xy -1.738606 4.957233) (xy -1.700594 4.900876) (xy -1.670061 4.850661)
     (xy -1.653023 4.816552) (xy -1.652217 4.814164) (xy -1.635779 4.788376) (xy -1.619901 4.784947) (xy -1.602306 4.777614) (xy -1.596117 4.754663) (xy -1.596558 4.729832) (xy -1.606157 4.735467)
     (xy -1.610525 4.741546) (xy -1.620982 4.752540) (xy -1.618700 4.734469) (xy -1.616004 4.724400) (xy -1.602341 4.690618) (xy -1.590446 4.676739) (xy -1.582663 4.659222) (xy -1.584694 4.650585)
     (xy -1.584342 4.622771) (xy -1.573907 4.577897) (xy -1.568040 4.559903) (xy -1.554634 4.508197) (xy -1.551204 4.464242) (xy -1.552635 4.454706) (xy -1.552863 4.414261) (xy -1.540629 4.368067)
     (xy -1.526703 4.316627) (xy -1.519749 4.255958) (xy -1.519564 4.245418) (xy -1.511969 4.183536) (xy -1.492851 4.117904) (xy -1.486171 4.102162) (xy -1.468130 4.053409) (xy -1.461536 4.013741)
     (xy -1.463147 4.002760) (xy -1.461801 3.973489) (xy -1.447399 3.926237) (xy -1.429565 3.885056) (xy -1.407731 3.833735) (xy -1.396449 3.793333) (xy -1.397080 3.776003) (xy -1.399313 3.748406)
     (xy -1.388449 3.708201) (xy -1.388206 3.707610) (xy -1.377661 3.674151) (xy -1.382612 3.647281) (xy -1.406772 3.613738) (xy -1.418188 3.600542) (xy -1.446110 3.566512) (xy -1.459400 3.538297)
     (xy -1.460852 3.503132) (xy -1.453260 3.448247) (xy -1.452517 3.443677) (xy -1.446516 3.383688) (xy -1.444591 3.310297) (xy -1.446299 3.232483) (xy -1.451195 3.159222) (xy -1.458833 3.099494)
     (xy -1.468767 3.062274) (xy -1.471672 3.057391) (xy -1.479311 3.033185) (xy -1.487414 2.984258) (xy -1.494581 2.919704) (xy -1.496572 2.895599) (xy -1.506862 2.764684) (xy -1.515746 2.664705)
     (xy -1.523534 2.592774) (xy -1.530533 2.546004) (xy -1.536403 2.523066) (xy -1.545220 2.493857) (xy -1.551847 2.454008) (xy -1.556613 2.398610) (xy -1.559847 2.322755) (xy -1.561877 2.221533)
     (xy -1.562788 2.128763) (xy -1.564376 1.904999) (xy 1.981201 1.904999) (xy 1.989667 1.913466) (xy 1.998134 1.904999) (xy 1.989667 1.896533) (xy 1.981201 1.904999) (xy -1.564376 1.904999)
     (xy -1.564685 1.861459) (xy -1.515128 1.815496) (xy -1.487333 1.792427) (xy -1.458995 1.778687) (xy -1.420418 1.771896) (xy -1.361906 1.769675) (xy -1.327782 1.769533) (xy -1.189993 1.769533)
     (xy -1.189974 1.744133) (xy 1.608667 1.744133) (xy 1.614863 1.758071) (xy 1.619956 1.755422) (xy 1.621983 1.735326) (xy 1.619956 1.732844) (xy 1.609889 1.735168) (xy 1.608667 1.744133)
     (xy -1.189974 1.744133) (xy -1.189943 1.701799) (xy 1.608667 1.701799) (xy 1.617134 1.710266) (xy 1.625601 1.701799) (xy 1.617134 1.693333) (xy 1.608667 1.701799) (xy -1.189943 1.701799)
     (xy -1.189879 1.617133) (xy -1.189005 1.544455) (xy -1.186684 1.448667) (xy -1.186141 1.431631) (xy -0.584027 1.431631) (xy -0.583103 1.441107) (xy -0.560189 1.455407) (xy -0.533916 1.439333)
     (xy 0.203200 1.439333) (xy 0.209396 1.453271) (xy 0.214489 1.450622) (xy 0.216516 1.430526) (xy 0.214489 1.428044) (xy 0.204423 1.430368) (xy 0.203200 1.439333) (xy -0.533916 1.439333)
     (xy -0.530629 1.437322) (xy -0.524933 1.430866) (xy -0.515494 1.410107) (xy -0.533506 1.406199) (xy -0.565784 1.415707) (xy -0.584027 1.431631) (xy -1.186141 1.431631) (xy -1.183910 1.361722)
     (xy 0.204537 1.361722) (xy 0.207651 1.383685) (xy 0.213431 1.383947) (xy 0.216010 1.369483) (xy 0.907242 1.369483) (xy 0.914338 1.380463) (xy 0.940109 1.384299) (xy 0.971795 1.379189)
     (xy 0.982134 1.369483) (xy 0.967977 1.357319) (xy 0.949267 1.354666) (xy 0.917547 1.361423) (xy 0.907242 1.369483) (xy 0.216010 1.369483) (xy 0.217473 1.361283) (xy 0.214768 1.351491)
     (xy 0.207249 1.345077) (xy 0.204537 1.361722) (xy -1.183910 1.361722) (xy -1.183232 1.340479) (xy -1.182455 1.320440) (xy 0.915028 1.320440) (xy 0.919692 1.321710) (xy 0.927360 1.312333)
     (xy 0.999067 1.312333) (xy 1.007534 1.320800) (xy 1.016001 1.312333) (xy 1.007534 1.303866) (xy 0.999067 1.312333) (xy 0.927360 1.312333) (xy 0.951659 1.290640) (xy 0.972027 1.277655)
     (xy 1.003833 1.247693) (xy 1.018298 1.221947) (xy 1.022704 1.193098) (xy 1.010257 1.185970) (xy 0.987540 1.197839) (xy 0.961135 1.225977) (xy 0.944742 1.252413) (xy 0.923818 1.295823)
     (xy 0.915028 1.320440) (xy -1.182455 1.320440) (xy -1.178968 1.230600) (xy -1.177251 1.191737) (xy -1.175415 1.143000) (xy -0.745066 1.143000) (xy -0.736599 1.151466) (xy -0.728133 1.143000)
     (xy -0.660399 1.143000) (xy -0.651933 1.151466) (xy -0.643466 1.143000) (xy -0.651933 1.134533) (xy -0.660399 1.143000) (xy -0.728133 1.143000) (xy -0.736599 1.134533) (xy -0.745066 1.143000)
     (xy -1.175415 1.143000) (xy -1.174458 1.117600) (xy -0.694266 1.117600) (xy -0.688071 1.131538) (xy -0.682977 1.128888) (xy -0.680951 1.108792) (xy -0.682977 1.106311) (xy -0.693044 1.108635)
     (xy -0.694266 1.117600) (xy -1.174458 1.117600) (xy -1.173712 1.097807) (xy -0.640502 1.097807) (xy -0.628678 1.100666) (xy -0.613025 1.113936) (xy -0.612600 1.129140) (xy -0.606816 1.154291)
     (xy -0.587805 1.188390) (xy -0.563060 1.221256) (xy -0.540079 1.242710) (xy -0.527659 1.244503) (xy -0.530405 1.227250) (xy -0.536056 1.218852) (xy 0.195738 1.218852) (xy 0.197816 1.251816)
     (xy 0.205252 1.279592) (xy 0.212510 1.286933) (xy 0.214417 1.278466) (xy 0.880534 1.278466) (xy 0.889000 1.286933) (xy 0.897467 1.278466) (xy 0.889000 1.270000) (xy 0.880534 1.278466)
     (xy 0.214417 1.278466) (xy 0.215833 1.272182) (xy 0.216435 1.236573) (xy 0.216402 1.235345) (xy 0.211662 1.203847) (xy 0.202107 1.196711) (xy 0.201156 1.197538) (xy 0.195738 1.218852)
     (xy -0.536056 1.218852) (xy -0.540038 1.212936) (xy -0.549828 1.188700) (xy -0.532699 1.161671) (xy -0.529751 1.158665) (xy -0.509902 1.137040) (xy -0.514467 1.134533) (xy 0.186267 1.134533)
     (xy 0.192463 1.148471) (xy 0.197556 1.145822) (xy 0.198694 1.134533) (xy 1.024467 1.134533) (xy 1.028116 1.149184) (xy 1.039402 1.151466) (xy 1.068658 1.141531) (xy 1.075267 1.134533)
     (xy 1.071618 1.119882) (xy 1.060333 1.117600) (xy 1.031076 1.127535) (xy 1.024467 1.134533) (xy 0.198694 1.134533) (xy 0.199583 1.125726) (xy 0.197556 1.123244) (xy 0.187489 1.125568)
     (xy 0.186267 1.134533) (xy -0.514467 1.134533) (xy -0.516595 1.133365) (xy -0.537616 1.138348) (xy -0.570560 1.140817) (xy -0.584390 1.134225) (xy -0.578350 1.119772) (xy -0.563240 1.113907)
     (xy -0.545948 1.107141) (xy -0.556273 1.095581) (xy -0.573317 1.085657) (xy -0.610350 1.072864) (xy -0.631737 1.082164) (xy -0.640502 1.097807) (xy -1.173712 1.097807) (xy -1.173664 1.096555)
     (xy -1.172759 1.052922) (xy 1.034492 1.052922) (xy 1.046623 1.064678) (xy 1.049867 1.066800) (xy 1.075348 1.081585) (xy 1.083202 1.077188) (xy 1.083734 1.066800) (xy 1.069772 1.052567)
     (xy 1.054101 1.050125) (xy 1.034492 1.052922) (xy -1.172759 1.052922) (xy -1.171893 1.011239) (xy -1.171911 0.993811) (xy -0.630256 0.993811) (xy -0.629531 1.013705) (xy -0.622874 1.022539)
     (xy -0.596379 1.039876) (xy -0.570221 1.043635) (xy -0.558799 1.032184) (xy -0.564938 1.021644) (xy 1.089378 1.021644) (xy 1.091703 1.031711) (xy 1.100667 1.032933) (xy 1.114605 1.026737)
     (xy 1.111956 1.021644) (xy 1.091860 1.019617) (xy 1.089378 1.021644) (xy -0.564938 1.021644) (xy -0.570245 1.012534) (xy -0.583458 0.999682) (xy -0.611444 0.987133) (xy -0.630256 0.993811)
     (xy -1.171911 0.993811) (xy -1.171935 0.970844) (xy -0.773288 0.970844) (xy -0.770964 0.980911) (xy -0.761999 0.982133) (xy -0.748061 0.975937) (xy -0.748250 0.975573) (xy 1.157288 0.975573)
     (xy 1.159934 0.982133) (xy 1.175150 0.998287) (xy 1.177867 0.999066) (xy 1.185140 0.985965) (xy 1.185334 0.982133) (xy 1.172316 0.965850) (xy 1.167401 0.965200) (xy 1.157288 0.975573)
     (xy -0.748250 0.975573) (xy -0.750711 0.970844) (xy -0.770807 0.968817) (xy -0.773288 0.970844) (xy -1.171935 0.970844) (xy -1.171966 0.942438) (xy -1.172078 0.939800) (xy 1.286934 0.939800)
     (xy 1.295401 0.948266) (xy 1.303867 0.939800) (xy 1.295401 0.931333) (xy 1.286934 0.939800) (xy -1.172078 0.939800) (xy -1.172799 0.922866) (xy -0.660399 0.922866) (xy -0.651933 0.931333)
     (xy -0.643466 0.922866) (xy 1.219201 0.922866) (xy 1.227667 0.931333) (xy 1.236134 0.922866) (xy 1.227667 0.914400) (xy 1.219201 0.922866) (xy -0.643466 0.922866) (xy -0.651933 0.914400)
     (xy -0.660399 0.922866) (xy -1.172799 0.922866) (xy -1.173910 0.896802) (xy -1.175990 0.883292) (xy -1.186393 0.864101) (xy -1.206070 0.850795) (xy -0.632804 0.850795) (xy -0.628473 0.876999)
     (xy -0.623694 0.888469) (xy -0.605409 0.916102) (xy -0.590537 0.921550) (xy -0.587231 0.902603) (xy -0.597086 0.879748) (xy -0.620495 0.851106) (xy -0.632804 0.850795) (xy -1.206070 0.850795)
     (xy -1.207076 0.850115) (xy -1.219557 0.846666) (xy 1.320801 0.846666) (xy 1.333686 0.863107) (xy 1.337734 0.863600) (xy 1.354175 0.850714) (xy 1.354667 0.846666) (xy 1.341781 0.830225)
     (xy 1.337734 0.829733) (xy 1.321293 0.842619) (xy 1.320801 0.846666) (xy -1.219557 0.846666) (xy -1.243402 0.840077) (xy -1.300737 0.832726) (xy -1.384444 0.826804) (xy -1.426169 0.824571)
     (xy -1.556938 0.817945) (xy -1.576453 0.878872) (xy -1.590722 0.915879) (xy -1.616623 0.976016) (xy -1.650905 1.051992) (xy -1.690318 1.136517) (xy -1.705504 1.168400) (xy -1.762891 1.288289)
     (xy -1.807621 1.382269) (xy -1.841716 1.454949) (xy -1.867201 1.510937) (xy -1.886098 1.554843) (xy -1.900432 1.591276) (xy -1.912224 1.624846) (xy -1.923499 1.660163) (xy -1.928498 1.676399)
     (xy -1.951736 1.776880) (xy -1.957974 1.866644) (xy -1.947289 1.939130) (xy -1.924954 1.982263) (xy -1.906255 2.011709) (xy -1.905638 2.029376) (xy -1.922056 2.025459) (xy -1.942783 2.002366)
     (xy -1.970926 1.970533) (xy -1.990414 1.968648) (xy -1.998114 1.996895) (xy -1.998133 1.999132) (xy -2.004651 2.022546) (xy -2.015066 2.023533) (xy -2.029291 1.999649) (xy -2.031999 1.980200)
     (xy -2.039115 1.953229) (xy -2.048538 1.947333) (xy -2.064690 1.961345) (xy -2.086996 1.995998) (xy -2.109729 2.040220) (xy -2.127162 2.082938) (xy -2.133599 2.111799) (xy -2.147693 2.134125)
     (xy -2.175080 2.150209) (xy -2.213549 2.182009) (xy -2.234342 2.230223) (xy -2.252813 2.287241) (xy -2.272369 2.320203) (xy -2.299167 2.338537) (xy -2.307166 2.341737) (xy -2.330718 2.365495)
     (xy -2.337031 2.391301) (xy -2.345119 2.457665) (xy -2.367180 2.499406) (xy -2.386597 2.510777) (xy -2.410689 2.533033) (xy -2.428740 2.580363) (xy -2.437846 2.644117) (xy -2.438400 2.665043)
     (xy -2.451761 2.703129) (xy -2.469218 2.720433) (xy -2.490973 2.748743) (xy -2.509657 2.806058) (xy -2.521333 2.864206) (xy -2.534075 2.936838) (xy -2.546803 3.006354) (xy -2.556515 3.056466)
     (xy -2.561513 3.118132) (xy -2.557233 3.199054) (xy -2.550821 3.248558) (xy -2.537790 3.318263) (xy -2.522664 3.364267) (xy -2.501279 3.396672) (xy -2.482170 3.415125) (xy -2.429457 3.446785)
     (xy -2.393268 3.449720) (xy -2.366552 3.447452) (xy -2.367712 3.458902) (xy -2.372591 3.465186) (xy -2.410507 3.486634) (xy -2.462127 3.483597) (xy -2.519289 3.457447) (xy -2.547877 3.435712)
     (xy -2.583727 3.398362) (xy -2.605103 3.364748) (xy -2.607733 3.353868) (xy -2.612936 3.323089) (xy -2.617855 3.314455) (xy -2.641283 3.310111) (xy -2.666278 3.324404) (xy -2.675466 3.344071)
     (xy -2.685749 3.369443) (xy -2.708335 3.392114) (xy -2.730828 3.401144) (xy -2.737073 3.398438) (xy -2.734506 3.379998) (xy -2.715098 3.347950) (xy -2.711263 3.342941) (xy -2.681906 3.281719)
     (xy -2.675466 3.233085) (xy -2.670945 3.177257) (xy -2.659943 3.128065) (xy -2.658784 3.124860) (xy -2.642936 3.076595) (xy -2.634469 3.043324) (xy -2.598625 2.882730) (xy -2.560204 2.740270)
     (xy -2.520868 2.621690) (xy -2.492590 2.553629) (xy -2.471224 2.504304) (xy -2.457746 2.466017) (xy -2.455333 2.453627) (xy -2.445732 2.428078) (xy -2.421812 2.389632) (xy -2.412999 2.377628)
     (xy -2.386075 2.336369) (xy -2.371511 2.302450) (xy -2.370666 2.296192) (xy -2.357169 2.268613) (xy -2.335349 2.251357) (xy -2.311992 2.233447) (xy -2.310009 2.222479) (xy -2.309221 2.202781)
     (xy -2.294843 2.174132) (xy -2.239351 2.082974) (xy -2.200753 2.005626) (xy -2.189588 1.972733) (xy -2.150533 1.972733) (xy -2.142066 1.981199) (xy -2.133599 1.972733) (xy -2.142066 1.964266)
     (xy -2.150533 1.972733) (xy -2.189588 1.972733) (xy -2.180352 1.945525) (xy -2.179456 1.906103) (xy -2.188405 1.894057) (xy -2.196398 1.877247) (xy -2.177957 1.848608) (xy -2.172079 1.842176)
     (xy -2.143240 1.804007) (xy -2.109908 1.749136) (xy -2.077234 1.687572) (xy -2.050366 1.629327) (xy -2.034453 1.584413) (xy -2.032214 1.570244) (xy -2.038883 1.549757) (xy -2.065163 1.547731)
     (xy -2.078566 1.550241) (xy -2.125133 1.560195) (xy -2.078963 1.529950) (xy -2.042707 1.494697) (xy -2.003370 1.439221) (xy -1.967306 1.374875) (xy -1.940866 1.313013) (xy -1.930402 1.264989)
     (xy -1.930399 1.264395) (xy -1.923988 1.227506) (xy -1.912312 1.210019) (xy -1.901355 1.186937) (xy -1.903651 1.174274) (xy -1.904191 1.158018) (xy -1.897327 1.159442) (xy -1.884336 1.148983)
     (xy -1.860516 1.113331) (xy -1.829228 1.058046) (xy -1.793833 0.988683) (xy -1.792894 0.986755) (xy -1.750119 0.903506) (xy -1.703823 0.821097) (xy -1.682471 0.786400) (xy -1.015999 0.786400)
     (xy -1.007159 0.809569) (xy -0.999066 0.812800) (xy -0.982618 0.800646) (xy -0.982133 0.796866) (xy -0.986220 0.789250) (xy 1.329322 0.789250) (xy 1.330916 0.798534) (xy 1.351135 0.810445)
     (xy 1.372390 0.796104) (xy 1.385781 0.761635) (xy 1.385923 0.760673) (xy 1.397440 0.719727) (xy 1.409163 0.698500) (xy 1.416264 0.680833) (xy 1.400237 0.679722) (xy 1.373366 0.692816)
     (xy 1.358146 0.719273) (xy 1.360381 0.735532) (xy 1.358053 0.764047) (xy 1.346012 0.772882) (xy 1.329322 0.789250) (xy -0.986220 0.789250) (xy -0.994442 0.773932) (xy -0.999066 0.770466)
     (xy -1.013563 0.774305) (xy -1.015999 0.786400) (xy -1.682471 0.786400) (xy -1.660322 0.750409) (xy -1.633000 0.711200) (xy -1.620480 0.694266) (xy -1.083733 0.694266) (xy -1.070090 0.709454)
     (xy -1.059332 0.711200) (xy -1.030502 0.700879) (xy -1.024466 0.694266) (xy -1.029651 0.680938) (xy -1.048867 0.677333) (xy -1.076921 0.684242) (xy -1.083733 0.694266) (xy -1.620480 0.694266)
     (xy -1.593743 0.658103) (xy -1.560989 0.610679) (xy -1.553431 0.598311) (xy 1.394178 0.598311) (xy 1.396503 0.608377) (xy 1.405467 0.609600) (xy 1.419405 0.603404) (xy 1.416756 0.598311)
     (xy 1.396660 0.596284) (xy 1.394178 0.598311) (xy -1.553431 0.598311) (xy -1.542849 0.580997) (xy -1.508942 0.550403) (xy -1.447777 0.532915) (xy -1.363590 0.529185) (xy -1.268258 0.538650)
     (xy -1.199912 0.546865) (xy -1.158109 0.543636) (xy -1.136635 0.526122) (xy -1.129278 0.491482) (xy -1.128888 0.474935) (xy -1.124457 0.439293) (xy -1.104402 0.421480) (xy -1.070546 0.412863)
     (xy -1.026831 0.408825) (xy -0.961232 0.407605) (xy -0.885625 0.409331) (xy -0.859690 0.410614) (xy -0.784976 0.414005) (xy -0.736035 0.413220) (xy -0.704925 0.407262) (xy -0.683702 0.395132)
     (xy -0.675322 0.387455) (xy -0.650645 0.347549) (xy -0.650349 0.346179) (xy 0.595670 0.346179) (xy 0.599910 0.364492) (xy 0.617553 0.361920) (xy 0.638293 0.345255) (xy 0.639526 0.335310)
     (xy 0.623171 0.319918) (xy 0.603298 0.329391) (xy 0.595670 0.346179) (xy -0.650349 0.346179) (xy -0.643466 0.314369) (xy -0.637210 0.265661) (xy -0.626952 0.229702) (xy -0.618457 0.198153)
     (xy -0.628971 0.187060) (xy -0.640118 0.186266) (xy -0.677347 0.176856) (xy -0.680831 0.174977) (xy 0.716845 0.174977) (xy 0.719169 0.185044) (xy 0.728134 0.186266) (xy 0.742072 0.180071)
     (xy 0.739423 0.174977) (xy 0.719327 0.172951) (xy 0.716845 0.174977) (xy -0.680831 0.174977) (xy -0.703198 0.162915) (xy -0.737627 0.146904) (xy -0.791963 0.129751) (xy -0.803458 0.127000)
     (xy 0.169334 0.127000) (xy 0.177800 0.135466) (xy 0.186267 0.127000) (xy 0.177800 0.118533) (xy 0.169334 0.127000) (xy -0.803458 0.127000) (xy -0.838199 0.118686) (xy -0.918802 0.099552)
     (xy -0.968944 0.080867) (xy -0.991966 0.060940) (xy -0.991994 0.059266) (xy -0.355599 0.059266) (xy -0.347133 0.067733) (xy -0.343084 0.063684) (xy 0.701611 0.063684) (xy 0.718256 0.066396)
     (xy 0.740219 0.063283) (xy 0.740481 0.057502) (xy 0.717818 0.053460) (xy 0.708025 0.056165) (xy 0.701611 0.063684) (xy -0.343084 0.063684) (xy -0.338666 0.059266) (xy -0.347133 0.050800)
     (xy -0.355599 0.059266) (xy -0.991994 0.059266) (xy -0.992307 0.040675) (xy -0.993975 0.013145) (xy -1.007839 -0.033476) (xy -1.026221 -0.078450) (xy -1.053623 -0.150083) (xy -1.060367 -0.202035)
     (xy -1.057819 -0.217791) (xy -1.048182 -0.266661) (xy -1.041184 -0.322518) (xy -1.041085 -0.323699) (xy -1.040551 -0.330200) (xy -0.372533 -0.330200) (xy -0.364066 -0.321734) (xy -0.355599 -0.330200)
     (xy -0.364066 -0.338667) (xy -0.372533 -0.330200) (xy -1.040551 -0.330200) (xy -1.036055 -0.384930) (xy -1.224994 -0.438774) (xy -1.246293 -0.445064) (xy -0.353883 -0.445064) (xy -0.336915 -0.448617)
     (xy -0.333703 -0.449823) (xy -0.329802 -0.452347) (xy 0.612330 -0.452347) (xy 0.616450 -0.442884) (xy 0.633500 -0.424705) (xy 0.643302 -0.428434) (xy 0.643467 -0.430801) (xy 0.642629 -0.431800)
     (xy 0.982134 -0.431800) (xy 0.990601 -0.423334) (xy 0.999067 -0.431800) (xy 0.990601 -0.440267) (xy 0.982134 -0.431800) (xy 0.642629 -0.431800) (xy 0.631440 -0.445124) (xy 0.623917 -0.450351)
     (xy 0.612330 -0.452347) (xy -0.329802 -0.452347) (xy -0.312967 -0.463237) (xy -0.312957 -0.463760) (xy 0.784755 -0.463760) (xy 0.787400 -0.457200) (xy 0.802617 -0.441046) (xy 0.805333 -0.440267)
     (xy 0.810033 -0.448734) (xy 0.880534 -0.448734) (xy 0.889000 -0.440267) (xy 0.897467 -0.448734) (xy 0.889000 -0.457200) (xy 0.880534 -0.448734) (xy 0.810033 -0.448734) (xy 0.812606 -0.453368)
     (xy 0.812800 -0.457200) (xy 0.806032 -0.465667) (xy 0.931334 -0.465667) (xy 0.939801 -0.457200) (xy 0.948267 -0.465667) (xy 0.939801 -0.474134) (xy 0.931334 -0.465667) (xy 0.806032 -0.465667)
     (xy 0.799783 -0.473483) (xy 0.794868 -0.474134) (xy 0.784755 -0.463760) (xy -0.312957 -0.463760) (xy -0.312818 -0.470864) (xy -0.330731 -0.468964) (xy -0.343182 -0.459302) (xy -0.353883 -0.445064)
     (xy -1.246293 -0.445064) (xy -1.368673 -0.481204) (xy -1.372924 -0.482600) (xy 0.643467 -0.482600) (xy 0.651934 -0.474134) (xy 0.660400 -0.482600) (xy 0.657578 -0.485423) (xy 0.682978 -0.485423)
     (xy 0.685303 -0.475356) (xy 0.694267 -0.474134) (xy 0.708205 -0.480329) (xy 0.705556 -0.485423) (xy 0.685460 -0.487449) (xy 0.682978 -0.485423) (xy 0.657578 -0.485423) (xy 0.651934 -0.491067)
     (xy 0.728134 -0.491067) (xy 0.734329 -0.477129) (xy 0.739423 -0.479778) (xy 0.739707 -0.482600) (xy 0.965201 -0.482600) (xy 0.973667 -0.474134) (xy 0.982134 -0.482600) (xy 0.973667 -0.491067)
     (xy 0.965201 -0.482600) (xy 0.739707 -0.482600) (xy 0.741215 -0.497559) (xy 1.732945 -0.497559) (xy 1.735667 -0.491067) (xy 1.759074 -0.475095) (xy 1.791363 -0.490725) (xy 1.802191 -0.500743)
     (xy 1.812896 -0.516467) (xy 1.896534 -0.516467) (xy 1.905001 -0.508000) (xy 1.913467 -0.516467) (xy 1.905001 -0.524934) (xy 1.896534 -0.516467) (xy 1.812896 -0.516467) (xy 1.823818 -0.532509)
     (xy 1.828801 -0.551543) (xy 1.818589 -0.572756) (xy 1.796403 -0.572809) (xy 1.774913 -0.553773) (xy 1.769534 -0.541867) (xy 1.753907 -0.514489) (xy 1.741993 -0.508000) (xy 1.732945 -0.497559)
     (xy 0.741215 -0.497559) (xy 0.741449 -0.499874) (xy 0.739423 -0.502356) (xy 0.729356 -0.500032) (xy 0.728134 -0.491067) (xy 0.651934 -0.491067) (xy 0.643467 -0.482600) (xy -1.372924 -0.482600)
     (xy -1.481958 -0.518401) (xy -1.520379 -0.533400) (xy -0.355599 -0.533400) (xy -0.347133 -0.524934) (xy -0.338666 -0.533400) (xy -0.347133 -0.541867) (xy -0.355599 -0.533400) (xy -1.520379 -0.533400)
     (xy -1.567646 -0.551852) (xy -1.614265 -0.575734) (xy -0.550333 -0.575734) (xy -0.549559 -0.560105) (xy -0.543865 -0.558800) (xy -0.542835 -0.559332) (xy -0.491066 -0.559332) (xy -0.478654 -0.550015)
     (xy -0.465666 -0.552677) (xy -0.443386 -0.564696) (xy -0.440629 -0.568570) (xy 0.716674 -0.568570) (xy 0.728134 -0.558800) (xy 0.756511 -0.547914) (xy 0.791979 -0.542685) (xy 0.823485 -0.543260)
     (xy 0.839976 -0.549788) (xy 0.837354 -0.557344) (xy 0.808059 -0.570278) (xy 0.762108 -0.577775) (xy 0.719667 -0.577349) (xy 0.716674 -0.568570) (xy -0.440629 -0.568570) (xy -0.440266 -0.569079)
     (xy -0.454094 -0.574998) (xy -0.465666 -0.575734) (xy -0.488205 -0.566872) (xy -0.491066 -0.559332) (xy -0.542835 -0.559332) (xy -0.519927 -0.571158) (xy -0.516466 -0.575734) (xy -0.516885 -0.584200)
     (xy -0.338666 -0.584200) (xy -0.330199 -0.575734) (xy -0.321733 -0.584200) (xy 0.677334 -0.584200) (xy 0.685800 -0.575734) (xy 0.694267 -0.584200) (xy 0.685800 -0.592667) (xy 0.846667 -0.592667)
     (xy 0.852863 -0.578729) (xy 0.857956 -0.581378) (xy 0.859983 -0.601474) (xy 0.857956 -0.603956) (xy 0.847889 -0.601632) (xy 0.846667 -0.592667) (xy 0.685800 -0.592667) (xy 0.677334 -0.584200)
     (xy -0.321733 -0.584200) (xy -0.330199 -0.592667) (xy -0.338666 -0.584200) (xy -0.516885 -0.584200) (xy -0.517240 -0.591363) (xy -0.522934 -0.592667) (xy -0.546872 -0.580310) (xy -0.550333 -0.575734)
     (xy -1.614265 -0.575734) (xy -1.628537 -0.583045) (xy -1.662483 -0.609600) (xy -0.440266 -0.609600) (xy -0.428113 -0.593152) (xy -0.424332 -0.592667) (xy -0.401399 -0.604976) (xy -0.397933 -0.609600)
     (xy -0.401772 -0.624097) (xy -0.409380 -0.625630) (xy 0.707757 -0.625630) (xy 0.733994 -0.617226) (xy 0.765593 -0.614083) (xy 0.807414 -0.613503) (xy 0.821182 -0.619928) (xy 0.814560 -0.632881)
     (xy 0.783895 -0.647811) (xy 0.753176 -0.647543) (xy 0.713911 -0.636383) (xy 0.707757 -0.625630) (xy -0.409380 -0.625630) (xy -0.413867 -0.626534) (xy -0.437035 -0.617693) (xy -0.440266 -0.609600)
     (xy -1.662483 -0.609600) (xy -1.667427 -0.613467) (xy -1.674544 -0.624722) (xy -0.507999 -0.624722) (xy -0.495722 -0.611279) (xy -0.470230 -0.612275) (xy -0.448539 -0.626879) (xy -0.448037 -0.627660)
     (xy -0.442888 -0.648501) (xy -0.395827 -0.648501) (xy -0.372533 -0.646141) (xy -0.348494 -0.648802) (xy -0.351366 -0.654682) (xy -0.386035 -0.656918) (xy -0.393699 -0.654682) (xy -0.395827 -0.648501)
     (xy -0.442888 -0.648501) (xy -0.442615 -0.649602) (xy -0.444614 -0.653459) (xy -0.465680 -0.655223) (xy -0.493115 -0.643153) (xy -0.507926 -0.625859) (xy -0.507999 -0.624722) (xy -1.674544 -0.624722)
     (xy -1.687117 -0.644605) (xy -1.690403 -0.677946) (xy -1.689240 -0.685531) (xy -1.691118 -0.710451) (xy -1.501032 -0.710451) (xy -1.490603 -0.678046) (xy -1.473188 -0.656001) (xy -1.454667 -0.655375)
     (xy -1.453178 -0.656715) (xy -1.447687 -0.685845) (xy -1.461908 -0.722033) (xy -1.480544 -0.752284) (xy -1.492195 -0.754253) (xy -1.498598 -0.742157) (xy -1.501032 -0.710451) (xy -1.691118 -0.710451)
     (xy -1.692370 -0.727056) (xy -1.720720 -0.772719) (xy -1.730036 -0.783491) (xy -1.765263 -0.830625) (xy -1.802488 -0.892270) (xy -1.822390 -0.931334) (xy -1.847857 -0.982134) (xy -1.761066 -0.982134)
     (xy -1.754871 -0.968196) (xy -1.749777 -0.970845) (xy -1.747751 -0.990941) (xy -1.749777 -0.993423) (xy -1.759844 -0.991098) (xy -1.761066 -0.982134) (xy -1.847857 -0.982134) (xy -1.850173 -0.986752)
     (xy -1.876774 -1.032737) (xy -1.891627 -1.053470) (xy -1.908349 -1.086550) (xy -1.907744 -1.108088) (xy -1.907614 -1.147905) (xy -1.926612 -1.199228) (xy -1.959029 -1.250547) (xy -1.997599 -1.289217)
     (xy -2.029075 -1.314758) (xy -2.035570 -1.330861) (xy -2.020390 -1.346711) (xy -2.018743 -1.347942) (xy -1.999458 -1.369648) (xy -2.005817 -1.394650) (xy -1.925771 -1.394650) (xy -1.922353 -1.360676)
     (xy -1.904518 -1.301263) (xy -1.871737 -1.214127) (xy -1.869858 -1.209405) (xy -1.848813 -1.155059) (xy -1.834005 -1.113780) (xy -1.828799 -1.095299) (xy -1.819739 -1.076619) (xy -1.799435 -1.050057)
     (xy -1.778202 -1.027813) (xy -1.766614 -1.021741) (xy -1.770669 -1.038319) (xy -1.785334 -1.079432) (xy -1.808125 -1.138382) (xy -1.829210 -1.190643) (xy -1.857252 -1.261343) (xy -1.879575 -1.322028)
     (xy -1.893399 -1.364880) (xy -1.896533 -1.380142) (xy -1.906672 -1.402613) (xy -1.915302 -1.405467) (xy -1.925771 -1.394650) (xy -2.005817 -1.394650) (xy -2.006254 -1.396368) (xy -2.010833 -1.404206)
     (xy -2.026958 -1.447753) (xy -2.031999 -1.487280) (xy -2.042733 -1.533332) (xy -2.063459 -1.564156) (xy -2.085534 -1.599644) (xy -2.100284 -1.661737) (xy -2.105373 -1.704579) (xy -2.120172 -1.794705)
     (xy -2.144577 -1.857805) (xy -2.177408 -1.891455) (xy -2.198901 -1.896534) (xy -2.234061 -1.902890) (xy -2.238854 -1.918668) (xy -2.213932 -1.937742) (xy -2.182499 -1.969040) (xy -2.171271 -2.022872)
     (xy -2.180175 -2.100931) (xy -2.202946 -2.185796) (xy -2.236531 -2.271770) (xy -2.236781 -2.272200) (xy -1.972057 -2.272200) (xy -1.968798 -2.192456) (xy -1.960682 -2.103848) (xy -1.948715 -2.018529)
     (xy -1.939829 -1.972734) (xy -1.918643 -1.879248) (xy -1.902798 -1.813048) (xy -1.890807 -1.768252) (xy -1.881182 -1.738975) (xy -1.879894 -1.735667) (xy -1.867401 -1.698543) (xy -1.852157 -1.645790)
     (xy -1.846816 -1.625601) (xy -1.831769 -1.571436) (xy -1.817376 -1.526453) (xy -1.813245 -1.515534) (xy -1.802388 -1.485604) (xy -1.784282 -1.431940) (xy -1.761789 -1.363127) (xy -1.745534 -1.312334)
     (xy -1.721689 -1.238143) (xy -1.700285 -1.173291) (xy -1.684185 -1.126366) (xy -1.677752 -1.109134) (xy -1.665465 -1.074795) (xy -1.648302 -1.021198) (xy -1.634691 -0.975926) (xy -1.617916 -0.921422)
     (xy -1.604009 -0.892573) (xy -1.586609 -0.882452) (xy -1.559355 -0.884130) (xy -1.551544 -0.885372) (xy -1.468574 -0.887339) (xy -1.400968 -0.865701) (xy -1.377184 -0.848337) (xy -1.322035 -0.806580)
     (xy -1.249516 -0.769667) (xy -1.152727 -0.734317) (xy -1.109133 -0.720903) (xy -1.045402 -0.702253) (xy -0.994411 -0.687760) (xy -0.964641 -0.679820) (xy -0.960966 -0.679052) (xy -0.952727 -0.693030)
     (xy -0.946984 -0.730224) (xy -0.945895 -0.749300) (xy -0.938580 -0.913246) (xy -0.929373 -1.032243) (xy -0.440266 -1.032243) (xy -0.426676 -1.024743) (xy -0.395021 -1.026721) (xy -0.358980 -1.035843)
     (xy -0.339142 -1.046174) (xy 0.677334 -1.046174) (xy 0.692418 -1.038195) (xy 0.730352 -1.033782) (xy 0.749300 -1.033449) (xy 0.791542 -1.035505) (xy 0.803332 -1.041678) (xy 0.793239 -1.050325)
     (xy 0.760573 -1.060533) (xy 0.721201 -1.062634) (xy 0.688921 -1.057121) (xy 0.677334 -1.046174) (xy -0.339142 -1.046174) (xy -0.332227 -1.049775) (xy -0.331046 -1.050880) (xy -0.330137 -1.063532)
     (xy -0.350828 -1.066801) (xy -0.397860 -1.060993) (xy -0.431153 -1.046502) (xy -0.440266 -1.032243) (xy -0.929373 -1.032243) (xy -0.928329 -1.045725) (xy -0.915692 -1.142577) (xy -0.336268 -1.142577)
     (xy -0.331873 -1.135559) (xy -0.306012 -1.134327) (xy -0.270400 -1.137886) (xy -0.236750 -1.145240) (xy -0.220133 -1.152449) (xy -0.212384 -1.162444) (xy -0.233374 -1.163635) (xy -0.261479 -1.160233)
     (xy -0.305745 -1.152278) (xy -0.333313 -1.144378) (xy -0.336268 -1.142577) (xy -0.915692 -1.142577) (xy -0.914849 -1.149036) (xy -0.910542 -1.168401) (xy -0.186266 -1.168401) (xy -0.174113 -1.151952)
     (xy -0.170332 -1.151467) (xy -0.147399 -1.163776) (xy -0.143933 -1.168401) (xy -0.146213 -1.177014) (xy -0.105632 -1.177014) (xy -0.083872 -1.177570) (xy -0.040843 -1.185430) (xy 0.017800 -1.199623)
     (xy 0.027261 -1.202267) (xy 0.338667 -1.202267) (xy 0.352892 -1.188642) (xy 0.373533 -1.185334) (xy 0.396947 -1.191852) (xy 0.397934 -1.202267) (xy 0.373433 -1.217848) (xy 0.363068 -1.219201)
     (xy 0.341182 -1.209733) (xy 0.338667 -1.202267) (xy 0.027261 -1.202267) (xy 0.067734 -1.213577) (xy 0.099234 -1.223249) (xy 0.193611 -1.223249) (xy 0.210256 -1.220537) (xy 0.232219 -1.223651)
     (xy 0.232481 -1.229431) (xy 0.209818 -1.233473) (xy 0.200025 -1.230768) (xy 0.193611 -1.223249) (xy 0.099234 -1.223249) (xy 0.109174 -1.226301) (xy 0.119388 -1.231420) (xy 0.099830 -1.230203)
     (xy 0.084667 -1.228313) (xy -0.013602 -1.212465) (xy -0.079224 -1.194647) (xy -0.100466 -1.184731) (xy -0.105632 -1.177014) (xy -0.146213 -1.177014) (xy -0.147772 -1.182897) (xy -0.159867 -1.185334)
     (xy -0.183035 -1.176493) (xy -0.186266 -1.168401) (xy -0.910542 -1.168401) (xy -0.906775 -1.185334) (xy -0.778933 -1.185334) (xy -0.772737 -1.171396) (xy -0.767644 -1.174045) (xy -0.765617 -1.194141)
     (xy -0.767644 -1.196623) (xy -0.777711 -1.194298) (xy -0.778933 -1.185334) (xy -0.906775 -1.185334) (xy -0.897844 -1.225476) (xy -0.890325 -1.244601) (xy 1.083734 -1.244601) (xy 1.092201 -1.236134)
     (xy 1.100667 -1.244601) (xy 1.092201 -1.253067) (xy 1.083734 -1.244601) (xy -0.890325 -1.244601) (xy -0.878523 -1.274620) (xy -0.844065 -1.338507) (xy -0.873799 -1.364263) (xy 1.100667 -1.364263)
     (xy 1.110983 -1.307550) (xy 1.136925 -1.243967) (xy 1.170988 -1.191381) (xy 1.175311 -1.186609) (xy 1.191922 -1.166510) (xy 1.204363 -1.142412) (xy 1.213946 -1.108214) (xy 1.221986 -1.057815)
     (xy 1.229796 -0.985113) (xy 1.237553 -0.897467) (xy 1.247963 -0.782778) (xy 1.257661 -0.698014) (xy 1.267622 -0.639274) (xy 1.278824 -0.602658) (xy 1.292241 -0.584267) (xy 1.308851 -0.580200)
     (xy 1.316580 -0.581702) (xy 1.348256 -0.587567) (xy 1.401533 -0.594700) (xy 1.458193 -0.600873) (xy 1.591213 -0.629234) (xy 1.669860 -0.661438) (xy 1.758519 -0.698409) (xy 1.825272 -0.710181)
     (xy 1.869834 -0.696709) (xy 1.874645 -0.692449) (xy 1.892783 -0.686457) (xy 1.910451 -0.707563) (xy 1.914862 -0.719667) (xy 1.998134 -0.719667) (xy 2.006601 -0.711200) (xy 2.015067 -0.719667)
     (xy 2.006601 -0.728134) (xy 1.998134 -0.719667) (xy 1.914862 -0.719667) (xy 1.928854 -0.758060) (xy 1.946863 -0.829734) (xy 1.962772 -0.896813) (xy 1.980255 -0.966303) (xy 2.103886 -0.966303)
     (xy 2.106202 -0.965201) (xy 2.121655 -0.977121) (xy 2.125134 -0.982134) (xy 2.129449 -0.997965) (xy 2.127133 -0.999067) (xy 2.111679 -0.987146) (xy 2.108201 -0.982134) (xy 2.103886 -0.966303)
     (xy 1.980255 -0.966303) (xy 1.983003 -0.977223) (xy 1.995455 -1.024467) (xy 2.133601 -1.024467) (xy 2.142067 -1.016001) (xy 2.150534 -1.024467) (xy 2.142067 -1.032934) (xy 2.133601 -1.024467)
     (xy 1.995455 -1.024467) (xy 1.999919 -1.041401) (xy 2.056134 -1.253173) (xy 2.101998 -1.435999) (xy 2.138097 -1.592986) (xy 2.165017 -1.727239) (xy 2.183343 -1.841865) (xy 2.193662 -1.939970)
     (xy 2.196559 -2.024660) (xy 2.194716 -2.074334) (xy 2.190242 -2.139982) (xy 2.186634 -2.192878) (xy 2.184532 -2.223647) (xy 2.184320 -2.226734) (xy 2.185857 -2.263590) (xy 2.192602 -2.312904)
     (xy 2.202261 -2.362530) (xy 2.212540 -2.400319) (xy 2.219658 -2.413860) (xy 2.231330 -2.405031) (xy 2.242667 -2.372368) (xy 2.244696 -2.362671) (xy 2.256973 -2.317671) (xy 2.269086 -2.304347)
     (xy 2.278594 -2.320588) (xy 2.283059 -2.364280) (xy 2.282975 -2.370702) (xy 2.371236 -2.370702) (xy 2.378802 -2.362258) (xy 2.405727 -2.380214) (xy 2.405833 -2.380310) (xy 2.427064 -2.406588)
     (xy 2.420808 -2.418865) (xy 2.395447 -2.412674) (xy 2.385901 -2.402364) (xy 2.371236 -2.370702) (xy 2.282975 -2.370702) (xy 2.282647 -2.395537) (xy 2.278772 -2.488140) (xy 2.256626 -2.497667)
     (xy 2.438401 -2.497667) (xy 2.446867 -2.489200) (xy 2.455334 -2.497667) (xy 2.446867 -2.506134) (xy 2.438401 -2.497667) (xy 2.256626 -2.497667) (xy 2.200301 -2.521897) (xy 2.165768 -2.534356)
     (xy 2.342445 -2.534356) (xy 2.344769 -2.524289) (xy 2.353734 -2.523067) (xy 2.367672 -2.529263) (xy 2.365023 -2.534356) (xy 2.344927 -2.536383) (xy 2.342445 -2.534356) (xy 2.165768 -2.534356)
     (xy 2.147884 -2.540808) (xy 2.087191 -2.557391) (xy 2.026689 -2.570088) (xy 1.974849 -2.577336) (xy 1.940141 -2.577575) (xy 1.930401 -2.571628) (xy 1.915503 -2.565224) (xy 1.877888 -2.565372)
     (xy 1.856772 -2.567674) (xy 1.793291 -2.567795) (xy 1.716067 -2.556203) (xy 1.640327 -2.536157) (xy 1.581300 -2.510914) (xy 1.575889 -2.507577) (xy 1.560408 -2.490239) (xy 1.572234 -2.466911)
     (xy 1.573729 -2.465091) (xy 1.587229 -2.437584) (xy 1.574801 -2.413000) (xy 1.546928 -2.391531) (xy 1.532205 -2.387600) (xy 1.510156 -2.372785) (xy 1.495543 -2.335533) (xy 1.489253 -2.286632)
     (xy 1.492171 -2.236872) (xy 1.505182 -2.197043) (xy 1.515534 -2.184401) (xy 1.537011 -2.146745) (xy 1.537655 -2.095415) (xy 1.518032 -2.042985) (xy 1.508531 -2.029241) (xy 1.471587 -1.965121)
     (xy 1.443115 -1.884031) (xy 1.427442 -1.801324) (xy 1.427388 -1.741440) (xy 1.430971 -1.674919) (xy 1.420707 -1.635771) (xy 1.402442 -1.625601) (xy 1.382128 -1.615019) (xy 1.344000 -1.586982)
     (xy 1.294479 -1.547051) (xy 1.239989 -1.500787) (xy 1.186950 -1.453753) (xy 1.141786 -1.411510) (xy 1.110919 -1.379619) (xy 1.100667 -1.364263) (xy -0.873799 -1.364263) (xy -0.891932 -1.379970)
     (xy -0.931899 -1.412104) (xy -0.986642 -1.453077) (xy -1.032523 -1.485759) (xy -1.038432 -1.490134) (xy -0.389466 -1.490134) (xy -0.383271 -1.476196) (xy -0.378177 -1.478845) (xy -0.376186 -1.498601)
     (xy -0.338666 -1.498601) (xy -0.330199 -1.490134) (xy -0.321733 -1.498601) (xy -0.330199 -1.507067) (xy -0.338666 -1.498601) (xy -0.376186 -1.498601) (xy -0.376151 -1.498941) (xy -0.378177 -1.501423)
     (xy -0.388244 -1.499098) (xy -0.389466 -1.490134) (xy -1.038432 -1.490134) (xy -1.084175 -1.524001) (xy -1.108569 -1.549401) (xy 0.609600 -1.549401) (xy 0.618067 -1.540934) (xy 0.626534 -1.549401)
     (xy 0.618067 -1.557867) (xy 0.609600 -1.549401) (xy -1.108569 -1.549401) (xy -1.114226 -1.555291) (xy -1.130318 -1.589757) (xy -1.138164 -1.625757) (xy -1.153253 -1.683138) (xy -1.175007 -1.733278)
     (xy -1.181769 -1.743948) (xy -1.214847 -1.795362) (xy -1.248377 -1.856402) (xy -1.277562 -1.917172) (xy -1.297603 -1.967778) (xy -1.303866 -1.995749) (xy -1.291555 -2.033450) (xy -1.278466 -2.048934)
     (xy -1.260439 -2.082870) (xy -1.253132 -2.141794) (xy -1.253066 -2.148836) (xy -1.253799 -2.159000) (xy -1.134533 -2.159000) (xy -1.126066 -2.150534) (xy -1.117599 -2.159000) (xy -1.126066 -2.167467)
     (xy -1.134533 -2.159000) (xy -1.253799 -2.159000) (xy -1.257000 -2.203346) (xy -1.273196 -2.240428) (xy -1.304109 -2.272448) (xy -1.339507 -2.311437) (xy -1.351191 -2.351485) (xy -1.350676 -2.372879)
     (xy -1.349624 -2.396921) (xy -1.354201 -2.414740) (xy -1.369287 -2.428393) (xy -1.399760 -2.439941) (xy -1.450500 -2.451443) (xy -1.526387 -2.464956) (xy -1.596517 -2.476623) (xy -1.661219 -2.485334)
     (xy -1.714576 -2.485815) (xy -1.767490 -2.476287) (xy -1.830860 -2.454969) (xy -1.898689 -2.427266) (xy -1.939579 -2.405377) (xy -1.959925 -2.376633) (xy -1.969454 -2.330932) (xy -1.972057 -2.272200)
     (xy -2.236781 -2.272200) (xy -2.275792 -2.339225) (xy -2.317261 -2.383745) (xy -2.357470 -2.400913) (xy -2.370804 -2.399591) (xy -2.398991 -2.401011) (xy -2.404533 -2.414586) (xy -2.390426 -2.433896)
     (xy -2.370666 -2.438400) (xy -2.341125 -2.443932) (xy -2.341888 -2.459193) (xy -2.371489 -2.482181) (xy -2.421466 -2.507773) (xy -2.468137 -2.530944) (xy -2.498888 -2.550197) (xy -2.506133 -2.558502)
     (xy -2.520358 -2.570838) (xy -2.558500 -2.593540) (xy -2.613759 -2.622715) (xy -2.646555 -2.638935) (xy -2.715833 -2.671447) (xy -2.767621 -2.691301) (xy -2.814524 -2.701367) (xy -2.869149 -2.704517)
     (xy -2.931747 -2.703885) (xy -3.018494 -2.704748) (xy -3.076862 -2.713292) (xy -3.111941 -2.732033) (xy -3.128822 -2.763485) (xy -3.132666 -2.803156) (xy -3.126889 -2.860100) (xy -3.112321 -2.898714)
     (xy -3.093104 -2.915279) (xy -3.073381 -2.906077) (xy -3.057979 -2.870201) (xy -3.042938 -2.837134) (xy -3.025887 -2.829273) (xy -3.014988 -2.848378) (xy -3.014133 -2.860734) (xy -3.007212 -2.892567)
     (xy -2.998974 -2.902971) (xy -2.981869 -2.898464) (xy -2.968618 -2.869158) (xy -2.963333 -2.824409) (xy -2.959445 -2.800900) (xy -2.942894 -2.806947) (xy -2.937933 -2.810934) (xy -2.916222 -2.843813)
     (xy -2.912533 -2.862808) (xy -2.904730 -2.895643) (xy -2.887582 -2.902074) (xy -2.870478 -2.879292) (xy -2.869273 -2.875748) (xy -2.858667 -2.849820) (xy -2.846217 -2.854613) (xy -2.834653 -2.869634)
     (xy -2.819643 -2.886995) (xy -2.809048 -2.885501) (xy -2.799251 -2.860375) (xy -2.786634 -2.806842) (xy -2.786451 -2.806008) (xy -2.773886 -2.775423) (xy -2.758569 -2.769567) (xy -2.733747 -2.768240)
     (xy -2.712499 -2.754870) (xy -2.672847 -2.732059) (xy -2.641599 -2.723176) (xy -2.610276 -2.710393) (xy -2.604393 -2.693550) (xy -2.596089 -2.664457) (xy -2.560879 -2.646123) (xy -2.523993 -2.641860)
     (xy -2.484944 -2.630274) (xy -2.441742 -2.602042) (xy -2.434182 -2.595227) (xy -2.393629 -2.564420) (xy -2.347090 -2.550288) (xy -2.301846 -2.547213) (xy -2.237791 -2.540385) (xy -2.192672 -2.519970)
     (xy -2.175756 -2.505968) (xy -2.147471 -2.480950) (xy -2.135887 -2.478641) (xy -2.133602 -2.497958) (xy -2.133599 -2.499795) (xy -2.143115 -2.537817) (xy -2.153460 -2.553088) (xy -2.164820 -2.578150)
     (xy -2.154085 -2.615168) (xy -2.143978 -2.653700) (xy -2.152159 -2.697106) (xy -2.160749 -2.719376) (xy -2.178795 -2.803869) (xy -2.175795 -2.845618) (xy -2.174579 -2.908412) (xy -2.192806 -2.952399)
     (xy -2.210711 -2.990418) (xy -2.205035 -3.023639) (xy -2.201186 -3.031342) (xy -2.190733 -3.066259) (xy -2.193914 -3.114194) (xy -2.201718 -3.151208) (xy -2.211723 -3.203811) (xy -2.214849 -3.244605)
     (xy -2.213121 -3.257119) (xy -2.211267 -3.293433) (xy -2.221122 -3.352790) (xy -2.240230 -3.427466) (xy -2.266133 -3.509743) (xy -2.296375 -3.591900) (xy -2.302815 -3.606800) (xy -2.269066 -3.606800)
     (xy -2.262871 -3.592862) (xy -2.257777 -3.595512) (xy -2.255751 -3.615608) (xy -2.257777 -3.618089) (xy -2.267844 -3.615765) (xy -2.269066 -3.606800) (xy -2.302815 -3.606800) (xy -2.328499 -3.666216)
     (xy -2.345940 -3.698697) (xy -2.300552 -3.698697) (xy -2.292172 -3.671702) (xy -2.279957 -3.657612) (xy -2.279650 -3.657600) (xy -2.277331 -3.671308) (xy -2.281269 -3.692139) (xy -2.291655 -3.716135)
     (xy -2.298709 -3.718269) (xy -2.300552 -3.698697) (xy -2.345940 -3.698697) (xy -2.360049 -3.724970) (xy -2.363872 -3.730898) (xy -2.391244 -3.776264) (xy -2.408989 -3.813193) (xy -2.411999 -3.823520)
     (xy -2.432184 -3.862903) (xy -2.472426 -3.892469) (xy -2.521103 -3.907727) (xy -2.566592 -3.904188) (xy -2.587413 -3.891280) (xy -2.604665 -3.881465) (xy -2.607733 -3.888656) (xy -2.593085 -3.918917)
     (xy -2.557447 -3.945983) (xy -2.513273 -3.961345) (xy -2.499796 -3.962401) (xy -2.459729 -3.951346) (xy -2.417061 -3.924329) (xy -2.383487 -3.890572) (xy -2.370666 -3.860571) (xy -2.360338 -3.849742)
     (xy -2.353733 -3.852334) (xy -2.341435 -3.875274) (xy -2.336799 -3.911600) (xy -2.331597 -3.947522) (xy -2.319886 -3.969970) (xy -2.307512 -3.972661) (xy -2.300426 -3.950700) (xy -2.295064 -3.898080)
     (xy -2.287239 -3.861682) (xy -2.272989 -3.823894) (xy -2.270674 -3.818467) (xy -2.242743 -3.737819) (xy -2.215246 -3.628634) (xy -2.189492 -3.496235) (xy -2.185305 -3.471334) (xy -2.173050 -3.403943)
     (xy -2.160336 -3.345357) (xy -2.149751 -3.307403) (xy -2.149005 -3.305437) (xy -2.141038 -3.268650) (xy -2.135472 -3.211102) (xy -2.133600 -3.151626) (xy -2.131848 -3.091817) (xy -2.127258 -3.045911)
     (xy -2.120900 -3.024004) (xy -2.113306 -3.001256) (xy -2.107054 -2.955922) (xy -2.104337 -2.915348) (xy -2.099790 -2.811561) (xy -2.095454 -2.736432) (xy -2.090813 -2.684758) (xy -2.085351 -2.651339)
     (xy -2.078551 -2.630973) (xy -2.075569 -2.625668) (xy -2.066582 -2.594237) (xy -2.063203 -2.545356) (xy -2.063650 -2.528302) (xy -2.061155 -2.477832) (xy -2.049321 -2.456709) (xy -2.031660 -2.466456)
     (xy -2.012529 -2.506134) (xy -1.994091 -2.543165) (xy -1.977057 -2.556259) (xy -1.968003 -2.544274) (xy -1.971559 -2.513249) (xy -1.976064 -2.491476) (xy -1.972687 -2.479780) (xy -1.956170 -2.478576)
     (xy -1.921260 -2.488278) (xy -1.862699 -2.509298) (xy -1.844588 -2.516074) (xy -1.485624 -2.516074) (xy -1.481666 -2.506134) (xy -1.458136 -2.493001) (xy -1.434100 -2.490391) (xy -1.408156 -2.492368)
     (xy -1.414983 -2.499101) (xy -1.430866 -2.506134) (xy -1.472132 -2.520498) (xy -1.485624 -2.516074) (xy -1.844588 -2.516074) (xy -1.820333 -2.525148) (xy -1.762580 -2.543619) (xy -1.710330 -2.555081)
     (xy -1.690202 -2.556925) (xy -1.637560 -2.563318) (xy -1.601302 -2.573448) (xy -1.566882 -2.581413) (xy -1.557866 -2.573448) (xy -1.543238 -2.561224) (xy -1.511300 -2.556191) (xy -1.465075 -2.549570)
     (xy -1.409329 -2.534116) (xy -1.397000 -2.529678) (xy -1.331809 -2.506089) (xy -1.296560 -2.496581) (xy -1.290367 -2.501206) (xy -1.312346 -2.520020) (xy -1.331978 -2.533659) (xy -1.377979 -2.573283)
     (xy -1.430998 -2.632204) (xy -1.481741 -2.700038) (xy -1.484378 -2.703965) (xy -1.522531 -2.759192) (xy -1.554404 -2.801682) (xy -1.574996 -2.824917) (xy -1.579033 -2.827364) (xy -1.591203 -2.841106)
     (xy -1.591733 -2.846420) (xy -1.600528 -2.872496) (xy -1.621713 -2.909426) (xy -1.622045 -2.909920) (xy -1.668161 -2.995450) (xy -1.711965 -3.109436) (xy -1.752268 -3.246485) (xy -1.787878 -3.401204)
     (xy -1.817603 -3.568201) (xy -1.840254 -3.742084) (xy -1.854638 -3.917459) (xy -1.856621 -3.959178) (xy -1.422400 -3.959178) (xy -1.412458 -3.948087) (xy -1.392205 -3.954997) (xy -1.376001 -3.974709)
     (xy -1.375476 -3.976170) (xy -1.380767 -3.988920) (xy -1.395585 -3.986000) (xy -1.418876 -3.968697) (xy -1.422400 -3.959178) (xy -1.856621 -3.959178) (xy -1.857397 -3.975502) (xy -1.860488 -4.069347)
     (xy -1.860916 -4.136836) (xy -1.858012 -4.185419) (xy -1.851108 -4.222549) (xy -1.839538 -4.255675) (xy -1.830476 -4.275884) (xy -1.809869 -4.321556) (xy -1.797042 -4.353516) (xy -1.794933 -4.361332)
     (xy -1.786105 -4.379737) (xy -1.763502 -4.416154) (xy -1.745172 -4.443490) (xy -1.712309 -4.497056) (xy -1.674995 -4.566456) (xy -1.643093 -4.632808) (xy -1.612991 -4.698511) (xy -1.583901 -4.759335)
     (xy -1.562008 -4.802354) (xy -1.561621 -4.803064) (xy -1.529781 -4.853513) (xy -1.489467 -4.906957) (xy -1.447136 -4.956025) (xy -1.409246 -4.993349) (xy -1.382254 -5.011558) (xy -1.378316 -5.012267)
     (xy -1.358916 -4.999652) (xy -1.355605 -4.973937) (xy -1.368417 -4.954968) (xy -1.379753 -4.935752) (xy -1.397216 -4.892665) (xy -1.417372 -4.834324) (xy -1.421064 -4.822735) (xy -1.442045 -4.757163)
     (xy -1.461028 -4.699862) (xy -1.474204 -4.662308) (xy -1.475046 -4.660104) (xy -1.490221 -4.588483) (xy -1.481566 -4.522573) (xy -1.451589 -4.473960) (xy -1.426728 -4.455952) (xy -1.392433 -4.443390)
     (xy -1.341004 -4.434462) (xy -1.264746 -4.427358) (xy -1.248389 -4.426176) (xy -1.171964 -4.420090) (xy -1.123345 -4.413771) (xy -1.096496 -4.405653) (xy -1.085382 -4.394170) (xy -1.083733 -4.383462)
     (xy -1.100442 -4.353778) (xy -1.149676 -4.325139) (xy -1.230099 -4.298134) (xy -1.329266 -4.275473) (xy -1.410437 -4.258719) (xy -1.463402 -4.244850) (xy -1.493477 -4.231923) (xy -1.505978 -4.217992)
     (xy -1.507297 -4.210355) (xy -1.511610 -4.179774) (xy -1.518439 -4.150225) (xy -1.523097 -4.126381) (xy -1.515251 -4.115644) (xy -1.487406 -4.114884) (xy -1.444793 -4.119464) (xy -1.379603 -4.131251)
     (xy -1.304230 -4.150598) (xy -1.261011 -4.164354) (xy -1.202516 -4.182921) (xy -1.167878 -4.188075) (xy -1.150236 -4.180656) (xy -1.148418 -4.178181) (xy -1.136087 -4.153834) (xy -1.134792 -4.148356)
     (xy -1.146353 -4.129338) (xy -1.176770 -4.095530) (xy -1.218815 -4.053741) (xy -1.265258 -4.010779) (xy -1.308872 -3.973454) (xy -1.342428 -3.948575) (xy -1.352668 -3.943119) (xy -1.380302 -3.929495)
     (xy -1.379004 -3.913482) (xy -1.365368 -3.897137) (xy -1.341532 -3.864675) (xy -1.346231 -3.844112) (xy -1.380066 -3.826934) (xy -1.414603 -3.805541) (xy -1.419191 -3.782948) (xy -1.392990 -3.765377)
     (xy -1.388533 -3.764107) (xy -1.359875 -3.745711) (xy -1.358304 -3.720442) (xy -1.381474 -3.701737) (xy -1.399720 -3.682688) (xy -1.396611 -3.659516) (xy -1.375833 -3.649134) (xy -1.347985 -3.639401)
     (xy -1.348070 -3.615128) (xy -1.361117 -3.597931) (xy -1.385280 -3.564929) (xy -1.382683 -3.544002) (xy -1.364132 -3.539067) (xy -1.335153 -3.528526) (xy -1.326297 -3.505705) (xy -1.339797 -3.486064)
     (xy -1.352974 -3.470968) (xy -1.336522 -3.455078) (xy -1.333143 -3.453050) (xy -1.313159 -3.432174) (xy -1.313289 -3.418987) (xy -1.311995 -3.391652) (xy -1.290246 -3.346919) (xy -1.252106 -3.290748)
     (xy -1.201643 -3.229101) (xy -1.142921 -3.167937) (xy -1.140376 -3.165507) (xy -1.009821 -3.053421) (xy -0.880131 -2.965263) (xy -0.834507 -2.940160) (xy -0.780015 -2.912224) (xy -0.678927 -3.062563)
     (xy -0.626978 -3.137334) (xy -0.587186 -3.187332) (xy -0.554761 -3.217107) (xy -0.524914 -3.231208) (xy -0.498148 -3.234267) (xy -0.480700 -3.230789) (xy -0.477852 -3.218052) (xy -0.491691 -3.192607)
     (xy -0.524301 -3.151002) (xy -0.577768 -3.089785) (xy -0.601133 -3.063819) (xy -0.652075 -3.006245) (xy -0.693274 -2.957356) (xy -0.720096 -2.922807) (xy -0.728133 -2.908864) (xy -0.712321 -2.892246)
     (xy -0.667639 -2.869680) (xy -0.598218 -2.842825) (xy -0.508191 -2.813339) (xy -0.441415 -2.793782) (xy -0.361952 -2.768995) (xy -0.306250 -2.744535) (xy -0.264597 -2.715548) (xy -0.242790 -2.694471)
     (xy -0.202371 -2.656589) (xy -0.180352 -2.647047) (xy -0.177665 -2.665171) (xy -0.195244 -2.710286) (xy -0.202018 -2.723952) (xy -0.230212 -2.791251) (xy -0.235503 -2.836853) (xy -0.217878 -2.859433)
     (xy -0.203199 -2.861734) (xy -0.174795 -2.849663) (xy -0.169333 -2.828663) (xy -0.157607 -2.801637) (xy -0.118775 -2.781838) (xy -0.105833 -2.777958) (xy -0.058250 -2.766381) (xy -0.022296 -2.760434)
     (xy -0.018024 -2.760228) (xy 0.010538 -2.749302) (xy 0.045733 -2.723069) (xy 0.046570 -2.722287) (xy 0.086856 -2.684440) (xy 0.152617 -2.722287) (xy 0.200604 -2.745745) (xy 0.241777 -2.759020)
     (xy 0.251737 -2.760134) (xy 0.306962 -2.769282) (xy 0.334699 -2.797282) (xy 0.338667 -2.821212) (xy 0.347365 -2.853477) (xy 0.372534 -2.861734) (xy 0.392047 -2.857722) (xy 0.402246 -2.840354)
     (xy 0.406019 -2.801626) (xy 0.406400 -2.767887) (xy 0.406401 -2.674041) (xy 0.469900 -2.740306) (xy 0.531780 -2.791988) (xy 0.607011 -2.827030) (xy 0.635000 -2.835778) (xy 0.700216 -2.855729)
     (xy 0.761176 -2.876353) (xy 0.792845 -2.888402) (xy 0.828971 -2.905533) (xy 0.838411 -2.920893) (xy 0.826284 -2.944349) (xy 0.823756 -2.947986) (xy 0.807181 -2.982111) (xy 0.805876 -3.003579)
     (xy 0.794539 -3.018577) (xy 0.756912 -3.043297) (xy 0.698073 -3.074685) (xy 0.647965 -3.098541) (xy 0.576195 -3.132680) (xy 0.513433 -3.165008) (xy 0.467813 -3.191198) (xy 0.450302 -3.203681)
     (xy 0.428402 -3.226123) (xy 0.431729 -3.237588) (xy 0.449391 -3.245329) (xy 0.482740 -3.243846) (xy 0.540912 -3.222773) (xy 0.623855 -3.182321) (xy 0.729711 -3.121681) (xy 0.809002 -3.065166)
     (xy 0.859808 -3.014395) (xy 0.880213 -2.970988) (xy 0.880534 -2.965568) (xy 0.882084 -2.940928) (xy 0.891517 -2.932177) (xy 0.916007 -2.939248) (xy 0.962728 -2.962074) (xy 0.967977 -2.964750)
     (xy 1.115627 -3.056629) (xy 1.255111 -3.175019) (xy 1.379178 -3.312577) (xy 1.480580 -3.461959) (xy 1.506764 -3.510479) (xy 1.521555 -3.550737) (xy 1.515364 -3.582039) (xy 1.509914 -3.591601)
     (xy 1.497382 -3.629419) (xy 1.511720 -3.652976) (xy 1.533467 -3.657600) (xy 1.552841 -3.670114) (xy 1.556840 -3.697216) (xy 1.545325 -3.723252) (xy 1.534110 -3.730827) (xy 1.516925 -3.754403)
     (xy 1.512066 -3.800372) (xy 1.516615 -3.841279) (xy 1.531395 -3.858145) (xy 1.552756 -3.860800) (xy 1.585006 -3.868048) (xy 1.588274 -3.885266) (xy 1.563007 -3.905670) (xy 1.549401 -3.911601)
     (xy 1.514661 -3.936145) (xy 1.510319 -3.966991) (xy 1.536701 -3.995968) (xy 1.556882 -4.011739) (xy 1.548687 -4.025553) (xy 1.535199 -4.034910) (xy 1.508755 -4.056177) (xy 1.471803 -4.089351)
     (xy 1.545302 -4.089351) (xy 1.561444 -4.069109) (xy 1.575800 -4.064000) (xy 1.591417 -4.076774) (xy 1.591734 -4.079934) (xy 1.580485 -4.101308) (xy 1.558396 -4.112559) (xy 1.546578 -4.109156)
     (xy 1.545302 -4.089351) (xy 1.471803 -4.089351) (xy 1.466478 -4.094131) (xy 1.416440 -4.141470) (xy 1.403965 -4.153620) (xy 1.343442 -4.217769) (xy 1.311228 -4.263751) (xy 1.307293 -4.291431)
     (xy 1.331607 -4.300670) (xy 1.384141 -4.291333) (xy 1.430867 -4.276155) (xy 1.488576 -4.261721) (xy 1.558789 -4.252578) (xy 1.593145 -4.251010) (xy 1.646893 -4.251380) (xy 1.675050 -4.256520)
     (xy 1.685891 -4.270846) (xy 1.687688 -4.298771) (xy 1.687689 -4.301453) (xy 1.687634 -4.324096) (xy 1.683751 -4.339846) (xy 1.670467 -4.351096) (xy 1.642207 -4.360242) (xy 1.593396 -4.369676)
     (xy 1.518460 -4.381794) (xy 1.490134 -4.386297) (xy 1.386380 -4.406041) (xy 1.314009 -4.427606) (xy 1.270546 -4.452039) (xy 1.253519 -4.480384) (xy 1.253067 -4.486470) (xy 1.253713 -4.501139)
     (xy 1.259239 -4.511231) (xy 1.275027 -4.517657) (xy 1.306459 -4.521332) (xy 1.358917 -4.523170) (xy 1.437784 -4.524084) (xy 1.476376 -4.524384) (xy 1.551433 -4.533885) (xy 1.603012 -4.561919)
     (xy 1.631358 -4.609790) (xy 1.636717 -4.678803) (xy 1.619333 -4.770262) (xy 1.579453 -4.885473) (xy 1.555154 -4.943313) (xy 1.531964 -4.995046) (xy 1.512067 -5.037429) (xy 1.505683 -5.050137)
     (xy 1.491036 -5.091572) (xy 1.501487 -5.111927) (xy 1.513078 -5.113867) (xy 1.539116 -5.101097) )(layer F.Cu) (width  0.010000)
  )
  (fp_poly (pts (xy -0.389466 4.021666) (xy -0.397933 4.030133) (xy -0.406399 4.021666) (xy -0.397933 4.013200) (xy -0.389466 4.021666) )(layer F.Cu) (width  0.010000)
  )
  (fp_poly (pts (xy -2.218266 1.888066) (xy -2.226733 1.896533) (xy -2.235199 1.888066) (xy -2.226733 1.879599) (xy -2.218266 1.888066) )(layer F.Cu) (width  0.010000)
  )
  (fp_poly (pts (xy -1.439333 -0.465667) (xy -1.447800 -0.457200) (xy -1.456266 -0.465667) (xy -1.447800 -0.474134) (xy -1.439333 -0.465667) )(layer F.Cu) (width  0.010000)
  )
  (fp_poly (pts (xy 0.812800 -2.921000) (xy 0.804334 -2.912534) (xy 0.795867 -2.921000) (xy 0.804334 -2.929467) (xy 0.812800 -2.921000) )(layer F.Cu) (width  0.010000)
  )
  (fp_poly (pts (xy 2.590801 -3.716867) (xy 2.582334 -3.708400) (xy 2.573867 -3.716867) (xy 2.582334 -3.725334) (xy 2.590801 -3.716867) )(layer F.Cu) (width  0.010000)
  )
  (fp_poly (pts (xy 1.828801 -4.817534) (xy 1.820334 -4.809067) (xy 1.811867 -4.817534) (xy 1.820334 -4.826000) (xy 1.828801 -4.817534) )(layer F.Cu) (width  0.010000)
  )
)
